<?xml version="1.0" encoding="utf-8"?>
<!-- Generator: Adobe Illustrator 21.1.0, SVG Export Plug-In . SVG Version: 6.00 Build 0)  -->
<svg version="1.1" id="Layer_1" xmlns="http://www.w3.org/2000/svg" xmlns:xlink="http://www.w3.org/1999/xlink" x="0px" y="0px"
	 viewBox="0 0 100 100" style="enable-background:new 0 0 100 100;" xml:space="preserve">
<style type="text/css">
	.st0{clip-path:url(#SVGID_2_);fill:#5E3389;}
	.st1{clip-path:url(#SVGID_2_);fill:#73409B;}
	.st2{clip-path:url(#SVGID_2_);fill:#E4E3FF;}
	.st3{clip-path:url(#SVGID_2_);fill:#4B2878;}
</style>
<g>
	<defs>
		<rect id="SVGID_1_" x="1" y="0" width="97.9" height="100"/>
	</defs>
	<clipPath id="SVGID_2_">
		<use xlink:href="#SVGID_1_"  style="overflow:visible;"/>
	</clipPath>
	<path class="st0" d="M19.6,0h47.5c3.7,0,6.7,3,6.7,6.6v74.1c0,3.6-3,6.6-6.7,6.6H7.7c-3.7,0-6.7-3-6.7-6.6V18.2
		c0-0.5,0.2-1,0.6-1.4C6,12.5,12.9,5.8,18.1,0.6C18.5,0.2,19,0,19.6,0"/>
	<path class="st1" d="M24.9,0h47.5c3.7,0,6.7,3,6.7,6.6v74.1c0,3.6-3,6.6-6.7,6.6H13c-3.7,0-6.7-3-6.7-6.6V18.2c0-0.5,0.2-1,0.6-1.4
		c4.4-4.3,11.2-11.1,16.5-16.2C23.8,0.2,24.3,0,24.9,0"/>
	<path class="st1" d="M23.9,0.1V15c0,1.3-1,2.3-2.3,2.3H6.5C10.9,12.9,18.4,5.5,23.9,0.1"/>
	<path class="st0" d="M58.2,43.4H22.7c-1.9,0-3.4,1.5-3.4,3.4c0,1.9,1.5,3.4,3.4,3.4h35.5c1.9,0,3.4-1.5,3.4-3.4
		C61.6,44.9,60.1,43.4,58.2,43.4"/>
	<path class="st0" d="M22.7,33h35.5c1.9,0,3.4-1.5,3.4-3.4c0-1.9-1.5-3.4-3.4-3.4H22.7c-1.9,0-3.4,1.5-3.4,3.4
		C19.3,31.5,20.8,33,22.7,33"/>
	<path class="st2" d="M60.6,43.4H25.2c-1.9,0-3.4,1.5-3.4,3.4c0,1.9,1.5,3.4,3.4,3.4h35.5c1.9,0,3.4-1.5,3.4-3.4
		C64,44.9,62.5,43.4,60.6,43.4"/>
	<path class="st0" d="M58.2,59.5H22.7c-1.9,0-3.4,1.5-3.4,3.4c0,1.9,1.5,3.4,3.4,3.4h35.5c1.9,0,3.4-1.5,3.4-3.4
		C61.6,61,60.1,59.5,58.2,59.5"/>
	<path class="st2" d="M60.6,59.5H25.2c-1.9,0-3.4,1.5-3.4,3.4c0,1.9,1.5,3.4,3.4,3.4h35.5c1.9,0,3.4-1.5,3.4-3.4
		C64,61,62.5,59.5,60.6,59.5"/>
	<path class="st2" d="M25.2,33h35.5c1.9,0,3.4-1.5,3.4-3.4c0-1.9-1.5-3.4-3.4-3.4H25.2c-1.9,0-3.4,1.5-3.4,3.4
		C21.7,31.5,23.3,33,25.2,33"/>
	<path class="st3" d="M78.7,37.9L89.3,43c1.7,0.8,3.8,0.1,4.6-1.6c0.8-1.7,0.1-3.7-1.6-4.5l-10.6-5.1c-1.7-0.8-3.8-0.1-4.6,1.6
		C76.3,35.1,77,37.1,78.7,37.9"/>
	<path class="st3" d="M78.2,43.6c1.9,1.2,4.1,2,6.1,3l3.3-6.8c0.8-1.7,0.1-3.7-1.6-4.5c-1.7-0.8-3.8-0.1-4.6,1.6L78.2,43.6
		C78.2,43.6,78.2,43.6,78.2,43.6"/>
	<polygon class="st3" points="82.8,31.5 80,31.5 80,33.4 83.4,33.4 	"/>
	<path class="st3" d="M62.6,90.4c-1.1,0-1.9-0.4-2.4-1.1h-2.9l-3.8,5.3c-1.1,1.5-0.7,3.6,0.8,4.7c1.5,1.1,3.7,0.7,4.8-0.8l5.9-8.2
		H62.6z"/>
	<path class="st3" d="M84,94.6l-3.8-5.3h-1c-0.5,0.6-1.3,1.1-2.4,1.1h-4.3l5.9,8.2c1.1,1.5,3.3,1.9,4.8,0.8
		C84.7,98.3,85.1,96.2,84,94.6"/>
	<path class="st3" d="M95.7,66.3c0,15.2-12.5,27.6-28,27.6s-28-12.3-28-27.6s12.5-27.6,28-27.6S95.7,51,95.7,66.3"/>
	<path class="st0" d="M99,66.3c0,15.2-12.5,27.6-28,27.6c-15.5,0-28-12.3-28-27.6s12.5-27.6,28-27.6C86.4,38.7,99,51,99,66.3"/>
	<path class="st2" d="M94,66.3C94,78.8,83.7,89,71,89c-12.7,0-23.1-10.2-23.1-22.7c0-12.6,10.3-22.7,23.1-22.7
		C83.7,43.5,94,53.7,94,66.3"/>
	<path class="st0" d="M62.6,90.4c-1.1,0-1.9-0.4-2.4-1.1h-0.9l-3.8,5.3c-1.1,1.5-0.7,3.6,0.8,4.7c1.5,1.1,3.7,0.7,4.8-0.8l5.9-8.2
		H62.6z"/>
	<path class="st0" d="M86,94.6l-3.8-5.3h-2.9c-0.5,0.6-1.3,1.1-2.4,1.1h-2.3l5.9,8.2c1.1,1.5,3.3,1.9,4.8,0.8
		C86.7,98.3,87.1,96.2,86,94.6"/>
	<path class="st0" d="M81.3,37.9L91.9,43c1.7,0.8,3.8,0.1,4.6-1.6c0.8-1.7,0.1-3.7-1.6-4.5l-10.6-5.1c-1.7-0.8-3.8-0.1-4.6,1.6
		C78.9,35.1,79.6,37.1,81.3,37.9"/>
	<path class="st0" d="M80.8,43.6c1.9,1.2,4.1,2,6.1,3l3.3-6.8c0.8-1.7,0.1-3.7-1.6-4.5c-1.7-0.8-3.8-0.1-4.6,1.6L80.8,43.6
		C80.8,43.6,80.8,43.6,80.8,43.6"/>
	<path class="st1" d="M76.5,67.2h-4.6V55c0-1.4-1.2-2.6-2.6-2.6c-1.4,0-2.6,1.1-2.6,2.6v14.8c0,1.4,1.2,2.6,2.6,2.6h7.2
		c1.4,0,2.6-1.1,2.6-2.6C79.1,68.4,78,67.2,76.5,67.2"/>
</g>
</svg>
