<?xml version="1.0" encoding="utf-8"?>
<!-- Generator: Adobe Illustrator 24.0.1, SVG Export Plug-In . SVG Version: 6.00 Build 0)  -->
<svg version="1.1" id="Layer_1" xmlns="http://www.w3.org/2000/svg" xmlns:xlink="http://www.w3.org/1999/xlink" x="0px" y="0px"
	 viewBox="0 0 23.1 27.2" style="enable-background:new 0 0 23.1 27.2;" xml:space="preserve">
<style type="text/css">
	.st0{opacity:0.85;fill:#30ACF8;enable-background:new    ;}
	.st1{fill:#30ACF8;enable-background:new    ;}
	.st2{fill:#235084;}
	.st3{fill:#FFFFFF;}
</style>
<g>
	<path class="st0" d="M11.5,27.2l1.5-0.3c-0.2-0.8-0.8-1.2-1.6-1.2L11.5,27.2C11.6,27.3,11.5,27.2,11.5,27.2z"/>
	<path class="st1" d="M11.9,24.1l7.5-10l0.8-1.1c0.1-0.1,0.2-0.2,0.4-0.3V1.9c0-1-0.8-1.9-1.9-1.9H1.9C0.8,0,0,0.8,0,1.9v21
		c0,1,0.8,1.9,1.9,1.9h9.6L11.9,24.1z"/>
	<path class="st2" d="M22.5,12.7c-0.8-0.6-1.7-0.4-2.3,0.3l-0.8,1.1l0,0l-7.5,10l0,0l-0.5,0.7v1c0.8,0,1.4,0.4,1.6,1.1l0,0l0.9-0.2
		l0.5-0.7l0,0l7.5-10l0,0l0.8-0.9C23.3,14.3,23.2,13.3,22.5,12.7z"/>
	<g>
		<path class="st3" d="M15.5,9.2H4.4c-0.6,0-0.9-0.4-0.9-0.9s0.4-0.9,0.9-0.9h11.1c0.6,0,0.9,0.4,0.9,0.9S16,9.2,15.5,9.2z"/>
		<path class="st3" d="M11.5,17H4.4c-0.6,0-0.9-0.4-0.9-0.9c0-0.5,0.4-0.9,0.9-0.9h7.1c0.6,0,0.9,0.4,0.9,0.9
			C12.4,16.6,12,17,11.5,17z"/>
		<path class="st3" d="M13.9,13.1H4.4c-0.6,0-0.9-0.4-0.9-0.9c0-0.6,0.4-0.9,0.9-0.9h9.5c0.6,0,0.9,0.4,0.9,0.9
			C14.8,12.7,14.3,13.1,13.9,13.1z"/>
		<path class="st3" d="M15.5,5.3H4.4c-0.6,0-0.9-0.4-0.9-0.9s0.4-0.9,0.9-0.9h11.1c0.6,0,0.9,0.4,0.9,0.9S16,5.3,15.5,5.3z"/>
	</g>
</g>
</svg>
