<?xml version="1.0" encoding="utf-8"?>
<!-- Generator: Adobe Illustrator 21.1.0, SVG Export Plug-In . SVG Version: 6.00 Build 0)  -->
<svg version="1.1" id="Layer_1" xmlns="http://www.w3.org/2000/svg" xmlns:xlink="http://www.w3.org/1999/xlink" x="0px" y="0px"
	 viewBox="0 0 100 100" style="enable-background:new 0 0 100 100;" xml:space="preserve">
<style type="text/css">
	.st0{clip-path:url(#SVGID_2_);}
	.st1{clip-path:url(#SVGID_4_);fill:#214F86;}
	.st2{clip-path:url(#SVGID_4_);fill:#3A63AE;}
	.st3{clip-path:url(#SVGID_4_);fill:#E4EDFD;}
	.st4{clip-path:url(#SVGID_4_);fill:#A9BBE0;}
	.st5{opacity:0.51;clip-path:url(#SVGID_4_);}
	.st6{clip-path:url(#SVGID_6_);fill:#7C9DD0;}
</style>
<g>
	<defs>
		<rect id="SVGID_1_" x="4" width="92" height="100"/>
	</defs>
	<clipPath id="SVGID_2_">
		<use xlink:href="#SVGID_1_"  style="overflow:visible;"/>
	</clipPath>
	<g class="st0">
		<defs>
			<rect id="SVGID_3_" x="4" y="0" width="92" height="100"/>
		</defs>
		<clipPath id="SVGID_4_">
			<use xlink:href="#SVGID_3_"  style="overflow:visible;"/>
		</clipPath>
		<path class="st1" d="M52.8,0H11.3C7.3,0,4,3.3,4,7.3v76c0,4.1,3.3,7.3,7.3,7.3h54.5c4.1,0,7.3-3.3,7.3-7.3v-63
			c0-0.6-0.2-1.2-0.6-1.6C67.7,14,60.2,6.4,54.4,0.7C54,0.2,53.4,0,52.8,0"/>
		<path class="st2" d="M57.8,0H16.2c-4.1,0-7.3,3.3-7.3,7.3v76c0,4.1,3.3,7.3,7.3,7.3h54.5c4.1,0,7.3-3.3,7.3-7.3v-63
			c0-0.6-0.2-1.2-0.6-1.6C72.7,14,65.1,6.4,59.3,0.7C58.9,0.2,58.4,0,57.8,0"/>
		<path class="st1" d="M47.1,57.8c-1.2-1.2-3-1.2-4.2,0l-9.7,9.7l-3.8-3.8c-1.2-1.2-3-1.2-4.2,0c-1.2,1.2-1.2,3,0,4.2l5.9,5.9
			c1.2,1.2,3,1.2,4.2,0l11.8-11.8C48.3,60.8,48.3,58.9,47.1,57.8"/>
		<polygon class="st1" points="45.1,56.9 48.4,56.9 48.4,61.1 45.8,61.1 		"/>
		<polygon class="st1" points="36.4,74.6 33.1,74.6 33.1,70.4 35.7,70.4 		"/>
		<polygon class="st1" points="27.3,62.8 30.6,62.8 30.6,67 28,67 		"/>
		<path class="st3" d="M50.3,57.8c-1.2-1.2-3-1.2-4.2,0l-9.7,9.7l-3.8-3.8c-1.2-1.2-3-1.2-4.2,0c-1.2,1.2-1.2,3,0,4.2l5.9,5.9
			c1.2,1.2,3,1.2,4.2,0l11.8-11.8C51.4,60.8,51.4,58.9,50.3,57.8"/>
		<path class="st1" d="M47.1,38.2c-1.2-1.2-3-1.2-4.2,0l-9.7,9.7l-3.8-3.8c-1.2-1.2-3-1.2-4.2,0c-1.2,1.2-1.2,3,0,4.2l5.9,5.9
			c1.2,1.2,3,1.2,4.2,0l11.8-11.8C48.3,41.2,48.3,39.3,47.1,38.2"/>
		<polygon class="st1" points="45.1,37.3 48.4,37.3 48.4,41.5 45.8,41.5 		"/>
		<polygon class="st1" points="36.4,55.1 33.1,55.1 33.1,50.9 35.7,50.9 		"/>
		<polygon class="st1" points="27.3,43.2 30.6,43.2 30.6,47.5 28,47.5 		"/>
		<path class="st3" d="M50.3,38.2c-1.2-1.2-3-1.2-4.2,0l-9.7,9.7l-3.8-3.8c-1.2-1.2-3-1.2-4.2,0c-1.2,1.2-1.2,3,0,4.2l5.9,5.9
			c1.2,1.2,3,1.2,4.2,0l11.8-11.8C51.4,41.2,51.4,39.3,50.3,38.2"/>
		<path class="st1" d="M47.1,18.6c-1.2-1.2-3-1.2-4.2,0l-9.7,9.7l-3.8-3.8c-1.2-1.2-3-1.2-4.2,0c-1.2,1.2-1.2,3,0,4.2l5.9,5.9
			c1.2,1.2,3,1.2,4.2,0l11.8-11.8C48.3,21.7,48.3,19.8,47.1,18.6"/>
		<polygon class="st1" points="45.1,17.8 48.4,17.8 48.4,22 45.8,22 		"/>
		<polygon class="st1" points="36.4,35.5 33.1,35.5 33.1,31.3 35.7,31.3 		"/>
		<polygon class="st1" points="27.3,23.7 30.6,23.7 30.6,27.9 28,27.9 		"/>
		<path class="st3" d="M50.3,18.6c-1.2-1.2-3-1.2-4.2,0l-9.7,9.7l-3.8-3.8c-1.2-1.2-3-1.2-4.2,0c-1.2,1.2-1.2,3,0,4.2l5.9,5.9
			c1.2,1.2,3,1.2,4.2,0l11.8-11.8C51.4,21.7,51.4,19.8,50.3,18.6"/>
		<path class="st3" d="M58.8,0.1v16.6c0,1.4,1.1,2.5,2.5,2.5h16.6C73,14.3,64.8,6.2,58.8,0.1"/>
		<path class="st4" d="M94.9,39.1c2-3.1,1.1-7.2-1.9-9.2c-3.1-2-7.1-1.1-9.2,1.9l-2.8,4.2l11.1,7.2L94.9,39.1z"/>
		<rect x="42.3" y="62" transform="matrix(0.548 -0.8364 0.8364 0.548 -26.7543 87.6484)" class="st4" width="50.9" height="13.2"/>
		<rect x="79.6" y="36.9" transform="matrix(0.5481 -0.8364 0.8364 0.5481 1.6461 90.039)" class="st2" width="9.1" height="13.2"/>
		<path class="st4" d="M53.8,97.6l3.9-1.5l1.7-2.6l-11.1-7.3l-1.7,2.6l0.1,4.2c1.5-0.2,3,0.2,4.4,1.1C52.4,95,53.3,96.2,53.8,97.6"
			/>
		<path class="st1" d="M47.9,100l5.9-2.3c-0.5-1.4-1.4-2.6-2.7-3.5c-1.4-0.9-2.9-1.2-4.4-1.1l0.2,6.3C47,99.8,47.4,100.1,47.9,100"
			/>
		<g class="st5">
			<g>
				<defs>
					<rect id="SVGID_5_" x="51.8" y="46" width="30.9" height="44.5"/>
				</defs>
				<clipPath id="SVGID_6_">
					<use xlink:href="#SVGID_5_"  style="overflow:visible;"/>
				</clipPath>
				<path class="st6" d="M79.7,46L51.8,88.6c0.7,0.3,1.4,0.6,2.1,1.1c0.4,0.3,0.8,0.6,1.1,0.9L82.7,48L79.7,46z"/>
			</g>
		</g>
	</g>
</g>
</svg>
