<?xml version="1.0" encoding="utf-8"?>
<!-- Generator: Adobe Illustrator 21.1.0, SVG Export Plug-In . SVG Version: 6.00 Build 0)  -->
<svg version="1.1" id="Isolation_Mode" xmlns="http://www.w3.org/2000/svg" xmlns:xlink="http://www.w3.org/1999/xlink" x="0px"
	 y="0px" viewBox="0 0 29.3 29.3" style="enable-background:new 0 0 29.3 29.3;" xml:space="preserve">
<style type="text/css">
	.st0{fill:#DD482A;}
	.st1{fill:#F76037;}
	.st2{fill:#FCEBE6;}
	.st3{fill:#C1361F;}
</style>
<path class="st0" d="M4.3,24.6c0,1.3,1.1,2.3,2.3,2.3h3.5c0,0,0,0.1,0,0.1h11.7c0,0,0-0.1,0-0.1h3.5c1.3,0,2.3-1.1,2.3-2.3V5.9
	L21.9,0H6.7C5.4,0,4.3,1.1,4.3,2.3v0.6H2.6v7.6h1.7V24.6z M18.4,5.3c0-1.3-1.1-2.3-2.3-2.3C17.4,2.9,18.4,4,18.4,5.3z M18.4,8.2
	c0,1.3-1.1,2.3-2.3,2.3C17.4,10.6,18.4,9.5,18.4,8.2z"/>
<path class="st1" d="M22.9,0H8.2C6.9,0,5.9,1.1,5.9,2.3v0.6H2.3C1.1,2.9,0,4,0,5.3v2.9c0,1.3,1.1,2.3,2.3,2.3h3.5v4.1v7.6v2.3
	c0,1.3,1.1,2.3,2.3,2.3H10h1.8c0,1.3,1.1,2.3,2.3,2.3h7c1.3,0,2.3-1.1,2.3-2.3h1.8H27c1.3,0,2.3-1.1,2.3-2.3V6.5V5.9L23.5,0H22.9z
	 M19.9,5.3c0-1.3-1.1-2.3-2.3-2.3C18.9,2.9,19.9,4,19.9,5.3z M19.9,8.2c0,1.3-1.1,2.3-2.3,2.3C18.9,10.6,19.9,9.5,19.9,8.2z"/>
<path class="st0" d="M19.9,5.3v2.9c0,1.3-1.1,2.3-2.3,2.3H2.3C1.1,10.6,0,9.5,0,8.2V5.3C0,4,1.1,2.9,2.3,2.9h15.3
	C18.9,2.9,19.9,4,19.9,5.3z"/>
<path class="st2" d="M20.9,5.3v2.9c0,1.3-1.1,2.3-2.3,2.3H3.3C2.1,10.6,1,9.5,1,8.2V5.3C1,4,2.1,2.9,3.3,2.9h15.3
	C19.9,2.9,20.9,4,20.9,5.3z"/>
<path class="st3" d="M20.1,29.3h-7c-1.3,0-2.3-1.1-2.3-2.3v-5.9c0-1.3,1.1-2.3,2.3-2.3h7c1.3,0,2.3,1.1,2.3,2.3V27
	C22.5,28.3,21.4,29.3,20.1,29.3z"/>
<path class="st0" d="M21.1,29.3h-7c-1.3,0-2.3-1.1-2.3-2.3v-5.9c0-1.3,1.1-2.3,2.3-2.3h7c1.3,0,2.3,1.1,2.3,2.3V27
	C23.5,28.3,22.4,29.3,21.1,29.3z"/>
<polygon class="st2" points="17.6,26.4 15.8,26.4 15.8,24.6 18.8,21.7 20.5,23.5 "/>
<path class="st2" d="M23.5,0h-0.6v4.1c0,1.3,1.1,2.3,2.3,2.3h4.1V5.9L23.5,0z"/>
<g>
	<rect x="3.8" y="7.6" class="st1" width="1.2" height="1.2"/>
	<path class="st1" d="M7.5,4.7H5.9v4.1h1.2V7.5h0.4c0.8,0,1.6-0.4,1.6-1.5C9.2,5.2,8.6,4.7,7.5,4.7z M7.1,5.7h0.4
		C7.9,5.7,8,5.8,8,6.1c0,0.3-0.2,0.5-0.5,0.5H7.1L7.1,5.7z"/>
	<path class="st1" d="M13,6.7c0-1.3-0.7-2-2.1-2H9.7v4.1H11C12.3,8.8,13,8,13,6.7z M10.9,7.8V5.7c0.5,0,1,0.1,1,1.1
		C11.8,7.7,11.3,7.8,10.9,7.8z"/>
	<polygon class="st1" points="16.3,5.7 16.3,4.7 13.6,4.7 13.6,8.8 14.8,8.8 14.8,7.3 16.1,7.3 16.1,6.3 14.8,6.3 14.8,5.7 	"/>
</g>
<path class="st0" d="M23.1,13.6H9.9c-0.7,0-1.2,0.6-1.2,1.2c0,0.7,0.6,1.2,1.2,1.2h13.2c0.7,0,1.2-0.6,1.2-1.2
	C24.4,14.2,23.8,13.6,23.1,13.6z"/>
<path class="st2" d="M24,13.6H10.8c-0.7,0-1.2,0.6-1.2,1.2c0,0.7,0.6,1.2,1.2,1.2H24c0.7,0,1.2-0.6,1.2-1.2
	C25.2,14.2,24.7,13.6,24,13.6z"/>
</svg>
