<?xml version="1.0" encoding="utf-8"?>
<!-- Generator: Adobe Illustrator 21.1.0, SVG Export Plug-In . SVG Version: 6.00 Build 0)  -->
<svg version="1.1" id="Isolation_Mode" xmlns="http://www.w3.org/2000/svg" xmlns:xlink="http://www.w3.org/1999/xlink" x="0px"
	 y="0px" viewBox="0 0 100 100" style="enable-background:new 0 0 100 100;" xml:space="preserve">
<style type="text/css">
	.st0{fill:#6D3568;}
	.st1{fill:#905184;}
	.st2{fill:#EAE5FD;}
	.st3{fill:#4F1C4D;}
	.st4{opacity:0.2;fill:#905184;}
</style>
<g>
	<path class="st0" d="M81.4,0H25.1c-2.7,0-5.2,1-7.1,2.9l-9,8.8c-1.8,1.8-2.9,4.2-2.9,6.8V78c0,3.6,2.9,6.5,6.5,6.5h68.7
		c3.6,0,6.5-2.9,6.5-6.5V6.5C87.9,2.9,85,0,81.4,0z"/>
	<path class="st1" d="M86.1,0H29.9c-2.7,0-5.2,1-7.1,2.9l-9,8.8c-1.8,1.8-2.9,4.2-2.9,6.8V78c0,3.6,2.9,6.5,6.5,6.5h68.7
		c3.6,0,6.5-2.9,6.5-6.5V6.5C92.7,2.9,89.7,0,86.1,0z"/>
	<g>
		<path class="st0" d="M71.9,40.3H27.3c-2.3,0-4.1,1.9-4.1,4.1c0,2.3,1.9,4.1,4.1,4.1h44.7c2.3,0,4.1-1.9,4.1-4.1
			C76.1,42.2,74.2,40.3,71.9,40.3z"/>
		<path class="st0" d="M27.3,27.7h44.7c2.3,0,4.1-1.9,4.1-4.1s-1.9-4.1-4.1-4.1H27.3c-2.3,0-4.1,1.9-4.1,4.1S25,27.7,27.3,27.7z"/>
	</g>
	<g>
		<path class="st2" d="M74.9,40.3H30.2c-2.3,0-4.1,1.9-4.1,4.1c0,2.3,1.9,4.1,4.1,4.1h44.7c2.3,0,4.1-1.9,4.1-4.1
			C79,42.2,77.1,40.3,74.9,40.3z"/>
		<path class="st2" d="M30.2,27.7h44.7c2.3,0,4.1-1.9,4.1-4.1s-1.9-4.1-4.1-4.1H30.2c-2.3,0-4.1,1.9-4.1,4.1S27.9,27.7,30.2,27.7z"
			/>
	</g>
	<g>
		<g>
			<circle class="st2" cx="27.9" cy="81.2" r="14.5"/>
			<circle class="st2" cx="68.6" cy="81.2" r="14.5"/>
			<path class="st3" d="M53.2,86.5c-1.6,0-2.9-1.3-2.9-2.9c0-0.4-0.8-1-2-1c-1.3,0-2,0.7-2,1c0,1.6-1.3,2.9-2.9,2.9
				c-1.6,0-2.9-1.3-2.9-2.9c0-3.8,3.5-6.9,7.9-6.9s7.9,3.1,7.9,6.9C56.1,85.2,54.8,86.5,53.2,86.5z"/>
			<path class="st3" d="M89.1,84.5H84c-1.6,0-2.9-1.3-2.9-2.9c0-1.6,1.3-2.9,2.9-2.9h5.1c1.6,0,2.9,1.3,2.9,2.9
				C92,83.2,90.7,84.5,89.1,84.5z"/>
			<path class="st3" d="M12.5,84.5H7.5c-1.6,0-2.9-1.3-2.9-2.9c0-1.6,1.3-2.9,2.9-2.9h5.1c1.6,0,2.9,1.3,2.9,2.9
				C15.5,83.2,14.2,84.5,12.5,84.5z"/>
			<polygon class="st4" points="70.1,68.4 57.1,93.9 65.7,93.9 78.8,68.4 			"/>
			<polygon class="st4" points="26.3,68.4 13.2,93.9 21.9,93.9 35,68.4 			"/>
			<g>
				<path class="st3" d="M28,100c-10.1,0-18.4-8.3-18.4-18.4S17.8,63.2,28,63.2s18.4,8.3,18.4,18.4S38.1,100,28,100z M28,69
					c-6.9,0-12.6,5.6-12.6,12.6c0,6.9,5.6,12.6,12.6,12.6s12.6-5.6,12.6-12.6C40.5,74.7,34.9,69,28,69z"/>
			</g>
			<path class="st3" d="M68.6,100c-10.1,0-18.4-8.3-18.4-18.4s8.3-18.4,18.4-18.4S87,71.5,87,81.6S78.7,100,68.6,100z M68.6,69
				C61.7,69,56,74.7,56,81.6c0,6.9,5.6,12.6,12.6,12.6s12.6-5.6,12.6-12.6C81.2,74.7,75.5,69,68.6,69z"/>
		</g>
		<g>
			<circle class="st2" cx="31.3" cy="81.2" r="14.5"/>
			<circle class="st2" cx="72" cy="81.2" r="14.5"/>
			<path class="st0" d="M56.7,86.5c-1.6,0-2.9-1.3-2.9-2.9c0-0.4-0.8-1-2-1c-1.3,0-2,0.7-2,1c0,1.6-1.3,2.9-2.9,2.9
				c-1.6,0-2.9-1.3-2.9-2.9c0-3.8,3.5-6.9,7.9-6.9s7.9,3.1,7.9,6.9C59.6,85.2,58.3,86.5,56.7,86.5z"/>
			<path class="st0" d="M92.5,84.5h-5.1c-1.6,0-2.9-1.3-2.9-2.9c0-1.6,1.3-2.9,2.9-2.9h5.1c1.6,0,2.9,1.3,2.9,2.9
				C95.4,83.2,94.1,84.5,92.5,84.5z"/>
			<path class="st0" d="M16,84.5h-5.1c-1.6,0-2.9-1.3-2.9-2.9c0-1.6,1.3-2.9,2.9-2.9H16c1.6,0,2.9,1.3,2.9,2.9
				C18.9,83.2,17.6,84.5,16,84.5z"/>
			<polygon class="st4" points="73.5,68.4 60.5,93.9 69.2,93.9 82.2,68.4 			"/>
			<polygon class="st4" points="29.7,68.4 16.7,93.9 25.3,93.9 38.4,68.4 			"/>
			<g>
				<path class="st0" d="M31.4,100C21.3,100,13,91.7,13,81.6s8.3-18.4,18.4-18.4s18.4,8.3,18.4,18.4S41.5,100,31.4,100z M31.4,69
					c-6.9,0-12.6,5.6-12.6,12.6c0,6.9,5.6,12.6,12.6,12.6S44,88.5,44,81.6C44,74.7,38.3,69,31.4,69z"/>
			</g>
			<path class="st0" d="M72,100c-10.1,0-18.4-8.3-18.4-18.4S61.9,63.2,72,63.2s18.4,8.3,18.4,18.4S82.2,100,72,100z M72,69
				c-6.9,0-12.6,5.6-12.6,12.6c0,6.9,5.6,12.6,12.6,12.6s12.6-5.6,12.6-12.6C84.6,74.7,79,69,72,69z"/>
		</g>
	</g>
</g>
</svg>
