<?xml version="1.0" encoding="utf-8"?>
<!-- Generator: Adobe Illustrator 21.1.0, SVG Export Plug-In . SVG Version: 6.00 Build 0)  -->
<svg version="1.1" id="Layer_1" xmlns="http://www.w3.org/2000/svg" xmlns:xlink="http://www.w3.org/1999/xlink" x="0px" y="0px"
	 viewBox="0 0 378.3 362.1" style="enable-background:new 0 0 378.3 362.1;" xml:space="preserve">
<style type="text/css">
	.st0{fill:#FFA25C;}
	.st1{clip-path:url(#SVGID_2_);fill:#FFFFFF;}
	.st2{clip-path:url(#SVGID_2_);fill:#F97D2F;}
	.st3{clip-path:url(#SVGID_2_);fill:none;stroke:#F97D2F;stroke-width:4;stroke-miterlimit:10;}
</style>
<polygon class="st0" points="153.1,295.7 227.9,295.7 309,344.6 309.6,298.1 342.5,289.5 364.2,273.4 370.4,200.2 362.9,107.3 
	348.7,88.7 323.3,86.8 255.9,86.2 244.8,87.5 "/>
<g>
	<defs>
		<rect id="SVGID_1_" width="378.3" height="362.1"/>
	</defs>
	<clipPath id="SVGID_2_">
		<use xlink:href="#SVGID_1_"  style="overflow:visible;"/>
	</clipPath>
	<path class="st1" d="M247.2,50.9L34.7,51.5L16.1,72.6l-4.3,34.1L13,236.8c0,0,16.7,14.9,19.8,15.5c3.1,0.6,22.9,3.1,22.9,3.1
		l10.5,16.7l2.5,35.9l66.9-47.7l24.8-4.3L247.2,50.9z"/>
	<path class="st2" d="M273.8,2c-4.1,0-7.6,2.1-9,6.4l-13.9,32L49.1,40.2c-26.3,0-47,20.7-47,47l0,131.7c0,26.3,20.7,47,47,47l9.4,0
		l0,47c0,3.8,1.9,7.5,5.7,7.5c0,1.9,1.9,1.9,3.7,1.9c1.9,0,3.8,0,5.7-1.9l73.3-54.5l5.8,0L125.5,328c-1.9,5.6,0,11.3,5.7,13.2l3.7,0
		c3.8,0,7.5-1.9,9.4-5.7l14-32.1c1.7,0.1,3.4,0.1,4.8,0.1l68.3,0l82.1,54.6c1.9,1.9,3.8,1.9,5.7,1.9c1.9,0-6.9,0-5-1.9
		c3.8,0,5.7-3.8,5.7-7.5l0-47l9.4,0c26.3,0,47-20.7,47-47l0-131.7c0-26.3-20.7-47-47-47l-72.8,0l27.1-62.1c1.9-3.8,0-9.4-5.7-13.2
		C276.5,2.2,275.1,2,273.8,2 M170.5,224.7l-9.8,22.5l-17.7,0c-1.9,0-3.8,0-5.7,1.9l-60.2,45.1l0-37.6c0-5.6-3.8-9.4-9.4-9.4l-18.8,0
		c-15,0-28.2-13.2-28.2-28.2l0-131.7C20.9,72.2,34,59,49.1,59l193.6,0.1l-71.9,165.1 M159.1,207c-12-7.4-22.6-16.7-31.4-27.3
		c13.8-18.5,22.4-40.7,25.1-64.2l10.2,0c5.3,0,9.6-4.3,9.6-9.6c-0.1-5.5-3.8-9.2-9.4-9.2l-37.6,0l0-9.2c0-5.3-4.3-9.6-9.6-9.6
		c-5.6,0.1-9.2,3.8-9.2,9.4l0,9.4l-37.4,0c-5.3,0-9.6,4.3-9.6,9.6c0.1,5.6,3.8,9.2,9.4,9.2l12.1,0c2.2,22.6,10.2,44.6,23,63.6
		c-6,6.4-12.7,12.2-20.1,17.3c-5.6,3.8-5.7,9.4-3.8,13.1c1.9,1.9,3.8,3.7,7.5,3.8c1.9,0,3.8,0,5.7-1.9c8-5.1,15.3-11.1,21.9-17.7
		c9.8,11.2,21.3,20.9,34.3,28.6c4.2,2.5,9.6,1.2,12.2-3C164.6,215.1,163.3,209.6,159.1,207 M248.3,96.7l80.9,0.1
		c15,0,28.2,13.2,28.2,28.2l0,131.7c0,15-13.2,28.2-28.2,28.2l-18.8,0c-5.6,0-9.4,3.8-9.4,9.4l0,37.6l-60.2-43.3
		c-1.9-1.9-3.8-1.9-5.7-1.9l-69.6,0L248.3,96.7z M100.1,115.5l33.8,0c-2.3,17.6-8.4,33.8-17.7,48C107.5,148.9,102,132.6,100.1,115.5
		 M269.3,134.4c-15,0-28.2,13.2-28.2,28.2l0,75.2c0,5.6,3.8,9.4,9.4,9.4c5.6,0,9.4-3.8,9.4-9.4l0-28.2l43.3,0l0,28.2
		c0,5.6,3.8,9.4,9.4,9.4c5.6,0,9.4-3.8,9.4-9.4l0-75.2c0-15-13.2-28.2-28.2-28.2L269.3,134.4z M269.3,153.2l24.5,0
		c5.6,0,9.4,3.8,9.4,9.4l0,28.2l-43.3,0l0-28.2C259.9,156.9,263.6,153.2,269.3,153.2"/>
	<path class="st3" d="M273.8,2c-4.1,0-7.6,2.1-9,6.4l-13.9,32L49.1,40.2c-26.3,0-47,20.7-47,47l0,131.7c0,26.3,20.7,47,47,47l9.4,0
		l0,47c0,3.8,1.9,7.5,5.7,7.5c0,1.9,1.9,1.9,3.7,1.9c1.9,0,3.8,0,5.7-1.9l73.3-54.5l5.8,0L125.5,328c-1.9,5.6,0,11.3,5.7,13.2l3.7,0
		c3.8,0,7.5-1.9,9.4-5.7l14-32.1c1.7,0.1,3.4,0.1,4.8,0.1l68.3,0l82.1,54.6c1.9,1.9,3.8,1.9,5.7,1.9c1.9,0-6.9,0-5-1.9
		c3.8,0,5.7-3.8,5.7-7.5l0-47l9.4,0c26.3,0,47-20.7,47-47l0-131.7c0-26.3-20.7-47-47-47l-72.8,0l27.1-62.1c1.9-3.8,0-9.4-5.7-13.2
		C276.5,2.2,275.1,2,273.8,2z M170.5,224.7l-9.8,22.5l-17.7,0c-1.9,0-3.8,0-5.7,1.9l-60.2,45.1l0-37.6c0-5.6-3.8-9.4-9.4-9.4
		l-18.8,0c-15,0-28.2-13.2-28.2-28.2l0-131.7C20.9,72.2,34,59,49.1,59l193.6,0.1l-71.9,165.1 M159.1,207
		c-12-7.4-22.6-16.7-31.4-27.3c13.8-18.5,22.4-40.7,25.1-64.2l10.2,0c5.3,0,9.6-4.3,9.6-9.6c-0.1-5.5-3.8-9.2-9.4-9.2l-37.6,0l0-9.2
		c0-5.3-4.3-9.6-9.6-9.6c-5.6,0.1-9.2,3.8-9.2,9.4l0,9.4l-37.4,0c-5.3,0-9.6,4.3-9.6,9.6c0.1,5.6,3.8,9.2,9.4,9.2l12.1,0
		c2.2,22.6,10.2,44.6,23,63.6c-6,6.4-12.7,12.2-20.1,17.3c-5.6,3.8-5.7,9.4-3.8,13.1c1.9,1.9,3.8,3.7,7.5,3.8c1.9,0,3.8,0,5.7-1.9
		c8-5.1,15.3-11.1,21.9-17.7c9.8,11.2,21.3,20.9,34.3,28.6c4.2,2.5,9.6,1.2,12.2-3C164.6,215.1,163.3,209.6,159.1,207z M248.3,96.7
		l80.9,0.1c15,0,28.2,13.2,28.2,28.2l0,131.7c0,15-13.2,28.2-28.2,28.2l-18.8,0c-5.6,0-9.4,3.8-9.4,9.4l0,37.6l-60.2-43.3
		c-1.9-1.9-3.8-1.9-5.7-1.9l-69.6,0L248.3,96.7z M100.1,115.5l33.8,0c-2.3,17.6-8.4,33.8-17.7,48C107.5,148.9,102,132.6,100.1,115.5
		z M269.3,134.4c-15,0-28.2,13.2-28.2,28.2l0,75.2c0,5.6,3.8,9.4,9.4,9.4c5.6,0,9.4-3.8,9.4-9.4l0-28.2l43.3,0l0,28.2
		c0,5.6,3.8,9.4,9.4,9.4c5.6,0,9.4-3.8,9.4-9.4l0-75.2c0-15-13.2-28.2-28.2-28.2L269.3,134.4z M269.3,153.2l24.5,0
		c5.6,0,9.4,3.8,9.4,9.4l0,28.2l-43.3,0l0-28.2C259.9,156.9,263.6,153.2,269.3,153.2z"/>
</g>
</svg>
