<?xml version="1.0" encoding="utf-8"?>
<!-- Generator: Adobe Illustrator 23.0.3, SVG Export Plug-In . SVG Version: 6.00 Build 0)  -->
<svg version="1.1" id="Capa_1" xmlns="http://www.w3.org/2000/svg" xmlns:xlink="http://www.w3.org/1999/xlink" x="0px" y="0px"
	 viewBox="0 0 150 150" style="enable-background:new 0 0 150 150;" xml:space="preserve">
<style type="text/css">
	.st0{fill:#FFB583;}
	.st1{fill:#8CB4EB;}
	.st2{fill:#B67F5F;}
	.st3{fill:#64505A;}
	.st4{fill:#739BD7;}
	.st5{fill:#5A4650;}
	.st6{fill:#A06E50;}
	.st7{fill:#CD916E;}
	.st8{fill:#6E5A64;}
	.st9{fill:#FFE17D;}
	.st10{fill:#FFD164;}
</style>
<rect x="-0.09" y="-0.44" class="st0" width="150" height="150.88"/>
<g>
	<path class="st1" d="M106.48,24.9l-28.62-7.63c-1.93-0.51-3.96-0.51-5.88,0L43.35,24.9c-1.72,0.46-3.19,1.57-4.11,3.09L28.8,45.39
		c-1.08,1.8-0.79,4.1,0.69,5.58l11.18,11.18h68.49l11.18-11.18c1.48-1.48,1.76-3.78,0.69-5.58L110.59,28
		C109.67,26.47,108.2,25.36,106.48,24.9z"/>
	<path class="st2" d="M129.71,150.32v-7.15c0-6.08-4-11.43-9.83-13.14l-24.06-7.08c-2.91-0.86-4.92-3.53-4.92-6.57v-8.57H58.93v8.57
		c0,3.04-2,5.71-4.92,6.57l-24.06,7.08c-5.83,1.71-9.83,7.07-9.83,13.14v7.15H129.71z"/>
	<path class="st1" d="M129.71,150.32v-7.15c0-6.08-4-11.43-9.83-13.14l-24.06-7.08c-1.52-0.45-2.79-1.4-3.66-2.63l-17.27,5.75
		l-17.22-5.75c-0.87,1.23-2.13,2.18-3.65,2.63l-24.06,7.08c-5.83,1.71-9.83,7.07-9.83,13.14v7.15H129.71z"/>
	<polygon class="st3" points="79.98,150.32 78.6,138.74 71.19,139 69.84,150.32 	"/>
	<path class="st4" d="M45.74,125.39c0.15,0.6,0.36,1.18,0.68,1.73l7.16,12.52c1.22,2.13,3.5,3.45,5.95,3.45
		c1.63,0,3.21-0.59,4.45-1.65l10.91-9.35l10.91,9.35c1.24,1.06,2.82,1.65,4.45,1.65c2.45,0,4.73-1.32,5.95-3.45l7.16-12.52
		c0.32-0.55,0.53-1.14,0.68-1.74l-8.23-2.42c-1.52-0.45-2.79-1.4-3.66-2.63l-17.27,5.75l-17.22-5.75c-0.87,1.23-2.13,2.18-3.65,2.63
		L45.74,125.39z"/>
	<path class="st5" d="M76.18,140.07h-2.53c-2.15,0-4.04-1.43-4.69-3.54l-3.18-10.46h18.26l-3.18,10.46
		C80.22,138.64,78.33,140.07,76.18,140.07z"/>
	<path class="st6" d="M58.93,112.9c4.8,2.56,10.24,4.04,15.98,4.04s11.19-1.48,15.98-4.04v-5.09H58.93V112.9z"/>
	<path class="st7" d="M105.73,73.56h-1.14V50.73H45.23v22.83h-1.14c-3.14,0-5.71,2.57-5.71,5.71c0,3.14,2.57,5.71,5.71,5.71h1.26
		c1.17,15.32,13.94,27.4,29.57,27.4s28.4-12.08,29.57-27.4h1.26c3.14,0,5.71-2.57,5.71-5.71C111.44,76.13,108.87,73.56,105.73,73.56
		z"/>
	<g>
		<path class="st5" d="M61.21,80.61c-1.26,0-2.28-1.02-2.28-2.28v-2.28c0-1.26,1.02-2.28,2.28-2.28c1.26,0,2.28,1.02,2.28,2.28v2.28
			C63.5,79.59,62.47,80.61,61.21,80.61z"/>
		<path class="st5" d="M88.61,80.61c-1.26,0-2.28-1.02-2.28-2.28v-2.28c0-1.26,1.02-2.28,2.28-2.28c1.26,0,2.28,1.02,2.28,2.28v2.28
			C90.89,79.59,89.87,80.61,88.61,80.61z"/>
	</g>
	<path class="st2" d="M74.91,73.56c10.82,0,22.08-1.69,29.68-5.22V50.73H45.23v22.83h-0.94c-2.6,0-5.03,1.65-5.7,4.16
		c-1.02,3.8,1.86,7.26,5.5,7.26h1.26c1.17,15.32,13.94,27.4,29.57,27.4c1.56,0,3.08-0.15,4.58-0.38
		c-14.23-2.2-25.13-14.46-25.13-29.3v-3.17c0-4.16,3.66-7.31,7.79-6.78C66.3,73.29,70.64,73.56,74.91,73.56z"/>
	<g>
		<path class="st5" d="M45.8,74.07l-5.14,0.65V57.58h9.13v11.96C49.8,71.84,48.09,73.78,45.8,74.07z"/>
		<path class="st5" d="M104.02,74.07l5.14,0.65V57.58h-9.13v11.96C100.03,71.84,101.74,73.78,104.02,74.07z"/>
	</g>
	<g>
		<path class="st1" d="M53.27,116.79l-2.95,5.91c-0.34,0.68-0.32,1.49,0.06,2.15l7.16,12.52c0.71,1.24,2.38,1.53,3.47,0.6
			l13.88-11.9l-18.46-10.26C55.29,115.19,53.86,115.63,53.27,116.79z"/>
		<path class="st1" d="M96.5,116.79c-0.58-1.16-2.01-1.61-3.15-0.97l-18.46,10.26l13.88,11.9c1.09,0.93,2.76,0.64,3.47-0.6
			l7.16-12.52c0.38-0.66,0.4-1.47,0.06-2.15L96.5,116.79z"/>
	</g>
	<path class="st6" d="M79.48,96.39h-9.13c-1.26,0-2.28-1.02-2.28-2.28c0-1.26,1.02-2.28,2.28-2.28h9.13c1.26,0,2.28,1.02,2.28,2.28
		C81.76,95.37,80.74,96.39,79.48,96.39z"/>
	<path class="st8" d="M74.91,69C56,69,40.66,63.89,40.66,57.58h68.49C109.16,63.89,93.83,69,74.91,69z"/>
	<path class="st4" d="M106.88,43.88H42.95c-1.26,0-2.28,1.02-2.28,2.28v11.42h68.49V46.17C109.16,44.9,108.14,43.88,106.88,43.88z"
		/>
	<path class="st9" d="M74.91,46.17L74.91,46.17c-3.78,0-6.85-3.07-6.85-6.85v-6.85c0-1.26,1.02-2.28,2.28-2.28h9.13
		c1.26,0,2.28,1.02,2.28,2.28v6.85C81.76,43.1,78.69,46.17,74.91,46.17z"/>
	<path class="st10" d="M72.63,39.32v-6.85c0-1.26,1.02-2.28,2.28-2.28h-4.57c-1.26,0-2.28,1.02-2.28,2.28v6.85
		c0,3.78,3.07,6.85,6.85,6.85c0.81,0,1.57-0.16,2.28-0.42C74.54,44.8,72.63,42.29,72.63,39.32z"/>
	<g>
		<path class="st4" d="M37.78,150.32h4.8c-0.56-2.26-1.8-4.32-3.6-5.87l-13.74-11.91c-1.2,0.97-2.22,2.12-3.03,3.42L36,147.9
			C36.77,148.57,37.38,149.4,37.78,150.32z"/>
		<path class="st4" d="M112.02,150.32c0.4-0.92,1.01-1.75,1.78-2.42l13.77-11.94c-0.81-1.3-1.83-2.45-3.03-3.42l-13.74,11.91
			c-1.79,1.56-3.03,3.61-3.6,5.87H112.02z"/>
	</g>
</g>
</svg>
