<?xml version="1.0" encoding="utf-8"?>
<!-- Generator: Adobe Illustrator 23.0.3, SVG Export Plug-In . SVG Version: 6.00 Build 0)  -->
<svg version="1.1" id="Capa_1" xmlns="http://www.w3.org/2000/svg" xmlns:xlink="http://www.w3.org/1999/xlink" x="0px" y="0px"
	 viewBox="0 0 150 150" style="enable-background:new 0 0 150 150;" xml:space="preserve">
<style type="text/css">
	.st0{fill:#ABE288;}
	.st1{fill:#F7D291;}
	.st2{fill:#F0C382;}
	.st3{fill:#B67F5F;}
	.st4{fill:#FFE1A0;}
	.st5{fill:#FF8250;}
	.st6{fill:#6E5A64;}
	.st7{fill:#DC7346;}
	.st8{fill:#A06E50;}
	.st9{fill:#5A4650;}
	.st10{fill:#FF9664;}
</style>
<rect x="-0.4" y="-1.27" class="st0" width="150" height="150.88"/>
<g>
	<path class="st1" d="M126.16,149.41v-13.37c0-5.72-3.77-10.75-9.25-12.37l-22.65-6.66c-2.74-0.81-4.63-3.32-4.63-6.18V94.17H59.56
		v16.66c0,2.86-1.88,5.38-4.63,6.18l-22.65,6.66c-5.49,1.61-9.25,6.65-9.25,12.37v13.37H126.16z"/>
	<path class="st2" d="M74.6,113.5c5.54,0,10.69-1.64,15.04-4.43v-14.9H59.56v14.9C63.9,111.86,69.06,113.5,74.6,113.5z"/>
	<path class="st3" d="M126.16,149.41v-13.37c0-5.72-3.77-10.75-9.25-12.37l-22.65-6.66c-0.22-0.06-0.41-0.15-0.62-0.24l-19.05,3.17
		l-19.05-3.17c-0.2,0.08-0.4,0.18-0.62,0.24l-22.65,6.66c-5.49,1.61-9.25,6.65-9.25,12.37v13.37H126.16z"/>
	<path class="st4" d="M103.6,64.09h-1.07V40.45H46.66v23.63h-1.07c-2.97,0-5.37,2.4-5.37,5.37c0,2.97,2.4,5.37,5.37,5.37h1.18
		c1.1,14.42,13.12,25.78,27.82,25.78s26.72-11.36,27.82-25.78h1.18c2.97,0,5.37-2.4,5.37-5.37
		C108.97,66.49,106.57,64.09,103.6,64.09z"/>
	<path class="st1" d="M46.66,40.45v23.63H45.9c-2.81,0-5.37,2.02-5.65,4.82c-0.32,3.22,2.19,5.93,5.34,5.93h1.18
		c0.54,7.05,3.69,13.35,8.49,17.97V57.64c0-4.75,3.85-8.59,8.59-8.59h25.78c2.37,0,4.3-1.92,4.3-4.3v-4.3H46.66z"/>
	<path class="st5" d="M91.78,76.98H57.41c-3.56,0-6.45,2.89-6.45,6.45v2.15c0,13.05,10.58,23.63,23.63,23.63l0,0
		c13.05,0,23.63-10.58,23.63-23.63v-2.15C98.23,79.86,95.34,76.98,91.78,76.98z"/>
	<g>
		<path class="st6" d="M61.7,70.53c-1.19,0-2.15-0.96-2.15-2.15v-2.15c0-1.19,0.96-2.15,2.15-2.15c1.19,0,2.15,0.96,2.15,2.15v2.15
			C63.85,69.57,62.89,70.53,61.7,70.53z"/>
		<path class="st6" d="M87.49,70.53c-1.19,0-2.15-0.96-2.15-2.15v-2.15c0-1.19,0.96-2.15,2.15-2.15c1.19,0,2.15,0.96,2.15,2.15v2.15
			C89.64,69.57,88.67,70.53,87.49,70.53z"/>
	</g>
	<path class="st1" d="M74.6,89.87c-3.22,0-6.2-1.03-7.95-2.77c-0.85-0.83-0.85-2.19-0.02-3.04c0.83-0.84,2.2-0.85,3.04-0.02
		c0.72,0.71,2.44,1.53,4.94,1.53c2.5,0,4.22-0.82,4.94-1.53c0.84-0.83,2.21-0.82,3.04,0.02c0.83,0.84,0.82,2.21-0.02,3.04
		C80.79,88.83,77.82,89.87,74.6,89.87z"/>
	<path class="st5" d="M85.11,23.26H64.08c-12.76,0-22.7,11.05-21.37,23.73l1.8,17.2l2.22-0.04c2.34-0.04,4.22-1.95,4.22-4.3V49.05
		c0-2.37,1.92-4.3,4.3-4.3h27.93h8.59h2.15c2.37,0,4.3,1.92,4.3,4.3v10.82c0,2.34,1.88,4.26,4.22,4.3l2.22,0.04l1.8-17.2
		C107.81,34.31,97.86,23.26,85.11,23.26z"/>
	<g>
		<path class="st7" d="M63.85,61.94h-4.3c-1.19,0-2.15-0.96-2.15-2.15s0.96-2.15,2.15-2.15h4.3c1.19,0,2.15,0.96,2.15,2.15
			S65.04,61.94,63.85,61.94z"/>
		<path class="st7" d="M89.64,61.94h-4.3c-1.19,0-2.15-0.96-2.15-2.15s0.96-2.15,2.15-2.15h4.3c1.19,0,2.15,0.96,2.15,2.15
			S90.82,61.94,89.64,61.94z"/>
	</g>
	<path class="st8" d="M47.8,120.93l6.73,11.79c1.15,2,3.29,3.25,5.6,3.25c1.54,0,3.02-0.55,4.19-1.55l10.27-8.8l10.27,8.8
		c1.17,1,2.66,1.55,4.19,1.55c2.31,0,4.45-1.24,5.6-3.25l6.73-11.78c0.3-0.52,0.5-1.07,0.64-1.63l-7.77-2.28
		c-0.22-0.06-0.41-0.15-0.62-0.24l-19.05,3.17l-19.05-3.17c-0.2,0.08-0.4,0.18-0.62,0.24l-7.77,2.28
		C47.3,119.86,47.5,120.41,47.8,120.93z"/>
	<g>
		<path class="st3" d="M61.53,131.15l13.07-11.2l-17.38-9.65c-1.07-0.59-2.42-0.18-2.97,0.92l-2.78,5.56
			c-0.32,0.64-0.3,1.4,0.06,2.03l6.73,11.78C58.93,131.75,60.51,132.03,61.53,131.15z"/>
		<path class="st3" d="M87.66,131.15l-13.07-11.2l17.38-9.65c1.07-0.59,2.42-0.18,2.97,0.92l2.78,5.56c0.32,0.64,0.3,1.4-0.06,2.03
			l-6.73,11.78C90.26,131.75,88.69,132.03,87.66,131.15z"/>
	</g>
	<g>
		<path class="st8" d="M40.22,145.29v4.12h4.3v-4.12c0-3.07-1.31-5.99-3.61-8.03l-12.84-11.41c-1.15,0.89-2.13,1.95-2.91,3.16
			l12.9,11.46C39.43,141.7,40.22,143.45,40.22,145.29z"/>
		<path class="st8" d="M108.97,149.41v-4.12c0-1.84,0.79-3.6,2.16-4.82l12.9-11.46c-0.79-1.21-1.76-2.27-2.91-3.16l-12.84,11.41
			c-2.29,2.04-3.61,4.96-3.61,8.03v4.12H108.97z"/>
	</g>
	<g>
		<circle class="st9" cx="74.6" cy="137.14" r="2.15"/>
		<path class="st9" d="M76.65,149.41c-0.27-0.88-1.09-1.53-2.06-1.53c-0.97,0-1.79,0.64-2.06,1.53H76.65z"/>
	</g>
	<path class="st7" d="M83.19,104.91c-13.05,0-23.63-10.58-23.63-23.63v-4.3h-2.15c-3.56,0-6.45,2.89-6.45,6.45v2.15
		c0,13.05,10.58,23.63,23.63,23.63c5.54,0,10.62-1.92,14.65-5.11C87.31,104.61,85.29,104.91,83.19,104.91z"/>
	<path class="st10" d="M85.11,23.26H64.08c-1.56,0-3.07,0.17-4.53,0.48v3.82c0,7.12,5.77,12.89,12.89,12.89h33.7
		C104.17,30.74,95.6,23.26,85.11,23.26z"/>
</g>
</svg>
