<?xml version="1.0" encoding="utf-8"?>
<!-- Generator: Adobe Illustrator 23.0.3, SVG Export Plug-In . SVG Version: 6.00 Build 0)  -->
<svg version="1.1" id="Capa_1" xmlns="http://www.w3.org/2000/svg" xmlns:xlink="http://www.w3.org/1999/xlink" x="0px" y="0px"
	 viewBox="0 0 512 512" style="enable-background:new 0 0 512 512;" xml:space="preserve">
<style type="text/css">
	.st0{fill:#B48DE2;}
	.st1{fill:#E3AA75;}
	.st2{fill:#FFD164;}
	.st3{fill:#D29B6E;}
	.st4{fill:#F5B97D;}
	.st5{fill:#FFE1A0;}
	.st6{fill:#B67F5F;}
	.st7{fill:#5A4650;}
	.st8{fill:#FFFFFF;}
	.st9{fill:#A06E50;}
	.st10{fill:#8C5F4B;}
	.st11{fill:#FFE17D;}
</style>
<rect x="0.5" y="-1.49" class="st0" width="512" height="512"/>
<g>
	<path class="st1" d="M434.58,509.49v-48.86c0-19.75-12.46-37.36-31.08-43.93l-80.19-28.3c-12.42-4.38-20.72-16.12-20.72-29.29
		v-40.11h-93.17v40.11c0,13.17-8.3,24.9-20.72,29.29l-80.19,28.3c-18.63,6.57-31.08,24.18-31.08,43.93v48.86H434.58z"/>
	<path class="st2" d="M434.58,509.49v-48.86c0-19.75-12.46-37.36-31.08-43.93l-64.16-22.65l-6.92,17.29
		c-13.42,33.55-43.37,55.18-76.41,55.18h-0.01c-33.05,0-62.99-21.62-76.41-55.18l-6.92-17.29L108.5,416.7
		c-18.63,6.57-31.08,24.18-31.08,43.93v48.86H434.58z"/>
	<path class="st3" d="M256,350.06c16.5,0,32.25-3.6,46.59-9.94V319h-93.17v21.12C223.75,346.47,239.5,350.06,256,350.06z"/>
	<path class="st4" d="M360.82,210.3h-3.88V124.9H155.06v85.41h-3.88c-10.72,0-19.41,8.69-19.41,19.41
		c0,10.72,8.69,19.41,19.41,19.41h5.2c7.49,48.35,49.17,85.41,99.62,85.41s92.13-37.05,99.62-85.41h5.2
		c10.72,0,19.41-8.69,19.41-19.41C380.23,218.99,371.54,210.3,360.82,210.3z"/>
	<rect x="271.53" y="202.54" class="st1" width="69.88" height="15.53"/>
	<path class="st5" d="M276.4,234.57c-3.66,0-6.92-2.6-7.62-6.33c-1.14-6.04-6.51-10.41-12.78-10.41c-6.27,0-11.65,4.37-12.78,10.41
		c-0.79,4.22-4.85,7.01-9.06,6.2c-4.22-0.79-6.99-4.84-6.2-9.06c2.51-13.37,14.3-23.07,28.04-23.07c13.74,0,25.53,9.71,28.04,23.07
		c0.8,4.22-1.98,8.27-6.2,9.06C277.36,234.52,276.88,234.57,276.4,234.57z"/>
	<path class="st1" d="M323.64,124.9H155.06v85.41h-2.77c-10.15,0-19.41,7.3-20.42,17.41c-1.16,11.62,7.93,21.41,19.31,21.41h5.2
		c7.49,48.35,49.17,85.41,99.62,85.41c5.33,0,10.54-0.5,15.65-1.3c-41.29-6.34-74.33-37.63-83.16-78.02
		c-1.42-6.5,1.63-13.21,7.39-16.53c31.34-18.04,69.58-44.22,104.57-79.8C310.15,149.02,317.87,137.55,323.64,124.9z"/>
	<path class="st6" d="M256,287.95c-11.65,0-22.4-3.74-28.75-10c-3.06-3.02-3.09-7.93-0.08-10.98c3.03-3.06,7.94-3.09,10.98-0.08
		c2.59,2.55,8.8,5.53,17.84,5.53c9.04,0,15.26-2.98,17.84-5.53c3.04-3.01,7.95-2.98,10.98,0.08c3.01,3.05,2.98,7.96-0.08,10.98
		C278.4,284.21,267.65,287.95,256,287.95z"/>
	<g>
		<path class="st7" d="M209.41,233.6c-4.29,0-7.76-3.47-7.76-7.76v-7.76c0-4.29,3.47-7.76,7.76-7.76s7.76,3.47,7.76,7.76v7.76
			C217.18,230.12,213.7,233.6,209.41,233.6z"/>
		<path class="st7" d="M302.58,233.6c-4.29,0-7.76-3.47-7.76-7.76v-7.76c0-4.29,3.47-7.76,7.76-7.76c4.29,0,7.76,3.47,7.76,7.76
			v7.76C310.35,230.12,306.88,233.6,302.58,233.6z"/>
	</g>
	<path class="st8" d="M167.81,230.22l-4.91-34.35c-0.32-2.23,0.35-4.49,1.82-6.19c1.48-1.7,3.62-2.68,5.87-2.68h69.88
		c2.25,0,4.39,0.98,5.87,2.68c1.47,1.7,2.14,3.96,1.82,6.19l-3.96,27.68c-2.71,19-19.24,33.33-38.43,33.33h-7.22
		C183.2,256.89,169.98,245.43,167.81,230.22z M179.54,202.54l3.64,25.48c1.08,7.61,7.69,13.34,15.37,13.34h7.22
		c11.52,0,21.43-8.6,23.05-20l2.69-18.82H179.54L179.54,202.54z"/>
	<path class="st9" d="M310.35,70.55h-23.29v62.12c37.2,81.85,85.41,81.54,85.41,81.54v-81.54
		C372.46,98.36,344.65,70.55,310.35,70.55z"/>
	<path class="st10" d="M306.28,71.71c-5.17-6.69-12.26-11.91-20.9-14.6c-4.38-1.36-9.03-2.09-13.85-2.09H256
		c-63.93,0-125.85,54.35-125.85,124.23c0,31.45-2.06,52.29-3.79,64.26c-0.82,5.66,4.82,10.01,10.08,7.77
		c27.34-11.63,94.86-44.21,152.93-103.27c9.22-9.38,16.55-20.49,21.62-32.63C317,100.97,315.82,84.06,306.28,71.71z"/>
	<g>
		<path class="st11" d="M380.23,509.49v-19.92c0-6.7,2.88-13.07,7.91-17.49L428,437.01c-2.65-4.48-6.01-8.5-10.02-11.88l-40.1,35.3
			c-8.38,7.36-13.18,17.99-13.18,29.15v19.92H380.23z"/>
		<path class="st11" d="M131.77,489.58v19.92h15.53v-19.92c0-11.16-4.8-21.78-13.18-29.15l-40.1-35.3c-4,3.39-7.37,7.4-10.02,11.88
			l39.86,35.08C128.89,476.5,131.77,482.88,131.77,489.58z"/>
	</g>
	<path class="st8" d="M313.44,256.89h-7.22c-19.19,0-35.71-14.33-38.43-33.33l-3.96-27.68c-0.32-2.23,0.35-4.49,1.82-6.19
		c1.48-1.7,3.62-2.68,5.87-2.68h69.88c2.25,0,4.39,0.98,5.87,2.68c1.47,1.7,2.14,3.96,1.82,6.19l-4.91,34.35
		C342.02,245.43,328.8,256.89,313.44,256.89z M280.48,202.54l2.69,18.82c1.62,11.4,11.53,20,23.05,20h7.22
		c7.68,0,14.29-5.73,15.37-13.34l3.64-25.48L280.48,202.54L280.48,202.54z"/>
</g>
</svg>
