<?xml version="1.0" encoding="utf-8"?>
<!-- Generator: Adobe Illustrator 21.1.0, SVG Export Plug-In . SVG Version: 6.00 Build 0)  -->
<svg version="1.1" id="Layer_1" xmlns="http://www.w3.org/2000/svg" xmlns:xlink="http://www.w3.org/1999/xlink" x="0px" y="0px"
	 viewBox="0 0 160 160" style="enable-background:new 0 0 160 160;" xml:space="preserve">
<style type="text/css">
	.st0{fill:#787ABC;}
	.st1{fill:#7CE777;}
</style>
<g>
	<path class="st0" d="M80,160c-0.3,0-0.7,0-1,0c-1.7,0-3-1.4-3-3c0-1.7,1.4-3,3-3c1,0,1.9,0,2.9,0c1.7-0.1,3,1.3,3.1,2.9
		c0,1.7-1.3,3-2.9,3.1C81.4,160,80.7,160,80,160z M67.1,158.9c-0.2,0-0.3,0-0.5,0c-1-0.2-2-0.4-3.1-0.6c-1.6-0.3-2.7-1.9-2.3-3.6
		s1.9-2.7,3.6-2.3c0.9,0.2,1.9,0.4,2.8,0.5c1.6,0.3,2.7,1.8,2.5,3.5C69.8,157.9,68.5,158.9,67.1,158.9z M93.9,158.7
		c-1.4,0-2.7-1-2.9-2.5c-0.3-1.6,0.8-3.2,2.4-3.5c0.9-0.2,1.9-0.4,2.8-0.6c1.6-0.4,3.2,0.7,3.6,2.3c0.4,1.6-0.7,3.2-2.3,3.6
		c-1,0.2-2,0.4-3.1,0.6C94.3,158.7,94.1,158.7,93.9,158.7z M52.6,155c-0.4,0-0.7-0.1-1.1-0.2c-1-0.4-1.9-0.8-2.9-1.2
		c-1.5-0.6-2.2-2.4-1.6-3.9c0.6-1.5,2.4-2.2,3.9-1.6c0.9,0.4,1.8,0.7,2.7,1.1c1.5,0.6,2.3,2.3,1.7,3.9C55,154.2,53.8,155,52.6,155z
		 M108.3,154.6c-1.2,0-2.3-0.7-2.8-1.9c-0.6-1.5,0.1-3.3,1.7-3.9c0.9-0.4,1.8-0.7,2.6-1.1c1.5-0.7,3.3,0,4,1.5c0.7,1.5,0,3.3-1.5,4
		c-0.9,0.4-1.9,0.8-2.9,1.2C109.1,154.6,108.7,154.6,108.3,154.6z M39.2,148.3c-0.5,0-1.1-0.1-1.6-0.5c-0.9-0.6-1.8-1.1-2.6-1.7
		c-1.4-0.9-1.7-2.8-0.8-4.2c0.9-1.4,2.8-1.7,4.2-0.8c0.8,0.5,1.6,1.1,2.4,1.6c1.4,0.9,1.8,2.7,1,4.1
		C41.2,147.8,40.2,148.3,39.2,148.3z M121.6,147.8c-1,0-2-0.5-2.5-1.4c-0.9-1.4-0.5-3.2,0.9-4.1c0.8-0.5,1.6-1.1,2.4-1.6
		c1.4-1,3.2-0.6,4.2,0.7s0.6,3.2-0.7,4.2c-0.8,0.6-1.7,1.2-2.6,1.7C122.7,147.6,122.2,147.8,121.6,147.8z M27.3,139.2
		c-0.7,0-1.5-0.3-2.1-0.8c-0.8-0.7-1.5-1.4-2.2-2.2c-1.2-1.2-1.2-3.1,0-4.2s3.1-1.2,4.2,0c0.7,0.7,1.4,1.4,2.1,2
		c1.2,1.1,1.3,3,0.1,4.2C28.9,138.9,28.1,139.2,27.3,139.2z M133.4,138.5c-0.8,0-1.6-0.3-2.2-0.9c-1.1-1.2-1.1-3.1,0.1-4.2
		c0.7-0.7,1.4-1.3,2-2c1.1-1.2,3-1.2,4.2-0.1c1.2,1.1,1.2,3,0.1,4.2c-0.7,0.7-1.5,1.5-2.2,2.2C134.9,138.2,134.1,138.5,133.4,138.5z
		 M17.5,127.9c-0.9,0-1.9-0.4-2.4-1.2c-0.6-0.8-1.2-1.7-1.8-2.6c-0.9-1.4-0.5-3.2,0.8-4.2c1.4-0.9,3.2-0.5,4.2,0.8
		c0.5,0.8,1.1,1.6,1.6,2.4c1,1.3,0.7,3.2-0.7,4.2C18.7,127.7,18.1,127.9,17.5,127.9z M143.1,127.1c-0.6,0-1.2-0.2-1.7-0.5
		c-1.4-1-1.7-2.8-0.7-4.2c0.6-0.8,1.1-1.6,1.6-2.4c0.9-1.4,2.8-1.8,4.1-0.9c1.4,0.9,1.8,2.8,0.9,4.1c-0.6,0.9-1.1,1.7-1.7,2.6
		C145,126.7,144,127.1,143.1,127.1z M9.9,115c-1.1,0-2.2-0.7-2.7-1.8c-0.4-0.9-0.8-1.9-1.2-2.9c-0.6-1.5,0.1-3.3,1.6-3.9
		c1.5-0.6,3.3,0.1,3.9,1.6c0.4,0.9,0.7,1.8,1.1,2.6c0.7,1.5,0,3.3-1.5,4C10.8,114.9,10.4,115,9.9,115z M150.5,114.1
		c-0.4,0-0.8-0.1-1.2-0.3c-1.5-0.7-2.2-2.4-1.5-4c0.4-0.9,0.8-1.8,1.1-2.7c0.6-1.5,2.4-2.3,3.9-1.7c1.5,0.6,2.3,2.4,1.7,3.9
		c-0.4,1-0.8,1.9-1.2,2.9C152.7,113.4,151.6,114.1,150.5,114.1z M5.1,100.8c-1.4,0-2.6-0.9-2.9-2.3c-0.2-1-0.5-2-0.7-3
		c-0.3-1.6,0.7-3.2,2.4-3.5c1.6-0.3,3.2,0.7,3.5,2.4c0.2,0.9,0.4,1.9,0.6,2.8c0.4,1.6-0.6,3.2-2.2,3.6
		C5.5,100.8,5.3,100.8,5.1,100.8z M155.2,99.9c-0.2,0-0.4,0-0.7-0.1c-1.6-0.4-2.6-2-2.3-3.6c0.2-0.9,0.4-1.9,0.6-2.8
		c0.3-1.6,1.9-2.7,3.5-2.4c1.6,0.3,2.7,1.9,2.4,3.5c-0.2,1-0.4,2-0.6,3.1C157.8,98.9,156.5,99.9,155.2,99.9z M3.1,86
		c-1.6,0-2.9-1.3-3-2.9C0,82.1,0,81,0,80c0-1.7,1.3-3,3-3s3,1.3,3,3c0,1,0,1.9,0.1,2.9c0.1,1.7-1.2,3-2.9,3.1C3.1,86,3.1,86,3.1,86z
		 M157,85C157,85,156.9,85,157,85c-1.7,0-3-1.4-3-3.1c0-0.6,0-1.3,0-1.9c0-0.3,0-0.6,0-1c0-1.7,1.3-3,3-3c1.6,0,3,1.3,3,3
		c0,0.3,0,0.7,0,1c0,0.7,0,1.4,0,2.1C159.9,83.7,158.6,85,157,85z M3.9,71c-0.2,0-0.3,0-0.5,0c-1.6-0.3-2.8-1.8-2.5-3.4
		c0.2-1,0.3-2.1,0.5-3.1c0.3-1.6,1.9-2.7,3.5-2.4c1.6,0.3,2.7,1.9,2.4,3.5c-0.2,0.9-0.4,1.9-0.5,2.8C6.7,70,5.4,71,3.9,71z
		 M155.9,70.1c-1.4,0-2.7-1-3-2.5c-0.2-1-0.3-1.9-0.5-2.8c-0.3-1.6,0.7-3.2,2.3-3.6c1.6-0.3,3.2,0.7,3.6,2.3c0.2,1,0.4,2,0.6,3.1
		c0.3,1.6-0.8,3.2-2.5,3.5C156.2,70.1,156.1,70.1,155.9,70.1z M7.7,56.5c-0.3,0-0.7-0.1-1-0.2c-1.6-0.6-2.4-2.3-1.8-3.8
		c0.4-1,0.7-2,1.1-2.9c0.6-1.5,2.4-2.3,3.9-1.6c1.5,0.6,2.3,2.4,1.6,3.9c-0.4,0.9-0.7,1.8-1,2.7C10,55.8,8.9,56.5,7.7,56.5z
		 M152,55.6c-1.2,0-2.3-0.7-2.8-1.9c-0.3-0.9-0.7-1.8-1.1-2.7c-0.6-1.5,0.1-3.3,1.6-3.9c1.5-0.6,3.3,0.1,3.9,1.6
		c0.4,1,0.8,1.9,1.2,2.9c0.6,1.5-0.2,3.3-1.7,3.9C152.7,55.6,152.3,55.6,152,55.6z M14.2,43c-0.5,0-1.1-0.1-1.6-0.4
		c-1.4-0.9-1.9-2.7-1-4.1c0.5-0.9,1.1-1.8,1.7-2.6c0.9-1.4,2.8-1.8,4.2-0.8c1.4,0.9,1.8,2.8,0.8,4.2c-0.5,0.8-1,1.6-1.5,2.4
		C16.2,42.5,15.2,43,14.2,43z M145.3,42.2c-1,0-2-0.5-2.5-1.4c-0.5-0.8-1-1.6-1.6-2.4c-0.9-1.4-0.6-3.2,0.8-4.2
		c1.4-0.9,3.2-0.6,4.2,0.8c0.6,0.9,1.2,1.7,1.7,2.6c0.9,1.4,0.5,3.3-1,4.1C146.4,42.1,145.9,42.2,145.3,42.2z M23.2,31.1
		c-0.7,0-1.4-0.3-2-0.8c-1.2-1.1-1.3-3-0.2-4.2c0.7-0.8,1.4-1.5,2.1-2.3c1.2-1.2,3.1-1.2,4.2,0c1.2,1.2,1.2,3.1,0,4.2
		c-0.7,0.7-1.3,1.4-2,2.1C24.8,30.7,24,31.1,23.2,31.1z M136.2,30.4c-0.8,0-1.6-0.3-2.2-0.9c-0.7-0.7-1.3-1.4-2-2.1
		c-1.2-1.2-1.2-3.1,0-4.2c1.2-1.2,3.1-1.2,4.2,0c0.7,0.7,1.5,1.5,2.2,2.2c1.1,1.2,1.1,3.1-0.1,4.2C137.7,30.1,136.9,30.4,136.2,30.4
		z M34.3,21c-0.9,0-1.8-0.4-2.4-1.2c-1-1.3-0.7-3.2,0.6-4.2c0.8-0.6,1.7-1.2,2.5-1.8c1.4-0.9,3.2-0.6,4.2,0.8
		c0.9,1.4,0.6,3.2-0.8,4.2c-0.8,0.5-1.6,1.1-2.3,1.7C35.5,20.8,34.9,21,34.3,21z M125,20.5c-0.6,0-1.2-0.2-1.8-0.6
		c-0.8-0.6-1.6-1.1-2.4-1.6c-1.4-0.9-1.8-2.8-0.8-4.2s2.8-1.8,4.2-0.8c0.9,0.6,1.7,1.2,2.6,1.8c1.3,1,1.6,2.8,0.7,4.2
		C126.8,20,125.9,20.5,125,20.5z M47.1,13.4c-1.1,0-2.2-0.6-2.7-1.7c-0.7-1.5-0.1-3.3,1.4-4c0.9-0.4,1.9-0.9,2.8-1.3
		C50.2,5.7,52,6.4,52.6,8c0.6,1.5-0.1,3.3-1.6,3.9c-0.9,0.4-1.8,0.8-2.6,1.2C48,13.3,47.6,13.4,47.1,13.4z M112,12.9
		c-0.4,0-0.8-0.1-1.2-0.3c-0.9-0.4-1.8-0.8-2.6-1.1c-1.5-0.6-2.3-2.4-1.6-3.9c0.6-1.5,2.4-2.3,3.9-1.6c1,0.4,1.9,0.8,2.9,1.2
		c1.5,0.7,2.2,2.5,1.5,4C114.2,12.3,113.1,12.9,112,12.9z M61.2,8.3c-1.3,0-2.6-0.9-2.9-2.3c-0.4-1.6,0.6-3.2,2.2-3.6
		c1-0.3,2-0.5,3-0.7c1.6-0.3,3.2,0.7,3.6,2.3c0.3,1.6-0.7,3.2-2.3,3.6c-0.9,0.2-1.9,0.4-2.8,0.6C61.7,8.3,61.4,8.3,61.2,8.3z
		 M97.8,8.1c-0.2,0-0.5,0-0.7-0.1c-0.9-0.2-1.9-0.4-2.8-0.6c-1.6-0.3-2.7-1.9-2.4-3.5c0.3-1.6,1.9-2.7,3.5-2.4c1,0.2,2,0.4,3,0.7
		c1.6,0.4,2.6,2,2.2,3.6C100.4,7.1,99.2,8.1,97.8,8.1z M76,6.1c-1.6,0-2.9-1.2-3-2.8c-0.1-1.7,1.2-3.1,2.8-3.1C76.9,0.1,77.9,0,79,0
		c0.2,0,0.3,0,0.5,0c0.2,0,0.3,0,0.5,0c1,0,2.1,0,3.1,0.1c1.7,0.1,2.9,1.5,2.9,3.1c-0.1,1.7-1.5,2.9-3.1,2.9C81.9,6,81,6,80,6
		c-0.2,0-0.3,0-0.5,0c-0.2,0-0.3,0-0.5,0c-1,0-1.9,0-2.9,0.1C76.1,6.1,76.1,6.1,76,6.1z"/>
</g>
<g>
	<path class="st1" d="M80,160c-0.3,0-0.7,0-1,0c-1.7,0-3-1.4-3-3c0-1.7,1.4-3,3-3c1,0,1.9,0,2.9,0c1.7-0.1,3,1.3,3.1,2.9
		c0,1.7-1.3,3-2.9,3.1C81.4,160,80.7,160,80,160z M67.1,158.9c-0.2,0-0.3,0-0.5,0c-1-0.2-2-0.4-3.1-0.6c-1.6-0.3-2.7-1.9-2.3-3.6
		s1.9-2.7,3.6-2.3c0.9,0.2,1.9,0.4,2.8,0.5c1.6,0.3,2.7,1.8,2.5,3.5C69.8,157.9,68.5,158.9,67.1,158.9z M93.9,158.7
		c-1.4,0-2.7-1-2.9-2.5c-0.3-1.6,0.8-3.2,2.4-3.5c0.9-0.2,1.9-0.4,2.8-0.6c1.6-0.4,3.2,0.7,3.6,2.3c0.4,1.6-0.7,3.2-2.3,3.6
		c-1,0.2-2,0.4-3.1,0.6C94.3,158.7,94.1,158.7,93.9,158.7z M52.6,155c-0.4,0-0.7-0.1-1.1-0.2c-1-0.4-1.9-0.8-2.9-1.2
		c-1.5-0.6-2.2-2.4-1.6-3.9c0.6-1.5,2.4-2.2,3.9-1.6c0.9,0.4,1.8,0.7,2.7,1.1c1.5,0.6,2.3,2.3,1.7,3.9C55,154.2,53.8,155,52.6,155z
		 M108.3,154.6c-1.2,0-2.3-0.7-2.8-1.9c-0.6-1.5,0.1-3.3,1.7-3.9c0.9-0.4,1.8-0.7,2.6-1.1c1.5-0.7,3.3,0,4,1.5c0.7,1.5,0,3.3-1.5,4
		c-0.9,0.4-1.9,0.8-2.9,1.2C109.1,154.6,108.7,154.6,108.3,154.6z M39.2,148.3c-0.5,0-1.1-0.1-1.6-0.5c-0.9-0.6-1.8-1.1-2.6-1.7
		c-1.4-0.9-1.7-2.8-0.8-4.2c0.9-1.4,2.8-1.7,4.2-0.8c0.8,0.5,1.6,1.1,2.4,1.6c1.4,0.9,1.8,2.7,1,4.1
		C41.2,147.8,40.2,148.3,39.2,148.3z M121.6,147.8c-1,0-2-0.5-2.5-1.4c-0.9-1.4-0.5-3.2,0.9-4.1c0.8-0.5,1.6-1.1,2.4-1.6
		c1.4-1,3.2-0.6,4.2,0.7s0.6,3.2-0.7,4.2c-0.8,0.6-1.7,1.2-2.6,1.7C122.7,147.6,122.2,147.8,121.6,147.8z M27.3,139.2
		c-0.7,0-1.5-0.3-2.1-0.8c-0.8-0.7-1.5-1.4-2.2-2.2c-1.2-1.2-1.2-3.1,0-4.2s3.1-1.2,4.2,0c0.7,0.7,1.4,1.4,2.1,2
		c1.2,1.1,1.3,3,0.1,4.2C28.9,138.9,28.1,139.2,27.3,139.2z M133.4,138.5c-0.8,0-1.6-0.3-2.2-0.9c-1.1-1.2-1.1-3.1,0.1-4.2
		c0.7-0.7,1.4-1.3,2-2c1.1-1.2,3-1.2,4.2-0.1c1.2,1.1,1.2,3,0.1,4.2c-0.7,0.7-1.5,1.5-2.2,2.2C134.9,138.2,134.1,138.5,133.4,138.5z
		 M17.5,127.9c-0.9,0-1.9-0.4-2.4-1.2c-0.6-0.8-1.2-1.7-1.8-2.6c-0.9-1.4-0.5-3.2,0.8-4.2c1.4-0.9,3.2-0.5,4.2,0.8
		c0.5,0.8,1.1,1.6,1.6,2.4c1,1.3,0.7,3.2-0.7,4.2C18.7,127.7,18.1,127.9,17.5,127.9z M143.1,127.1c-0.6,0-1.2-0.2-1.7-0.5
		c-1.4-1-1.7-2.8-0.7-4.2c0.6-0.8,1.1-1.6,1.6-2.4c0.9-1.4,2.8-1.8,4.1-0.9c1.4,0.9,1.8,2.8,0.9,4.1c-0.6,0.9-1.1,1.7-1.7,2.6
		C145,126.7,144,127.1,143.1,127.1z M9.9,115c-1.1,0-2.2-0.7-2.7-1.8c-0.4-0.9-0.8-1.9-1.2-2.9c-0.6-1.5,0.1-3.3,1.6-3.9
		c1.5-0.6,3.3,0.1,3.9,1.6c0.4,0.9,0.7,1.8,1.1,2.6c0.7,1.5,0,3.3-1.5,4C10.8,114.9,10.4,115,9.9,115z M150.5,114.1
		c-0.4,0-0.8-0.1-1.2-0.3c-1.5-0.7-2.2-2.4-1.5-4c0.4-0.9,0.8-1.8,1.1-2.7c0.6-1.5,2.4-2.3,3.9-1.7c1.5,0.6,2.3,2.4,1.7,3.9
		c-0.4,1-0.8,1.9-1.2,2.9C152.7,113.4,151.6,114.1,150.5,114.1z M5.1,100.8c-1.4,0-2.6-0.9-2.9-2.3c-0.2-1-0.5-2-0.7-3
		c-0.3-1.6,0.7-3.2,2.4-3.5c1.6-0.3,3.2,0.7,3.5,2.4c0.2,0.9,0.4,1.9,0.6,2.8c0.4,1.6-0.6,3.2-2.2,3.6
		C5.5,100.8,5.3,100.8,5.1,100.8z M155.2,99.9c-0.2,0-0.4,0-0.7-0.1c-1.6-0.4-2.6-2-2.3-3.6c0.2-0.9,0.4-1.9,0.6-2.8
		c0.3-1.6,1.9-2.7,3.5-2.4c1.6,0.3,2.7,1.9,2.4,3.5c-0.2,1-0.4,2-0.6,3.1C157.8,98.9,156.5,99.9,155.2,99.9z M3.1,86
		c-1.6,0-2.9-1.3-3-2.9C0,82.1,0,81,0,80c0-1.7,1.3-3,3-3s3,1.3,3,3c0,1,0,1.9,0.1,2.9c0.1,1.7-1.2,3-2.9,3.1C3.1,86,3.1,86,3.1,86z
		 M157,85C157,85,156.9,85,157,85c-1.7,0-3-1.4-3-3.1c0-0.6,0-1.3,0-1.9c0-0.3,0-0.6,0-1c0-1.7,1.3-3,3-3c1.6,0,3,1.3,3,3
		c0,0.3,0,0.7,0,1c0,0.7,0,1.4,0,2.1C159.9,83.7,158.6,85,157,85z M3.9,71c-0.2,0-0.3,0-0.5,0c-1.6-0.3-2.8-1.8-2.5-3.4
		c0.2-1,0.3-2.1,0.5-3.1c0.3-1.6,1.9-2.7,3.5-2.4c1.6,0.3,2.7,1.9,2.4,3.5c-0.2,0.9-0.4,1.9-0.5,2.8C6.7,70,5.4,71,3.9,71z
		 M155.9,70.1c-1.4,0-2.7-1-3-2.5c-0.2-1-0.3-1.9-0.5-2.8c-0.3-1.6,0.7-3.2,2.3-3.6c1.6-0.3,3.2,0.7,3.6,2.3c0.2,1,0.4,2,0.6,3.1
		c0.3,1.6-0.8,3.2-2.5,3.5C156.2,70.1,156.1,70.1,155.9,70.1z M7.7,56.5c-0.3,0-0.7-0.1-1-0.2c-1.6-0.6-2.4-2.3-1.8-3.8
		c0.4-1,0.7-2,1.1-2.9c0.6-1.5,2.4-2.3,3.9-1.6c1.5,0.6,2.3,2.4,1.6,3.9c-0.4,0.9-0.7,1.8-1,2.7C10,55.8,8.9,56.5,7.7,56.5z
		 M152,55.6c-1.2,0-2.3-0.7-2.8-1.9c-0.3-0.9-0.7-1.8-1.1-2.7c-0.6-1.5,0.1-3.3,1.6-3.9c1.5-0.6,3.3,0.1,3.9,1.6
		c0.4,1,0.8,1.9,1.2,2.9c0.6,1.5-0.2,3.3-1.7,3.9C152.7,55.6,152.3,55.6,152,55.6z M14.2,43c-0.5,0-1.1-0.1-1.6-0.4
		c-1.4-0.9-1.9-2.7-1-4.1c0.5-0.9,1.1-1.8,1.7-2.6c0.9-1.4,2.8-1.8,4.2-0.8c1.4,0.9,1.8,2.8,0.8,4.2c-0.5,0.8-1,1.6-1.5,2.4
		C16.2,42.5,15.2,43,14.2,43z M145.3,42.2c-1,0-2-0.5-2.5-1.4c-0.5-0.8-1-1.6-1.6-2.4c-0.9-1.4-0.6-3.2,0.8-4.2
		c1.4-0.9,3.2-0.6,4.2,0.8c0.6,0.9,1.2,1.7,1.7,2.6c0.9,1.4,0.5,3.3-1,4.1C146.4,42.1,145.9,42.2,145.3,42.2z M23.2,31.1
		c-0.7,0-1.4-0.3-2-0.8c-1.2-1.1-1.3-3-0.2-4.2c0.7-0.8,1.4-1.5,2.1-2.3c1.2-1.2,3.1-1.2,4.2,0c1.2,1.2,1.2,3.1,0,4.2
		c-0.7,0.7-1.3,1.4-2,2.1C24.8,30.7,24,31.1,23.2,31.1z M136.2,30.4c-0.8,0-1.6-0.3-2.2-0.9c-0.7-0.7-1.3-1.4-2-2.1
		c-1.2-1.2-1.2-3.1,0-4.2c1.2-1.2,3.1-1.2,4.2,0c0.7,0.7,1.5,1.5,2.2,2.2c1.1,1.2,1.1,3.1-0.1,4.2C137.7,30.1,136.9,30.4,136.2,30.4
		z M34.3,21c-0.9,0-1.8-0.4-2.4-1.2c-1-1.3-0.7-3.2,0.6-4.2c0.8-0.6,1.7-1.2,2.5-1.8c1.4-0.9,3.2-0.6,4.2,0.8
		c0.9,1.4,0.6,3.2-0.8,4.2c-0.8,0.5-1.6,1.1-2.3,1.7C35.5,20.8,34.9,21,34.3,21z M125,20.5c-0.6,0-1.2-0.2-1.8-0.6
		c-0.8-0.6-1.6-1.1-2.4-1.6c-1.4-0.9-1.8-2.8-0.8-4.2s2.8-1.8,4.2-0.8c0.9,0.6,1.7,1.2,2.6,1.8c1.3,1,1.6,2.8,0.7,4.2
		C126.8,20,125.9,20.5,125,20.5z M47.1,13.4c-1.1,0-2.2-0.6-2.7-1.7c-0.7-1.5-0.1-3.3,1.4-4c0.9-0.4,1.9-0.9,2.8-1.3
		C50.2,5.7,52,6.4,52.6,8c0.6,1.5-0.1,3.3-1.6,3.9c-0.9,0.4-1.8,0.8-2.6,1.2C48,13.3,47.6,13.4,47.1,13.4z M112,12.9
		c-0.4,0-0.8-0.1-1.2-0.3c-0.9-0.4-1.8-0.8-2.6-1.1c-1.5-0.6-2.3-2.4-1.6-3.9c0.6-1.5,2.4-2.3,3.9-1.6c1,0.4,1.9,0.8,2.9,1.2
		c1.5,0.7,2.2,2.5,1.5,4C114.2,12.3,113.1,12.9,112,12.9z M61.2,8.3c-1.3,0-2.6-0.9-2.9-2.3c-0.4-1.6,0.6-3.2,2.2-3.6
		c1-0.3,2-0.5,3-0.7c1.6-0.3,3.2,0.7,3.6,2.3c0.3,1.6-0.7,3.2-2.3,3.6c-0.9,0.2-1.9,0.4-2.8,0.6C61.7,8.3,61.4,8.3,61.2,8.3z
		 M97.8,8.1c-0.2,0-0.5,0-0.7-0.1c-0.9-0.2-1.9-0.4-2.8-0.6c-1.6-0.3-2.7-1.9-2.4-3.5c0.3-1.6,1.9-2.7,3.5-2.4c1,0.2,2,0.4,3,0.7
		c1.6,0.4,2.6,2,2.2,3.6C100.4,7.1,99.2,8.1,97.8,8.1z M76,6.1c-1.6,0-2.9-1.2-3-2.8c-0.1-1.7,1.2-3.1,2.8-3.1C76.9,0.1,77.9,0,79,0
		c0.2,0,0.3,0,0.5,0c0.2,0,0.3,0,0.5,0c1,0,2.1,0,3.1,0.1c1.7,0.1,2.9,1.5,2.9,3.1c-0.1,1.7-1.5,2.9-3.1,2.9C81.9,6,81,6,80,6
		c-0.2,0-0.3,0-0.5,0c-0.2,0-0.3,0-0.5,0c-1,0-1.9,0-2.9,0.1C76.1,6.1,76.1,6.1,76,6.1z"/>
</g>
</svg>
