<svg id="Layer_1" data-name="Layer 1" xmlns="http://www.w3.org/2000/svg" viewBox="0 0 251.7 124.6"><defs>
<style>
.cls-1{}
.cls-2{}
.cls-3{}
.cls-4{}
.cls-5{}
.cls-6{}
</style>
</defs>
<rect class="cls-1" style="fill:#eef2f7;" x="65.2" y="65.7" width="122.5" height="47.35" rx="9.5"/>
<path class="cls-2" style="fill:#8a94b4;" d="M178.5,115H74.5a11.2,11.2,0,0,1-11.2-11.2V75A11.2,11.2,0,0,1,74.5,63.8h104A11.2,11.2,0,0,1,189.7,75v28.8A11.2,11.2,0,0,1,178.5,115ZM74.5,67.7A7.2,7.2,0,0,0,67.2,75v28.8a7.2,7.2,0,0,0,7.3,7.3h104a7.3,7.3,0,0,0,7.3-7.3V75a7.3,7.3,0,0,0-7.3-7.3Z"/>
<rect class="cls-3" style="fill:#fff;" x="52.1" y="48.6" width="148.8" height="47.35" rx="9.5"/>
<path class="cls-2" style="fill:#8a94b4;" d="M191.6,97.9H61.3A11.2,11.2,0,0,1,50.1,86.7V57.8A11.3,11.3,0,0,1,61.3,46.6H191.6a11.2,11.2,0,0,1,11.2,11.2V86.7A11.2,11.2,0,0,1,191.6,97.9ZM61.3,50.5A7.3,7.3,0,0,0,54,57.8V86.7A7.3,7.3,0,0,0,61.3,94H191.6a7.3,7.3,0,0,0,7.3-7.3V57.8a7.3,7.3,0,0,0-7.3-7.3Z"/>
<rect class="cls-3" style="fill:#fff;" x="32" y="11.5" width="187.8" height="61.98" rx="9.5"/>
<path class="cls-4" style="fill:#546390;" d="M210.5,75.5H41.2A11.2,11.2,0,0,1,30,64.3V20.8A11.2,11.2,0,0,1,41.2,9.6H210.5a11.2,11.2,0,0,1,11.2,11.2V64.3A11.2,11.2,0,0,1,210.5,75.5ZM41.2,13.5a7.3,7.3,0,0,0-7.3,7.3V64.3a7.3,7.3,0,0,0,7.3,7.3H210.5a7.3,7.3,0,0,0,7.3-7.3V20.8a7.3,7.3,0,0,0-7.3-7.3Z"/>
<rect class="cls-5" style="fill:#4b5c8d;" x="93.4" y="30.5" width="78.1" height="3.39"/>
<rect class="cls-5" style="fill:#4b5c8d;" x="93.4" y="49.1" width="111.8" height="3.39"/>
<path class="cls-6" style="fill:#4eaae1;" d="M55.9,49.7H70.3A1.7,1.7,0,0,0,72,48a1.6,1.6,0,0,0-1.7-1.6H55.9A1.6,1.6,0,0,0,54.2,48,1.7,1.7,0,0,0,55.9,49.7Z"/>
<path class="cls-6" style="fill:#4eaae1;" d="M81.8,39h-.2L74.2,25.2h0a3,3,0,0,0-2.7-2H54.7a2.9,2.9,0,0,0-2.6,1.9L44.6,38.7V56.8a2.9,2.9,0,0,0,3,3h31a2.9,2.9,0,0,0,3-3V39.6h.2ZM71.1,26.5l6.1,11.2H64.8V26.5ZM55,26.8v-.3h6.3V37.7H49L54.9,27A.3.3,0,0,1,55,26.8ZM78.3,41V56.5H47.9V41Z"/>
</svg>