<?xml version="1.0" encoding="utf-8"?>
<!-- Generator: Adobe Illustrator 23.0.3, SVG Export Plug-In . SVG Version: 6.00 Build 0)  -->
<svg version="1.1" id="Isolation_Mode" xmlns="http://www.w3.org/2000/svg" xmlns:xlink="http://www.w3.org/1999/xlink" x="0px"
	 y="0px" viewBox="0 0 50 50" style="enable-background:new 0 0 50 50;" xml:space="preserve">

<g>
	<path opacity=".2" d="M24.38,34.74v5.2H5.02V5.17h20.24c2.21,1.82,3.61,4.44,5.84,6.25v6.26h-5.82c-0.28,0-0.48,0.11-0.62,0.27
		c-0.16,0.13-0.28,0.34-0.28,0.62v5.82V34.74z"/>
	<g>
		<path  class="st1" d="M18.93,10.32c-0.56-0.56-1.47-0.56-2.03,0l-3.4,3.4l-1.19-1.19c-0.27-0.27-0.63-0.42-1.02-0.42
			c-0.38,0-0.75,0.15-1.02,0.42c-0.56,0.56-0.56,1.47,0,2.03l2.21,2.21c0.27,0.27,0.63,0.42,1.02,0.42c0.38,0,0.75-0.15,1.02-0.42
			l4.41-4.41C19.49,11.79,19.49,10.88,18.93,10.32z"/>
		<path  class="st1" d="M17.91,18.72c-0.38,0-0.75,0.15-1.02,0.42l-3.4,3.4l-1.19-1.19c-0.27-0.27-0.63-0.42-1.02-0.42
			c-0.38,0-0.75,0.15-1.02,0.42c-0.56,0.56-0.56,1.47,0,2.03l2.21,2.21c0.28,0.28,0.65,0.42,1.02,0.42c0.37,0,0.74-0.14,1.02-0.42
			l4.41-4.41c0.56-0.56,0.56-1.47,0-2.03C18.66,18.87,18.3,18.72,17.91,18.72z"/>
	</g>
	<path class="st1" d="M31.95,10.32l-6.62-6.69c-0.27-0.27-0.64-0.43-1.02-0.43H4.3c-0.79,0-1.44,0.65-1.44,1.44V40.1c0,0.79,0.65,1.44,1.44,1.44
		h20.31v-2.88H5.73V6.08h17.14v5.26c0,0.79,0.65,1.44,1.44,1.44h5.18v5.29h2.88v-6.73C32.37,10.96,32.22,10.59,31.95,10.32z
		 M25.81,9.71V7.97c0.58,0.58,1.16,1.16,1.73,1.73H25.81z"/>
</g>
<g>
	<path class="st1" d="M27.91,45.79L27.91,45.79c-0.16-0.62-0.7-1.06-1.34-1.08l-3.69,0.01c-0.79-0.02-1.45,0.6-1.47,1.39
		c-0.02,0.79,0.6,1.45,1.39,1.47h3.68C27.42,47.6,28.14,46.71,27.91,45.79z"/>
</g>
<g>
	<g>
		<path class="st1" d="M46.8,36.46H32.72V19.37h14.1c0.72,0,1.14,0.8,0.74,1.4l-4.76,7l4.75,7.3C47.93,35.67,47.51,36.46,46.8,36.46z
			 M35.59,33.59h7.57l-3.8-5.85l3.74-5.49h-7.51V33.59z"/>
	</g>
	<g>
		<path class="st1" d="M24.68,46.24L24.68,46.24c-0.79,0-1.43-0.64-1.43-1.43v-28.1c0-0.79,0.64-1.43,1.43-1.43h0c0.79,0,1.43,0.64,1.43,1.43
			l0,28.1C26.11,45.6,25.47,46.24,24.68,46.24z"/>
	</g>
	<g>
		<path class="st1" d="M35.58,33.82H23.27l0-17.08h10.94c0.76,0,1.37,0.61,1.37,1.37V33.82z M26.14,30.95h6.58V19.61h-6.58V30.95z"/>
	</g>
</g>
</svg>
