<?xml version="1.0" encoding="utf-8"?>
<!-- Generator: Adobe Illustrator 21.1.0, SVG Export Plug-In . SVG Version: 6.00 Build 0)  -->
<svg version="1.1" id="Layer_1" xmlns="http://www.w3.org/2000/svg" xmlns:xlink="http://www.w3.org/1999/xlink" x="0px" y="0px"
	 viewBox="0 0 100 100" style="enable-background:new 0 0 100 100;" xml:space="preserve">
<g>
	<path d="M50,22.4c-8.2,0-15,6.7-15,15c0,2.2,1.7,3.8,3.8,3.8s3.8-1.7,3.8-3.8c0-4,3.3-7.3,7.3-7.3c4.2,0,7.3,3,7.3,7
		c0,0,0,0.1,0,0.3c0,2.3-0.6,7.6-7.9,8.7C47.4,46.4,46,48,46,49.9v10.3c0,2.2,1.7,3.8,3.8,3.8s3.8-1.7,3.8-3.8V53
		c9.6-3,11.2-11.3,11.2-15.9C65,28.9,58.2,22.4,50,22.4z"/>
	<path d="M50,68.6c-2.8,0-4.9,2.3-4.9,4.9s2.3,4.9,4.9,4.9s4.9-2.3,4.9-4.9S52.7,68.6,50,68.6z"/>
	<path d="M50,0C22.4,0,0,22.4,0,50s22.4,50,50,50c27.6,0,50-22.4,50-50S77.6,0,50,0z M50,92.4C26.6,92.4,7.6,73.4,7.6,50
		S26.6,7.6,50,7.6S92.4,26.6,92.4,50C92.3,73.4,73.4,92.4,50,92.4z"/>
</g>
</svg>
