<?xml version="1.0" encoding="utf-8"?>
<!-- Generator: Adobe Illustrator 21.1.0, SVG Export Plug-In . SVG Version: 6.00 Build 0)  -->
<svg version="1.1" id="Layer_1" xmlns="http://www.w3.org/2000/svg" xmlns:xlink="http://www.w3.org/1999/xlink" x="0px" y="0px"
	 viewBox="0 0 100 100" style="enable-background:new 0 0 100 100;" xml:space="preserve">
<g>
	<g>
		<path d="M96.8,50.7c-0.6-0.6-1.4-0.9-2.2-0.9c0,0,0,0-0.1,0c0.3-4.2,0.1-8.5-0.8-12.7c0-0.3,0-0.6-0.1-0.9c0-0.1,0-0.1,0-0.2
			c-2-8.7-6.4-16.3-12.3-22.2C70.4,2.8,54.3-2.4,38.2,1.3C13.3,7.1-2.2,31.9,3.5,56.7C5.5,65.2,9.8,72.9,15.9,79
			c0.2,0.2,0.4,0.3,0.6,0.5c2.3,2.2,4.8,4.2,7.6,5.9c1,0.7,2.1,1.3,3.2,1.8l-5.4,5.4c-1.7,1.7-1.7,4.4,0,6.1c1.7,1.7,4.4,1.7,6.1,0
			l21.6-21.6L60,87.5c0.8,0.8,1.9,1.3,3,1.3c1.1,0,2.2-0.4,3-1.3l20.2-20.2l3.4,3.4c0.6,0.6,1.5,1,2.3,1l0.1,0c0.2,0,0.3,0,0.5,0
			c1.3-0.2,2.3-1.2,2.5-2.5l2.6-15.7C97.8,52.4,97.5,51.4,96.8,50.7z M63,78.4L52.5,67.9c-0.8-0.8-1.9-1.3-3-1.3
			c-1.1,0-2.2,0.4-3,1.3L33.2,81.2c-1.7-0.7-3.3-1.6-4.8-2.5c-0.1-0.1-0.2-0.1-0.3-0.2c-1.3-0.8-2.6-1.7-3.7-2.7l0.5-0.5l3.6-3.6
			c1.4-1.4,1.6-3.6,0.4-5.1c-0.6-0.7-1.5-1.2-2.5-1.3c-1-0.1-1.9,0.2-2.7,0.8c-0.1,0.1-0.2,0.2-0.3,0.2L19,70.6L18.6,70
			c-0.8-1-1.6-2.1-2.3-3.2l0.1-0.1c-0.1-0.2-0.3-0.4-0.4-0.7l-0.1,0.1c-2.8-4.7-4.7-9.9-5.3-15.4L10.5,50l6.3,0c1,0,1.9-0.4,2.6-1.1
			c0.7-0.7,1.1-1.6,1.1-2.6c0-2-1.7-3.7-3.7-3.7l-6.2,0l0.1-0.7c0.8-7,3.5-13.7,7.9-19.3l0.5-0.6l4.2,4.2c1.4,1.4,3.8,1.4,5.2,0
			c0.1-0.1,0.2-0.2,0.2-0.3c1.2-1.5,1-3.7-0.3-5c0,0,0,0,0,0l-4.1-4.1l0.6-0.5c5.6-4.4,12.2-7.1,19.3-8l0.7-0.1l0,6
			c0,1,0.4,1.9,1.1,2.6c0,0,0,0,0,0c0.7,0.7,1.6,1.1,2.6,1.1c2,0,3.7-1.7,3.7-3.7v-6l2.2,0.3c8,1.3,15.2,5.1,20.9,10.8l0.2,0.2
			c2.6,2.6,4.9,5.5,6.6,8.7c1.6,2.9,2.7,6,3.5,9.3c0,0.1,0.1,0.2,0.1,0.3c1,4.4,1.3,8.9,0.8,13.1l-8.1,1.3c-1.4,0.2-2.5,1.4-2.6,2.9
			c-0.1,0.9,0.3,1.8,0.9,2.4c0,0,0,0,0,0l3.5,3.4L63,78.4z"/>
		<path d="M24.9,100c-1.1,0-2.3-0.4-3.1-1.3c-1.7-1.7-1.7-4.5,0-6.3l5.2-5.2c-1-0.5-2-1.1-3-1.7c-2.7-1.7-5.3-3.7-7.6-5.9
			c-0.2-0.1-0.4-0.3-0.6-0.5C9.6,73,5.4,65.2,3.4,56.8C-2.3,31.9,13.2,7,38.1,1.2c15.7-3.6,31.8,1,43.2,12.4
			c6.1,6.1,10.4,13.8,12.3,22.3c0,0.1,0,0.1,0,0.2c0.1,0.3,0.1,0.6,0.1,0.9c0.9,4.1,1.1,8.4,0.8,12.6c0.8,0,1.6,0.3,2.2,0.9l0,0
			c0.7,0.7,1.1,1.8,0.9,2.8l-2.6,15.7c-0.2,1.4-1.3,2.4-2.6,2.7c-0.2,0-0.3,0-0.5,0l0,0c-0.9,0-1.8-0.4-2.4-1l-3.3-3.3L66.1,87.6
			c-0.8,0.8-1.9,1.3-3.1,1.3c-1.2,0-2.3-0.5-3.1-1.3L49.5,77.2L28,98.7C27.1,99.6,26,100,24.9,100z M48.6,0.2c-3.5,0-7,0.4-10.5,1.2
			C13.4,7.2-2.1,32,3.7,56.7C5.6,65.1,9.9,72.8,16,78.9c0.2,0.2,0.4,0.3,0.6,0.5c2.3,2.2,4.9,4.2,7.6,5.9c1,0.6,2.1,1.2,3.2,1.8
			l0.2,0.1l-5.5,5.5c-1.6,1.6-1.6,4.3,0,5.9c1.6,1.6,4.3,1.6,5.9,0l21.7-21.7l0.1,0.1l10.5,10.5c0.8,0.8,1.8,1.2,2.9,1.2
			c1.1,0,2.2-0.4,2.9-1.2l20.3-20.3l0.1,0.1l3.4,3.4c0.6,0.6,1.4,0.9,2.3,0.9l0.1,0c0.2,0,0.3,0,0.4,0c1.2-0.2,2.2-1.2,2.4-2.4
			l2.6-15.7c0.2-1-0.1-1.9-0.8-2.6c-0.6-0.6-1.3-0.9-2.1-0.9c0,0,0,0,0,0l-0.2,0l0-0.1c0.3-4.2,0-8.5-0.8-12.7c0-0.3,0-0.6-0.1-0.9
			c0-0.1,0-0.1,0-0.2c-1.9-8.4-6.2-16.1-12.3-22.2C72.4,5,60.7,0.2,48.6,0.2z M33.2,81.3L33.2,81.3c-1.8-0.8-3.4-1.6-4.9-2.6
			l-0.1-0.1c-0.1,0-0.1-0.1-0.2-0.1c-1.3-0.8-2.6-1.7-3.8-2.7l-0.1-0.1l0.6-0.6l3.6-3.6c1.4-1.3,1.5-3.4,0.4-4.9
			c-0.6-0.7-1.4-1.2-2.4-1.3c-0.9-0.1-1.9,0.2-2.6,0.8c-0.1,0.1-0.2,0.2-0.3,0.2L19,70.8l-0.5-0.7c-0.8-1-1.6-2.1-2.3-3.2l-0.1-0.1
			l0.1-0.1c-0.1-0.1-0.2-0.3-0.3-0.4l-0.1,0.1l-0.1-0.1c-2.9-4.8-4.7-10-5.3-15.5l-0.1-0.9h6.4c1,0,1.8-0.4,2.5-1
			c0.7-0.7,1-1.6,1-2.5c0-2-1.6-3.6-3.6-3.6h-6.3l0.1-0.9c0.8-7.1,3.5-13.7,7.9-19.3l0.5-0.7l0.1,0.1l4.2,4.2c1.4,1.4,3.7,1.4,5,0
			c0.1-0.1,0.2-0.2,0.2-0.3c1.1-1.5,1-3.5-0.3-4.9l0,0l-4.2-4.2l0.7-0.5c5.6-4.4,12.3-7.2,19.3-8L45,8.2v6.1c0,1,0.4,1.8,1,2.5
			c0.7,0.7,1.6,1,2.5,1c0,0,0,0,0,0c2,0,3.6-1.6,3.6-3.6V8.2l2.3,0.3c8,1.3,15.3,5.1,21,10.9l0.2,0.2c2.6,2.6,4.9,5.5,6.6,8.7
			c1.6,2.9,2.7,6.1,3.5,9.3l0.1,0.3c1,4.3,1.3,8.8,0.8,13.2l0,0.1l-8.2,1.3c-1.4,0.2-2.4,1.4-2.5,2.8c-0.1,0.9,0.3,1.7,0.9,2.3l0,0
			l3.5,3.5l-0.1,0.1L63,78.6l-0.1-0.1L52.4,68c-0.8-0.8-1.8-1.2-2.9-1.2c0,0,0,0,0,0c-1.1,0-2.2,0.4-2.9,1.2L33.2,81.3z M24.5,75.8
			c1.2,0.9,2.4,1.8,3.6,2.6c0.1,0,0.1,0.1,0.2,0.1l0.1,0.1c1.5,0.9,3.1,1.8,4.7,2.5l13.2-13.2c0.8-0.8,1.9-1.3,3.1-1.3c0,0,0,0,0,0
			c1.2,0,2.3,0.5,3.1,1.3L63,78.2l17-17l-3.4-3.4c-0.7-0.7-1-1.6-1-2.5c0.1-1.5,1.2-2.7,2.7-3l8-1.3c0.5-4.3,0.2-8.7-0.8-13
			l-0.1-0.3c-0.7-3.2-1.9-6.3-3.5-9.3c-1.8-3.2-4-6.1-6.6-8.7l-0.2-0.2c-5.7-5.8-12.9-9.5-20.8-10.8l-2-0.3v5.9
			c0,2.1-1.7,3.8-3.8,3.8c0,0,0,0,0,0c-1,0-2-0.4-2.7-1.1c-0.7-0.7-1.1-1.7-1.1-2.7V8.5l-0.6,0.1c-7,0.8-13.7,3.5-19.2,7.9l-0.5,0.4
			l4,4.1c1.4,1.4,1.5,3.6,0.3,5.2c-0.1,0.1-0.2,0.2-0.2,0.3c-1.5,1.5-3.9,1.5-5.4,0L19,22.3l-0.4,0.5c-4.4,5.5-7.1,12.2-7.9,19.2
			l-0.1,0.6h6.1c2.1,0,3.8,1.7,3.8,3.8c0,1-0.4,2-1.1,2.7c-0.7,0.7-1.7,1.1-2.7,1.1h-6.1l0.1,0.6c0.6,5.4,2.4,10.5,5.2,15.2l0.1-0.1
			l0.1,0.1c0.1,0.2,0.3,0.4,0.4,0.6l0.1,0.1l-0.1,0.1c0.7,1.1,1.4,2.1,2.2,3.1l0.4,0.5l4.2-4.1c0.1-0.1,0.2-0.2,0.3-0.2
			c0.8-0.6,1.8-0.9,2.8-0.8c1,0.1,1.9,0.6,2.6,1.4c1.2,1.6,1.1,3.9-0.4,5.3L24.5,75.8z"/>
	</g>
	<g>
		<path d="M69.5,25.1L69.5,25.1c-1.3-1.1-3.1-1.1-4.4,0L50.2,36.9l-0.3,0c-5.2-0.7-10.1,3-10.8,8.2c-0.3,2.5,0.3,5,1.9,7.1
			c1.5,2,3.8,3.3,6.3,3.7c5.2,0.7,10.1-3,10.8-8.2c0.1-0.4,0.1-0.9,0.1-1.3c0-0.4,0-0.9-0.1-1.3l0-0.3L70,30c1.2-1.4,1-3.4-0.3-4.7
			L69.5,25.1z"/>
		<path d="M48.6,56.1c-0.4,0-0.9,0-1.3-0.1c-2.6-0.4-4.8-1.7-6.4-3.7c-1.6-2.1-2.2-4.6-1.9-7.2c0.3-2.6,1.7-4.8,3.7-6.4
			c2.1-1.6,4.6-2.2,7.2-1.9l0.2,0L65,24.9c1.3-1.1,3.2-1.1,4.5,0l0.1,0.1l0,0l0.2,0.2c1.4,1.3,1.5,3.4,0.3,4.9L58.2,44.8l0,0.2
			c0.1,0.4,0.1,0.9,0.1,1.3c0,0.4,0,0.9-0.1,1.3c-0.3,2.6-1.7,4.8-3.7,6.4C52.8,55.4,50.8,56.1,48.6,56.1z M48.6,36.9
			c-2,0-4,0.7-5.7,1.9c-2,1.5-3.3,3.7-3.6,6.2c-0.3,2.5,0.3,5,1.8,7c1.5,2,3.7,3.3,6.2,3.6c5.2,0.7,9.9-2.9,10.6-8.1
			c0.1-0.4,0.1-0.9,0.1-1.3c0-0.4,0-0.9-0.1-1.3l0-0.3l0,0l11.9-14.8c1.1-1.4,1-3.3-0.2-4.5l-0.3-0.3l0,0c-1.2-1-3-0.9-4.2,0
			L50.2,37.1l-0.3,0C49.5,37,49,36.9,48.6,36.9z"/>
	</g>
</g>
</svg>
