<?xml version="1.0" encoding="utf-8"?>
<!-- Generator: Adobe Illustrator 23.0.3, SVG Export Plug-In . SVG Version: 6.00 Build 0)  -->
<svg version="1.1" id="Layer_1" xmlns="http://www.w3.org/2000/svg" xmlns:xlink="http://www.w3.org/1999/xlink" x="0px" y="0px"
	 viewBox="0 0 48 48" style="enable-background:new 0 0 48 48;" xml:space="preserve">
<style type="text/css">
	.st0{stroke:#000000;stroke-miterlimit:10;}
</style>
<path class="st0" d="M46.9,8.9l0,4.6c0,0.4-0.3,0.7-0.7,0.7l-44.4,0c-0.4,0-0.7-0.3-0.7-0.7l0-4.6c0-0.4,0.3-0.7,0.7-0.7l44.4,0
	C46.6,8.2,46.9,8.5,46.9,8.9z"/>
<path class="st0" d="M46.9,34.5l0,4.6c0,0.4-0.3,0.7-0.7,0.7l-44.4,0c-0.4,0-0.7-0.3-0.7-0.7l0-4.6c0-0.4,0.3-0.7,0.7-0.7l44.4,0
	C46.6,33.8,46.9,34.1,46.9,34.5z"/>
</svg>
