<svg id="Isolation_Mode" data-name="Isolation Mode" xmlns="http://www.w3.org/2000/svg" viewBox="0 0 100 96.82"><defs>
<style>.cls-1{}</style></defs><title>icon-test-o</title>
<path d="M150.57,121.69V100.56a2.51,2.51,0,0,0-.71-1.74L135.07,83.87a2.5,2.5,0,0,0-1.75-.73H88.62a2.46,2.46,0,0,0-2.47,2.46v79.21a2.47,2.47,0,0,0,2.47,2.47h59.49a2.43,2.43,0,0,0,1.53-.55l-.47-.21a27.06,27.06,0,0,1-5.22-2.46,1.71,1.71,0,0,1-.32,0,8.65,8.65,0,0,1-4.59-1.19,2.27,2.27,0,0,1-.54-.53H91.08V88.07h39.77v12.49a2.46,2.46,0,0,0,2.47,2.46h12.32v18.3c.74-.59,1.78-1.26,2.48-.62.41.37.57-1.29.52-.75C149.28,119.85,149.93,121.68,150.57,121.69Z" transform="translate(-84.84 -81.83)"/>
<path d="M148.11,168.58H88.62a3.78,3.78,0,0,1-3.78-3.77V85.6a3.78,3.78,0,0,1,3.78-3.77h44.7A3.79,3.79,0,0,1,136,83l14.79,15a3.82,3.82,0,0,1,1.09,2.66V123l-1.33,0a2.28,2.28,0,0,1-1.72-1.07l-.14.06a1.45,1.45,0,0,1-1.32-.22,3.11,3.11,0,0,0-.92.57L144.33,124V104.33h-11a3.78,3.78,0,0,1-3.78-3.77V89.37H92.39V161h46.78l.39.54a.91.91,0,0,0,.24.24,7.59,7.59,0,0,0,3.92,1l.46-.07.45.24a25.52,25.52,0,0,0,5,2.35l.27.11.29.13,2,.86-1.7,1.37A3.79,3.79,0,0,1,148.11,168.58ZM88.62,84.44a1.16,1.16,0,0,0-1.16,1.16v79.21A1.16,1.16,0,0,0,88.62,166h56c-.36-.19-.71-.39-1-.59h-.08a9.83,9.83,0,0,1-5.25-1.43,3.47,3.47,0,0,1-.37-.3H89.77V86.76h42.39v13.8a1.16,1.16,0,0,0,1.16,1.15H147v17.48a2.63,2.63,0,0,1,.61-.06,1.29,1.29,0,0,1,1.28-.58,1.15,1.15,0,0,1,.42.14V100.56a1.18,1.18,0,0,0-.33-.82L134.14,84.79a1.18,1.18,0,0,0-.82-.35Z" transform="translate(-84.84 -81.83)"/>
<path d="M120.77,98.81a2.47,2.47,0,0,0-3.49,0l-8.11,8.12L106,103.74a2.47,2.47,0,0,0-3.49,3.49l4.93,4.93a2.47,2.47,0,0,0,3.49,0l9.86-9.86A2.47,2.47,0,0,0,120.77,98.81Z" transform="translate(-84.84 -81.83)"/>
<path d="M109.17,114.19a3.72,3.72,0,0,1-2.67-1.11l-4.93-4.93a3.77,3.77,0,1,1,5.33-5.33l2.27,2.26,7.19-7.19a3.77,3.77,0,0,1,5.33,5.33l-9.86,9.86A3.71,3.71,0,0,1,109.17,114.19Zm-4.93-9.86a1.15,1.15,0,0,0-.82.34,1.16,1.16,0,0,0,0,1.64l4.93,4.93a1.2,1.2,0,0,0,1.64,0l9.86-9.86a1.16,1.16,0,0,0,0-1.64,1.18,1.18,0,0,0-1.64,0l-9,9-4.11-4.11A1.15,1.15,0,0,0,104.24,104.33Z" transform="translate(-84.84 -81.83)"/>
<path d="M120.77,118.53a2.47,2.47,0,0,0-3.49,0l-8.11,8.12L106,123.46a2.47,2.47,0,0,0-3.49,3.49l4.93,4.93a2.47,2.47,0,0,0,3.49,0l9.86-9.86A2.47,2.47,0,0,0,120.77,118.53Z" transform="translate(-84.84 -81.83)"/>
<path d="M109.17,133.91a3.72,3.72,0,0,1-2.67-1.11l-4.93-4.93a3.77,3.77,0,1,1,5.33-5.33l2.27,2.26,7.19-7.19a3.77,3.77,0,0,1,5.33,5.33l-9.86,9.86A3.71,3.71,0,0,1,109.17,133.91Zm-4.93-9.86a1.15,1.15,0,0,0-.82.34,1.16,1.16,0,0,0,0,1.64l4.93,4.93a1.19,1.19,0,0,0,1.64,0l9.86-9.85a1.16,1.16,0,0,0,0-1.64,1.18,1.18,0,0,0-1.64,0l-9,9-4.11-4.11A1.15,1.15,0,0,0,104.24,124.05Z" transform="translate(-84.84 -81.83)"/>
<path d="M120.77,138.25a2.47,2.47,0,0,0-3.49,0l-8.11,8.12L106,143.18a2.47,2.47,0,0,0-3.49,3.49l4.93,4.93a2.47,2.47,0,0,0,3.49,0l9.86-9.86A2.47,2.47,0,0,0,120.77,138.25Z" transform="translate(-84.84 -81.83)"/>
<path d="M109.17,153.63a3.72,3.72,0,0,1-2.67-1.11l-4.93-4.93a3.77,3.77,0,1,1,5.33-5.33l2.27,2.26,7.19-7.19a3.77,3.77,0,1,1,5.33,5.33l-9.86,9.86A3.71,3.71,0,0,1,109.17,153.63Zm-4.93-9.86a1.15,1.15,0,0,0-.82.34,1.16,1.16,0,0,0,0,1.64l4.93,4.93a1.2,1.2,0,0,0,1.64,0l9.86-9.86a1.16,1.16,0,0,0,0-1.64,1.18,1.18,0,0,0-1.64,0l-9,9-4.11-4.11A1.15,1.15,0,0,0,104.24,143.77Z" transform="translate(-84.84 -81.83)"/>
<g class="cls-1" style="opacity:0.2;">
<path d="M134.54,157.22a21.65,21.65,0,0,1-3.93-8.78c-2.09-4.54-1.83-9.2-1.48-13.8.39-5.22,4.19-5,8.46-8.34,3.91-3.09,6.06-4.22,10.89-4.61v-21c-5-4-8.11-9.89-13-14H90.23v77.67h54.06C140.42,163.33,137,160.33,134.54,157.22Z" transform="translate(-84.84 -81.83)"/></g>
<path d="M173.57,113.93a3.21,3.21,0,0,0-4.54,4.54l2.55,2.55-3.19,3.18a26.05,26.05,0,1,0,4.54,4.46l3.11-3.1,2.55,2.54a3.24,3.24,0,0,0,4.54-4.62Zm-7,44.92h0a19.66,19.66,0,1,1,5.74-13.94A19.67,19.67,0,0,1,166.56,158.85Z" transform="translate(-84.84 -81.83)"/>
<path d="M152.49,171.67a26.79,26.79,0,1,1,15.83-48.45l2.2-2.2-2-2a4,4,0,0,1,5.6-5.59l9.56,9.56a4,4,0,0,1-5.59,5.68l-2-2-2.11,2.11a26.83,26.83,0,0,1-21.44,42.95Zm.11-52.1a25.54,25.54,0,0,0-3.37.22,25.3,25.3,0,1,0,23.12,9.34l-.41-.53,4.1-4.1,3.08,3.08a2.5,2.5,0,0,0,3.52,0,2.5,2.5,0,0,0,0-3.52L173,114.45a2.46,2.46,0,0,0-3.48,3.49l3.08,3.08-4.18,4.17-.52-.4A25.1,25.1,0,0,0,152.6,119.57Zm0,45.81a20.4,20.4,0,1,1,14.47-6h0a20.29,20.29,0,0,1-14.43,6Zm0-39.33a18.92,18.92,0,0,0,0,37.84h0A18.78,18.78,0,0,0,166,158.32h0a19,19,0,0,0,5.52-13.41,18.91,18.91,0,0,0-18.93-18.86Z" transform="translate(-84.84 -81.83)"/>
<path d="M152.32,148.86h0a3.18,3.18,0,0,0,2.4-3l.19-10.46a3.19,3.19,0,0,0-6.38-.18l-.2,10.43A3.19,3.19,0,0,0,152.32,148.86Z" transform="translate(-84.84 -81.83)"/><path d="M151.52,149.71a3.94,3.94,0,0,1-3.93-4.07l.19-10.42a3.93,3.93,0,0,1,4.05-3.83,3.94,3.94,0,0,1,3.83,4l-.19,10.45a4,4,0,0,1-3,3.71h0A4.17,4.17,0,0,1,151.52,149.71Zm.2-16.83a2.44,2.44,0,0,0-2.44,2.38l-.2,10.41a2.45,2.45,0,1,0,4.9.17l.18-10.44a2.43,2.43,0,0,0-2.37-2.52Z" transform="translate(-84.84 -81.83)"/><path d="M160.9,146.64a3.2,3.2,0,0,0-3.14-3.2l-6.23-.11a3.19,3.19,0,0,0-.18,6.38l6.29.12a3.2,3.2,0,0,0,3.26-3.19Z" transform="translate(-84.84 -81.83)"/><path d="M157.7,150.58h-.07l-6.29-.12a3.94,3.94,0,1,1,.21-7.87l6.22.11a3.94,3.94,0,0,1,2.69,6.75A3.9,3.9,0,0,1,157.7,150.58Zm-6.25-6.5a2.45,2.45,0,0,0-.08,4.89l6.28.11a2.44,2.44,0,0,0,2.5-2.44,2.46,2.46,0,0,0-2.41-2.45l-6.22-.11Z" transform="translate(-84.84 -81.83)"/><path d="M169.57,177h0a3.2,3.2,0,0,0,.54-3.81l-5.19-9.08a3.19,3.19,0,1,0-5.57,3.1l5.16,9.07A3.2,3.2,0,0,0,169.57,177Z" transform="translate(-84.84 -81.83)"/><path d="M167.32,178.65a3.64,3.64,0,0,1-.57,0,4,4,0,0,1-2.9-2l-5.15-9.06a3.94,3.94,0,0,1,1.52-5.36,4,4,0,0,1,5.36,1.52l5.17,9.08a4,4,0,0,1-.65,4.7h0A3.91,3.91,0,0,1,167.32,178.65Zm-5.19-15.46a2.39,2.39,0,0,0-1.18.31,2.36,2.36,0,0,0-1.16,1.46,2.41,2.41,0,0,0,.21,1.86l5.15,9.06a2.46,2.46,0,0,0,3.89.56h0a2.45,2.45,0,0,0,.41-2.92l-5.17-9.07A2.45,2.45,0,0,0,162.13,163.19Z" transform="translate(-84.84 -81.83)"/><path d="M135.52,177h0a3.2,3.2,0,0,1-.54-3.81l5.18-9.08a3.19,3.19,0,0,1,5.58,3.1l-5.16,9.07A3.2,3.2,0,0,1,135.52,177Z" transform="translate(-84.84 -81.83)"/><path d="M137.77,178.65a3.91,3.91,0,0,1-2.78-1.16h0a3.94,3.94,0,0,1-.66-4.69l5.18-9.09a4,4,0,0,1,5.36-1.52,3.91,3.91,0,0,1,1.87,2.36,4,4,0,0,1-.35,3l-5.16,9.07a3.94,3.94,0,0,1-2.9,2A3.6,3.6,0,0,1,137.77,178.65ZM143,163.19a2.46,2.46,0,0,0-2.14,1.25l-5.18,9.09a2.46,2.46,0,0,0,.42,2.91h0a2.41,2.41,0,0,0,2.07.69,2.45,2.45,0,0,0,1.81-1.24l5.16-9.08a2.43,2.43,0,0,0,.21-1.85,2.39,2.39,0,0,0-1.16-1.46A2.43,2.43,0,0,0,143,163.19Z" transform="translate(-84.84 -81.83)"/></svg>