<?xml version="1.0" encoding="utf-8"?>
<!-- Generator: Adobe Illustrator 23.0.3, SVG Export Plug-In . SVG Version: 6.00 Build 0)  -->
<svg version="1.1" id="Layer_1" xmlns="http://www.w3.org/2000/svg" xmlns:xlink="http://www.w3.org/1999/xlink" x="0px" y="0px"
	 viewBox="0 0 50 50" style="enable-background:new 0 0 50 50;" xml:space="preserve">

<g transform="translate(0,-952.36218)">
	<path d="M11.25,953.82c-1.92,0-3.52,1.59-3.52,3.52v39.18c0,1.92,1.59,3.52,3.52,3.52h26.12c1.92,0,3.52-1.59,3.52-3.52v-39.18
		c0-1.92-1.59-3.52-3.52-3.52H11.25z M11.25,956.84h26.12c0.3,0,0.5,0.2,0.5,0.5v1.51H10.75v-1.51
		C10.75,957.03,10.95,956.84,11.25,956.84z M10.75,961.86h27.13v28.13H10.75V961.86z M24.12,965.89c-0.2,0.03-0.39,0.1-0.57,0.2
		l-7.03,4.02c-0.46,0.26-0.76,0.77-0.77,1.29v8.04c0.01,0.52,0.31,1.03,0.77,1.29l7.03,4.02c0.2,0.11,0.42,0.18,0.64,0.2
		c0.3,0.02,0.6-0.05,0.86-0.2l7.03-4.02c0.46-0.26,0.76-0.77,0.77-1.29v-8.04c-0.01-0.52-0.31-1.03-0.77-1.29l-7.03-4.02
		C24.78,965.93,24.45,965.86,24.12,965.89z M24.31,969.11l4,2.28l-4,2.29l-4-2.29L24.31,969.11z M18.79,973.99l4.02,2.31v4.57
		l-4.02-2.28V973.99z M29.84,973.99v4.6l-4.02,2.28v-4.57L29.84,973.99z M10.75,993.01h27.13v3.52c0,0.3-0.2,0.5-0.5,0.5H11.25
		c-0.3,0-0.5-0.2-0.5-0.5V993.01z M24.31,993.51c-0.83,0-1.51,0.67-1.51,1.51s0.67,1.51,1.51,1.51c0.83,0,1.51-0.67,1.51-1.51
		S25.14,993.51,24.31,993.51z"/>
</g>
<path opacity=".4" d="M9.74,8.52v30.31h29.47V8.52H9.74z M32.87,27.08c-0.01,0.52-0.31,1.03-0.77,1.29l-7.03,4.02
	c-0.26,0.15-0.56,0.22-0.86,0.2c-0.23-0.02-0.45-0.09-0.64-0.2l-7.03-4.02c-0.46-0.26-0.76-0.77-0.77-1.29v-8.04
	c0.01-0.52,0.31-1.03,0.77-1.29l7.03-4.02c0.17-0.1,0.37-0.17,0.57-0.2c0.33-0.03,0.66,0.04,0.94,0.2l7.03,4.02
	c0.46,0.26,0.76,0.77,0.77,1.29V27.08z"/>
</svg>
