<svg xmlns="http://www.w3.org/2000/svg" viewBox="0 0 100 100" id="icon-mail" width="100%" height="100%">
    <path d="M84.4 8.3H15.6C8.1 8.3 1.9 14.4 1.9 22v55.9c0 7.7 6.2 13.7 13.7 13.7h68.9c7.7 0 13.7-6.2 13.7-13.7V22c-.1-7.6-6.1-13.7-13.8-13.7zm-68.8 9.1h68.9c2.6 0 4.5 2.1 4.5 4.5v13.5L54.6 55.3c-2.8 1.7-6.4 1.7-9.2 0L11.1 35.5V22c0-2.5 2-4.6 4.5-4.6zm68.8 65.2H15.6c-2.6 0-4.5-2.1-4.5-4.5V46.2l29.8 17.3c5.6 3.2 12.8 3.2 18.4 0l29.8-17.3V78c0 2.5-2 4.6-4.7 4.6z"></path>
    <path d="M84.4 93.6H15.6C6.9 93.6 0 86.7 0 78V22C0 13.3 6.9 6.4 15.6 6.4h68.9c8.6 0 15.6 6.9 15.6 15.6v55.9c-.1 8.6-7 15.7-15.7 15.7zM15.6 10.1C9 10.1 3.8 15.4 3.8 21.9v55.9c0 6.6 5.3 11.8 11.8 11.8h68.9c6.6 0 11.8-5.3 11.8-11.8V21.9c0-6.6-5.3-11.8-11.8-11.8H15.6zm68.8 74.3H15.6c-3.6 0-6.4-2.8-6.4-6.4V42.8l32.6 19c5.1 3 11.4 3 16.5 0l32.6-19v35.1c.1 3.5-2.9 6.5-6.5 6.5zM12.9 49.3V78c0 1.5 1.1 2.6 2.6 2.6h68.9c1.5 0 2.6-1.1 2.6-2.6V49.3L60 64.9c-6.2 3.6-14.1 3.6-20.3 0L12.9 49.3zm37.2 9.2c-1.9 0-3.8-.6-5.4-1.5L9.2 36.6V21.9c0-3.6 2.8-6.4 6.4-6.4h68.9c3.6 0 6.4 2.8 6.4 6.4v14.4L55.5 57c-1.7 1-3.5 1.5-5.4 1.5zM12.9 34.3l33.4 19.3c2.3 1.3 5.1 1.3 7.3 0L87 34.3V22c0-1.5-1.1-2.6-2.6-2.6H15.6c-1.5 0-2.6 1.1-2.6 2.6-.1 0-.1 12.3-.1 12.3z"></path>
</svg>