
<?xml version="1.0" encoding="utf-8"?>
<!-- Generator: Adobe Illustrator 21.1.0, SVG Export Plug-In . SVG Version: 6.00 Build 0)  -->
<svg version="1.1" id="Layer_1" xmlns="http://www.w3.org/2000/svg" xmlns:xlink="http://www.w3.org/1999/xlink" x="0px" y="0px"
	 viewBox="0 0 19.3 21.5" style="enable-background:new 0 0 19.3 21.5;" xml:space="preserve">
<style type="text/css">
	.st1{}
</style>
<g>
	<g>
		<g class="st0" style="opacity:0.45;">
			<path class="st1"  d="M7.2,13.6c-0.3-0.3-0.4-0.8-0.1-1.2C7.4,12,8,11.9,8.4,12.2c0,0,0.1,0.1,0.1,0.1l2.9,2.9V6.4
				c0-0.5,0.3-0.9,0.8-1c0.5-0.1,1,0.3,1.1,0.7c0,0.1,0,0.1,0,0.2V4.5c0-0.5-0.4-0.9-0.9-0.9H4.1C3.6,3.6,3.2,4,3.2,4.5v11.9
				c0,0.5,0.4,0.9,0.9,0.9h6.9L7.2,13.6z"/>
			<path class="st1" d="M11.3,17.4H4.1c-0.6,0-1-0.5-1-1V4.5c0-0.6,0.5-1,1-1h8.2c0.6,0,1,0.5,1,1v1.8h-0.2c0,0,0-0.1,0-0.1
				c0-0.2-0.2-0.4-0.3-0.5c-0.2-0.1-0.4-0.2-0.6-0.1c-0.4,0.1-0.7,0.4-0.7,0.8v9.1l-3.1-3.1c0,0-0.1-0.1-0.1-0.1
				c-0.2-0.1-0.4-0.2-0.6-0.1c-0.2,0-0.4,0.1-0.5,0.3c-0.2,0.3-0.2,0.8,0.1,1L11.3,17.4z M4.1,3.7c-0.4,0-0.8,0.4-0.8,0.8v11.9
				c0,0.4,0.4,0.8,0.8,0.8h6.6l-3.5-3.5c-0.4-0.4-0.4-0.9-0.2-1.4c0.3-0.5,1-0.6,1.5-0.3c0,0,0.1,0.1,0.1,0.1l2.7,2.7V6.4
				c0-0.5,0.3-1,0.9-1.1c0.3,0,0.6,0,0.8,0.2c0.1,0.1,0.1,0.1,0.2,0.2V4.5c0-0.4-0.4-0.8-0.8-0.8H4.1z"/>
		</g>
		<g class="st2" style="opacity:0.25;">
			<path class="st1" style="fill:#FFFFFF;" d="M11.4,19.1V21h7.3v-1.8h-1.8h-5H11.4z"/>
		</g>
	</g>
	<g>
		<g>
			<path class="st1" d="M1,17.2V1.5C1,1.2,1.2,1,1.5,1h13.1c0.3,0,0.5,0.2,0.5,0.5v6.7H16V1.5c0-0.8-0.6-1.4-1.4-1.4H1.5
				c-0.8,0-1.4,0.6-1.4,1.4v15.7c0,1.8,1.5,3.3,3.3,3.3h8.1v-0.9H3.4C2.1,19.6,1,18.5,1,17.2z"/>
			<path class="st1" d="M11.6,20.7H3.4c-1.9,0-3.4-1.5-3.4-3.4V1.5C0,0.7,0.7,0,1.5,0h13.1c0.8,0,1.5,0.7,1.5,1.5v6.8h-1.2V1.5
				c0-0.2-0.1-0.3-0.3-0.3H1.5c-0.2,0-0.3,0.1-0.3,0.3v15.7c0,1.2,1,2.3,2.3,2.3h8.2V20.7z M1.5,0.2c-0.7,0-1.2,0.6-1.2,1.2v15.7
				c0,1.8,1.4,3.2,3.2,3.2h8v-0.7h-8c-1.4,0-2.5-1.1-2.5-2.5V1.5c0-0.3,0.3-0.6,0.6-0.6h13.1c0.3,0,0.6,0.3,0.6,0.6v6.6h0.7V1.5
				c0-0.7-0.6-1.2-1.2-1.2H1.5z"/>
		</g>
		<g>
			<path class="st1" d="M12.8,4.5h0.9c0-0.8-0.6-1.4-1.4-1.4H4.1c-0.8,0-1.4,0.6-1.4,1.4v11.9c0,0.8,0.6,1.4,1.4,1.4H11v-0.9H4.1
				c-0.3,0-0.5-0.2-0.5-0.5V4.5c0-0.3,0.2-0.5,0.5-0.5h8.2C12.6,4.1,12.8,4.3,12.8,4.5z"/>
			<path class="st1" d="M11.1,17.9h-7c-0.8,0-1.5-0.7-1.5-1.5V4.5C2.6,3.7,3.3,3,4.1,3h8.2c0.8,0,1.5,0.7,1.5,1.5v0.1h-1.2V4.5
				c0-0.2-0.1-0.3-0.3-0.3H4.1c-0.2,0-0.3,0.1-0.3,0.3v11.9c0,0.2,0.1,0.3,0.3,0.3h7V17.9z M4.1,3.3c-0.7,0-1.2,0.6-1.2,1.2v11.9
				c0,0.7,0.6,1.2,1.2,1.2h6.7V17H4.1c-0.3,0-0.6-0.3-0.6-0.6V4.5c0-0.3,0.3-0.6,0.6-0.6h8.2c0.3,0,0.5,0.2,0.6,0.5h0.7
				c-0.1-0.6-0.6-1.1-1.2-1.1H4.1z"/>
		</g>
		<g>
			<path class="st1" d="M5,9.4h4.9v0.9H5V9.4z"/>
			<path class="st1" d="M10,10.4H4.9V9.3H10V10.4z M5.1,10.2h4.7V9.5H5.1V10.2z"/>
		</g>
		<g>
			<path class="st1" d="M5,7.3h4.9v0.9H5V7.3z"/>
			<path class="st1" d="M10,8.3H4.9V7.2H10V8.3z M5.1,8.1h4.7V7.4H5.1V8.1z"/>
		</g>
		<g>
			<path class="st1" d="M5,5.4h4.9v0.9H5V5.4z"/>
			<path class="st1" d="M10,6.4H4.9V5.2H10V6.4z M5.1,6.1h4.7V5.5H5.1V6.1z"/>
		</g>
		<g>
			<path class="st1" d="M19.2,10.1c0-0.7-0.5-1.3-1.1-1.4c-0.3,0-0.5,0-0.7,0.1c-0.1-0.5-0.6-0.9-1.1-1c-0.4-0.1-0.8,0-1.1,0.3l0,0
				c-0.4-0.3-0.9-0.4-1.4-0.3V6.3c0-0.8-0.6-1.4-1.4-1.4c-0.1,0-0.2,0-0.2,0c-0.7,0.1-1.1,0.7-1.1,1.4v7.7l-2.1-2.1
				c-0.5-0.5-1.4-0.5-1.9,0c-0.1,0.1-0.1,0.1-0.1,0.2c-0.4,0.6-0.3,1.3,0.2,1.8l4,4v0.7c0,0.1,0,0.2,0,0.3c0,0.1,0,0.1,0,0.2V21
				c0,0.3,0.2,0.5,0.5,0.5h7.3c0.3,0,0.5-0.2,0.5-0.5v-1.8c0-0.3-0.2-0.5-0.5-0.5h0c0.3-0.4,0.5-0.9,0.5-1.4V10.1z M18.3,20.5h-6.4
				v-0.9h6.4L18.3,20.5L18.3,20.5z M11.9,18.7v-0.9c0-0.1,0-0.2-0.1-0.3l-4.2-4.2c-0.2-0.2-0.2-0.4-0.1-0.6c0.1-0.1,0.2-0.2,0.3-0.2
				c0,0,0,0,0,0c0.1,0,0.2,0,0.3,0.1l2.9,2.9c0.2,0.2,0.5,0.2,0.6,0c0.1-0.1,0.1-0.2,0.1-0.3V6.4c0-0.2,0.1-0.4,0.4-0.5
				c0.1,0,0.3,0,0.4,0.1c0.1,0.1,0.2,0.2,0.2,0.3v5.9h0.9V9.1c0-0.3,0.2-0.5,0.5-0.5s0.5,0.2,0.5,0.5v3.1h0.9V9.1
				c0-0.3,0.2-0.5,0.5-0.5c0,0,0.1,0,0.1,0c0.2,0.1,0.4,0.3,0.4,0.5v3.1h0.9V10c0-0.3,0.2-0.5,0.5-0.5c0,0,0.1,0,0.1,0
				c0.2,0.1,0.4,0.3,0.4,0.5v7.3c0,0.8-0.6,1.4-1.4,1.4H11.9z"/>
			<path class="st1" d="M18.7,21.5h-7.3c-0.3,0-0.6-0.3-0.6-0.6v-1.8c0-0.1,0-0.1,0-0.2c0-0.1,0-0.2,0-0.3V18l-4-4
				c-0.5-0.5-0.6-1.3-0.2-2c0-0.1,0.1-0.1,0.2-0.2c0.3-0.3,0.7-0.4,1.1-0.4c0,0,0,0,0,0c0.4,0,0.8,0.2,1.1,0.4l1.9,1.9V6.4
				c0-0.7,0.5-1.4,1.2-1.5c0.1,0,0.2,0,0.2,0c0,0,0,0,0,0c0.8,0,1.5,0.7,1.5,1.5v1.3c0.4-0.1,0.9,0,1.2,0.3c0.3-0.3,0.8-0.4,1.2-0.3
				c0.5,0.1,1,0.5,1.1,1c0.2-0.1,0.5-0.1,0.7,0c0.7,0.1,1.3,0.8,1.2,1.5v7.3c0,0.5-0.1,0.9-0.4,1.3c0.2,0.1,0.4,0.3,0.4,0.5V21
				C19.3,21.3,19,21.5,18.7,21.5z M7.9,11.7C7.9,11.7,7.8,11.7,7.9,11.7c-0.3,0-0.7,0.1-0.9,0.4c0,0-0.1,0.1-0.1,0.2
				c-0.3,0.5-0.3,1.2,0.2,1.6l4.1,4.1v0.8c0,0.1,0,0.2,0,0.2l0,0l0,0c0,0,0,0.1,0,0.1V21c0,0.2,0.1,0.3,0.3,0.3h7.3
				c0.2,0,0.3-0.1,0.3-0.3v-1.8c0-0.2-0.1-0.3-0.3-0.3h-0.3l0.1-0.2c0.3-0.4,0.4-0.8,0.4-1.3v-7.3c0-0.6-0.4-1.2-1-1.3
				c-0.2,0-0.5,0-0.7,0.1l-0.1,0.1l0-0.1c-0.1-0.5-0.5-0.8-1-0.9c-0.4-0.1-0.7,0-1,0.3l-0.1,0.1L15,8.2c-0.3-0.3-0.8-0.4-1.3-0.3
				L13.6,8V6.3c0-0.7-0.6-1.2-1.2-1.2c0,0,0,0,0,0c-0.1,0-0.1,0-0.2,0c-0.6,0.1-1,0.7-1,1.3v8L8.7,12C8.5,11.8,8.2,11.7,7.9,11.7z
				 M18.4,20.6h-6.6v-1.2h6.6V20.6z M12,20.4h6.1v-0.7H12V20.4z M16.9,18.8h-5.2v-1c0-0.1,0-0.2-0.1-0.2l-4.2-4.2
				c-0.2-0.2-0.3-0.5-0.1-0.8c0.1-0.1,0.3-0.2,0.4-0.3l0,0c0.2,0,0.3,0.1,0.4,0.2l2.9,2.9c0.1,0.1,0.3,0.1,0.5,0
				c0.1-0.1,0.1-0.1,0.1-0.2V6.4c0-0.3,0.2-0.6,0.5-0.6c0.2,0,0.4,0,0.5,0.1c0.1,0.1,0.2,0.3,0.2,0.4v5.8h0.7V9.1
				c0-0.3,0.3-0.6,0.6-0.6s0.6,0.3,0.6,0.6v3h0.7v-3c0-0.2,0.1-0.3,0.2-0.4c0.1-0.1,0.3-0.2,0.5-0.2c0.3,0.1,0.5,0.3,0.5,0.6v3h0.7
				V10c0-0.2,0.1-0.3,0.2-0.4c0.1-0.1,0.3-0.2,0.5-0.2c0.3,0.1,0.5,0.3,0.5,0.6v7.3C18.4,18.1,17.7,18.8,16.9,18.8z M12,18.6h4.9
				c0.7,0,1.2-0.6,1.2-1.2v-7.3c0-0.2-0.1-0.3-0.3-0.4c0,0,0,0,0,0c-0.1,0-0.2,0-0.2,0.1c-0.1,0.1-0.1,0.1-0.1,0.2v2.4h-1.2V9.1
				c0-0.2-0.1-0.3-0.3-0.4c0,0,0,0,0,0c-0.1,0-0.2,0-0.2,0.1c-0.1,0.1-0.1,0.1-0.1,0.2v3.2h-1.2V9.1c0-0.2-0.1-0.3-0.3-0.3
				s-0.3,0.1-0.3,0.3v3.3h-1.2V6.3c0-0.1,0-0.2-0.1-0.3C12.5,6,12.4,6,12.3,6c-0.2,0-0.3,0.2-0.3,0.4v8.8c0,0.2-0.1,0.3-0.2,0.4
				c-0.2,0.2-0.6,0.2-0.8,0l-2.9-2.9c-0.1-0.1-0.1-0.1-0.2-0.1h0c-0.1,0-0.2,0.1-0.2,0.1c-0.1,0.1-0.1,0.3,0.1,0.5l4.2,4.2
				c0.1,0.1,0.2,0.3,0.2,0.4V18.6z"/>
		</g>
	</g>
	<g>
		<circle class="st1" cx="6.5" cy="2" r="0.4"/>
		<path class="st1" d="M6.5,2.6C6.2,2.6,6,2.3,6,2c0-0.3,0.2-0.5,0.5-0.5S7,1.8,7,2C7,2.3,6.8,2.6,6.5,2.6z M6.5,1.8
			C6.3,1.8,6.2,1.9,6.2,2s0.1,0.3,0.3,0.3S6.8,2.2,6.8,2S6.6,1.8,6.5,1.8z"/>
	</g>
	<g>
		<path class="st1" d="M10.2,2.4H8.1C7.9,2.4,7.7,2.2,7.7,2v0c0-0.2,0.2-0.4,0.4-0.4h2.1c0.2,0,0.4,0.2,0.4,0.4v0
			C10.6,2.2,10.4,2.4,10.2,2.4z"/>
		<path class="st1" d="M10.2,2.5H8.1C7.8,2.5,7.6,2.3,7.6,2c0-0.3,0.2-0.5,0.5-0.5h2.1c0.3,0,0.5,0.2,0.5,0.5
			C10.7,2.3,10.5,2.5,10.2,2.5z M8.1,1.8C7.9,1.8,7.8,1.9,7.8,2c0,0.1,0.1,0.3,0.3,0.3h2.1c0.1,0,0.3-0.1,0.3-0.3
			c0-0.1-0.1-0.3-0.3-0.3H8.1z"/>
	</g>
</g>
</svg>
