<svg id="Layer_1" data-name="Layer 1" xmlns="http://www.w3.org/2000/svg" viewBox="0 0 251.7 124.6"><defs>
<style>
.cls-1{}
.cls-2{}
.cls-3{}
.cls-4{}
.cls-5{}
.cls-6{}
.cls-7{}
</style>
</defs>
<rect class="cls-1" style="fill:#eef2f7;" x="65.6" y="49.8" width="123.9" height="47.89" rx="9.5"/>
<path class="cls-2" style="fill:#8a94b4;" d="M180.2,99.6H75A11.2,11.2,0,0,1,63.7,88.3V59.1A11.3,11.3,0,0,1,75,47.8H180.2a11.4,11.4,0,0,1,11.3,11.3V88.3A11.3,11.3,0,0,1,180.2,99.6ZM75,51.7a7.4,7.4,0,0,0-7.4,7.4V88.3A7.4,7.4,0,0,0,75,95.7H180.2a7.4,7.4,0,0,0,7.4-7.4V59.1a7.4,7.4,0,0,0-7.4-7.4Z"/>
<rect class="cls-3" style="fill:#fff;" x="52.3" y="32.5" width="150.5" height="47.89" rx="9.5"/>
<path class="cls-2" style="fill:#8a94b4;" d="M193.5,82.3H61.7A11.3,11.3,0,0,1,50.4,71V41.8A11.3,11.3,0,0,1,61.7,30.5H193.5a11.4,11.4,0,0,1,11.3,11.3V71A11.4,11.4,0,0,1,193.5,82.3ZM61.7,34.4a7.4,7.4,0,0,0-7.4,7.4V71a7.4,7.4,0,0,0,7.4,7.4H193.5a7.4,7.4,0,0,0,7.4-7.4V41.8a7.4,7.4,0,0,0-7.4-7.4Z"/>
<rect class="cls-3" style="fill:#fff;" x="32" y="2.1" width="189.9" height="62.69" rx="9.5"/>
<path class="cls-4" style="fill:#546390;" d="M212.6,66.7H41.3A11.4,11.4,0,0,1,30,55.4v-44A11.4,11.4,0,0,1,41.3.1H212.6a11.4,11.4,0,0,1,11.3,11.3v44A11.4,11.4,0,0,1,212.6,66.7ZM41.3,4a7.4,7.4,0,0,0-7.4,7.4v44a7.4,7.4,0,0,0,7.4,7.4H212.6a7.4,7.4,0,0,0,7.4-7.4v-44A7.4,7.4,0,0,0,212.6,4Z"/>
<rect class="cls-5" style="fill:#4b5c8d;" x="94.1" y="21.3" width="79" height="3.43"/>
<rect class="cls-5" style="fill:#4b5c8d;" x="94.1" y="40" width="113.1" height="3.43"/>
<path class="cls-6" style="fill:#4eaae1;" d="M80.9,16.7a3.2,3.2,0,0,0-3.2-2.8H55.4a3.3,3.3,0,0,0-3.3,3.3V47.5a3.3,3.3,0,0,0,3.3,3.3H77.5A3.5,3.5,0,0,0,81,47.4V16.7Zm-3.5.7V47.3H55.7V17.4Z"/>
<path class="cls-6" style="fill:#4eaae1;" d="M60.5,30.5H66A1.5,1.5,0,0,0,67.5,29,1.6,1.6,0,0,0,66,27.4H60.5A1.5,1.5,0,0,0,59,29,1.5,1.5,0,0,0,60.5,30.5Z"/>
<path class="cls-6" style="fill:#4eaae1;" d="M60.5,37.1H72.6a1.6,1.6,0,0,0,1.5-1.6A1.5,1.5,0,0,0,72.6,34H60.5A1.5,1.5,0,0,0,59,35.6,1.5,1.5,0,0,0,60.5,37.1Z"/>
<path class="cls-6" style="fill:#4eaae1;" d="M60.5,43.5H72.6a1.5,1.5,0,0,0,0-3H60.5a1.5,1.5,0,0,0,0,3Z"/>
<circle class="cls-3" style="fill:#fff;" cx="127.4" cy="83.7" r="26.9"/>
<path class="cls-7" style="fill:#53ace0;" d="M165.5,120.8,149,103.9a29.3,29.3,0,0,0,6.9-12.3,29.7,29.7,0,0,0-2.7-22.4,29.5,29.5,0,0,0-54.1,6.6,29.7,29.7,0,0,0,2.7,22.4,29.2,29.2,0,0,0,17.8,13.9,30.7,30.7,0,0,0,7.9,1.1,29,29,0,0,0,18.2-6.3l16.6,17a2.4,2.4,0,0,0,1.6.7,2.5,2.5,0,0,0,1.6-.6,2,2,0,0,0,.7-1.6A2.9,2.9,0,0,0,165.5,120.8ZM151.8,90.5a24.9,24.9,0,0,1-11.9,15.2,25.2,25.2,0,0,1-19.2,2.3,24.9,24.9,0,0,1-15.2-11.9,25.3,25.3,0,0,1,22-37.7,27.1,27.1,0,0,1,6.8.9A25.5,25.5,0,0,1,151.8,90.5Z"/>
</svg>