<?xml version="1.0" encoding="utf-8"?>
<!-- Generator: Adobe Illustrator 21.1.0, SVG Export Plug-In . SVG Version: 6.00 Build 0)  -->
<svg version="1.1" id="Isolation_Mode" xmlns="http://www.w3.org/2000/svg" xmlns:xlink="http://www.w3.org/1999/xlink" x="0px"
	 y="0px" viewBox="0 0 100 100" style="enable-background:new 0 0 100 100;" xml:space="preserve">
<style type="text/css">
	.st0{fill:#30ACF7;}
</style>
<g>
	<g>
		<polygon class="st0" points="50.9,52.2 36.8,52.2 36.8,57.7 56.3,57.7 56.3,30.4 50.9,30.4 		"/>
		<polygon points="59.9,61.3 33.2,61.3 33.2,48.6 47.3,48.6 47.3,26.8 59.9,26.8 		"/>
	</g>
	<g>
		<path class="st0" d="M96.4,50C96.4,24.4,75.6,3.6,50,3.6S3.6,24.4,3.6,50c0,25.6,20.8,46.4,46.4,46.4c17.1,0,32.8-9.4,40.9-24.5
			l-4.7-2.5C79.3,82.3,65.7,91.1,50,91.1c-22.6,0-41-18.3-41-41c0-3.3,0.4-6.5,1.2-9.5c0-0.1,0.1-0.2,0.1-0.3c1-4,2.6-7.8,4.7-11.3
			c0.2-0.4,0.4-0.8,0.7-1.1c1-1.5,2-2.9,3.2-4.2c0.2-0.2,0.3-0.4,0.4-0.6l0,0c1.2-1.4,2.5-2.7,3.9-3.9l-0.1-0.1
			c0.2-0.2,0.4-0.3,0.7-0.5c1.2-1,2.4-1.9,3.7-2.8c0.7-0.5,1.5-0.9,2.3-1.4c0.8-0.5,1.7-0.9,2.5-1.3c1.3-0.7,2.7-1.2,4.1-1.7
			c0.7-0.3,1.5-0.5,2.3-0.7c1.1-0.3,2.1-0.6,3.2-0.8c1.3-0.3,2.7-0.5,4-0.6c0.5,0,0.9-0.2,1.4-0.2v0.1c0.9-0.1,1.8-0.1,2.7-0.1
			s1.8,0.1,2.7,0.1V9.2c0.5,0,0.9,0.2,1.4,0.2c1.4,0.1,2.8,0.3,4.2,0.6c1,0.2,2.1,0.5,3.1,0.8c0.8,0.2,1.5,0.5,2.3,0.8
			c1.4,0.5,2.8,1.1,4.1,1.7c0.9,0.4,1.7,0.8,2.5,1.3c0.8,0.4,1.5,0.9,2.3,1.4c1.3,0.9,2.5,1.8,3.7,2.8c0.2,0.2,0.4,0.3,0.7,0.5
			l-0.1,0.1c1.4,1.2,2.7,2.5,3.9,3.9l0,0c0.2,0.2,0.3,0.4,0.4,0.6c1.1,1.3,2.2,2.8,3.2,4.2c0.2,0.4,0.5,0.8,0.7,1.1
			c2.1,3.5,3.7,7.3,4.7,11.3c0,0.1,0.1,0.2,0.1,0.3c0.7,3.1,1.2,6.2,1.2,9.5c0,5-1,9.8-2.6,14.3l5.1,1.9
			C95.4,61.1,96.4,55.6,96.4,50z"/>
		<path d="M50,100C22.4,100,0,77.6,0,50S22.4,0,50,0s50,22.4,50,50c0,6.1-1.1,12-3.2,17.6l-1.1,2.8l0,0L95.5,71l0,0l-1.4,2.6
			C85.4,89.9,68.5,100,50,100z M21.2,26.3c-0.9,1.1-1.8,2.3-2.6,3.5l-0.4,0.7c-2.2,3.6-3.6,7-4.5,10.7c-0.8,3.2-1.1,6.2-1.1,9
			c0,20.6,16.8,37.4,37.4,37.4c13.8,0,26.5-7.6,33-19.9l1-1.9l0.9-2.6c1.6-4.2,2.4-8.6,2.4-13c0-2.8-0.4-5.7-1.1-8.7
			c-1-3.9-2.4-7.4-4.3-10.6l-0.6-1.1c-0.9-1.3-1.8-2.6-2.9-3.8L78,25.5c-1.1-1.2-2.3-2.4-3.5-3.5l-1-0.9c-0.9-0.8-1.9-1.5-2.9-2.1
			c-0.7-0.4-1.4-0.9-2.1-1.3c-0.8-0.4-1.5-0.8-2.3-1.2c-1.2-0.6-2.5-1.1-3.7-1.6c-0.7-0.2-1.4-0.5-2.1-0.7c-0.9-0.3-1.9-0.5-2.8-0.7
			c-1.2-0.3-2.5-0.4-3.8-0.6l-1.2-0.1c-2.5-0.2-3.2-0.1-4.4,0L45.7,13c-1,0.1-2.1,0.3-3.1,0.5c-1,0.2-2,0.5-2.9,0.7
			c-0.7,0.2-1.4,0.4-2,0.7c-1.3,0.5-2.6,1-3.8,1.6c-0.8,0.4-1.5,0.8-2.3,1.2c-0.7,0.4-1.4,0.8-2.1,1.3c-1.2,0.8-2.3,1.6-3.4,2.5
			L25.5,22c-1.3,1.1-2.4,2.3-3.5,3.5L21.2,26.3z"/>
	</g>
</g>
</svg>
