<?xml version="1.0" encoding="utf-8"?>
<!-- Generator: Adobe Illustrator 21.1.0, SVG Export Plug-In . SVG Version: 6.00 Build 0)  -->
<svg version="1.1" id="Layer_1" xmlns="http://www.w3.org/2000/svg" xmlns:xlink="http://www.w3.org/1999/xlink" x="0px" y="0px"
	 viewBox="0 0 100 100" style="enable-background:new 0 0 100 100;" xml:space="preserve">
<g>
	<g>
		<path d="M51.4,72.9c-0.2-0.2-0.3-0.3-0.5-0.4l-0.1,0c-0.5-0.3-1.1-0.5-1.6-0.5H27.6c0,0,0,0,0,0c-0.9,0-1.7,0.3-2.3,0.9
			c-0.6,0.6-0.9,1.4-0.9,2.3c0,1.8,1.4,3.2,3.2,3.2h17.1C46,75.8,48.3,73.8,51.4,72.9z"/>
	</g>
	<g>
		<path d="M88.8,21.6H77.5l0.2,0h-50c-1.8,0-3.2,1.5-3.2,3.2c0,1.8,1.5,3.2,3.2,3.2h61.1c2.6,0,4.8,2.1,4.8,4.8v13.6l0,0v20.8
			c0,2.6-2.1,4.8-4.8,4.8l-21.4,0h0c-0.8,0-1.7,0.3-2.3,0.9l-0.8,0.8c2.1,1.1,3.7,2.8,4.7,4.8h19.8c6.2,0,11.2-5,11.2-11.2V32.8
			C100,26.6,94.9,21.6,88.8,21.6z"/>
	</g>
	<g>
		<polygon points="70.1,72 40,71.9 40,78.4 70.1,78.4 		"/>
	</g>
	<g>
		<path d="M19.3,33.2H10c-1.8,0-3.3,1.5-3.3,3.3c0,1.8,1.5,3.3,3.3,3.3h9.2c1.8,0,3.3-1.5,3.3-3.3C22.6,34.7,21.1,33.2,19.3,33.2z"
			/>
	</g>
	<g>
		<path d="M19.3,59.4H10c-1.8,0-3.3,1.5-3.3,3.3s1.5,3.3,3.3,3.3h9.2c1.8,0,3.3-1.5,3.3-3.3S21.1,59.4,19.3,59.4z"/>
	</g>
	<g>
		<path d="M19.3,46.3H3.3c-1.8,0-3.3,1.5-3.3,3.3C0,51.5,1.5,53,3.3,53h15.9c1.8,0,3.3-1.5,3.3-3.3C22.6,47.8,21.1,46.3,19.3,46.3z"
			/>
	</g>
</g>
<g>
	<polygon points="60.3,75.8 43,24.2 39.7,24.2 57,75.8 	"/>
	<polygon points="62.6,77.4 55.9,77.4 37.4,22.6 44.1,22.6 	"/>
</g>
<g>
	<g>
		<path d="M77.5,38.3l-11.7,0l0-1.7c0-0.9-0.7-1.7-1.7-1.7c-0.9,0-1.7,0.7-1.7,1.7v1.7l-9.6,0l0,0l-2.7,0c0.4,1.1,0.8,2.3,1.2,3.4
			l2.6,0l0,0l16.5,0c-0.8,2.6-3.1,7-6.2,11c-1.7-2-3.1-3.8-3.6-5c-0.3-0.9-1.3-1.3-2.2-0.9c-0.9,0.3-1.3,1.3-0.9,2.2
			c0.7,1.6,2.4,3.9,4.5,6.2c-0.9,1-1.9,1.8-2.9,2.6l0,0c-0.4,0.4-0.8,0.6-1.4,0.7c0,0-0.1,0-0.1,0c0,0,0,0,0,0c0,0-0.1,0-0.1,0.1
			c0.4,1.2,0.8,2.4,1.3,3.6c0.3-0.2,0.6-0.3,0.8-0.5c0.2-0.2,0.4-0.4,0.7-0.5l0,0c1.4-1,2.6-1.3,4.4-2.8c4.1,4.5,6,5.6,6.6,6.2
			c0.3,0.3,0.7,0.4,1.1,0.4c0.5,0,0.9-0.2,1.2-0.5c0.6-0.7,0.6-1.7-0.1-2.4c-1.6-1.4-4.4-4.2-7.1-7c3.8-4.7,6.6-10.1,7.4-13.5l3.6,0
			c0.9,0,1.7-0.7,1.7-1.7C79.2,39.1,78.4,38.3,77.5,38.3z"/>
		<path d="M72.5,66.6c-0.8,0-1.6-0.3-2.2-0.9c-0.1-0.1-0.3-0.2-0.5-0.4c-0.9-0.7-2.6-2-5.3-4.9c-0.7,0.4-1.2,0.8-1.8,1
			c-0.2,0.1-0.4,0.2-0.6,0.4l0,0.2L61,62.7c-0.1,0-0.2,0.1-0.3,0.2l-0.3,0.2l-2.5,1.5l-0.7-1.8c-0.4-1.1-0.8-2.2-1.2-3.4l-0.6-1.6
			l1.9-0.8c0.3,0,0.4-0.1,0.6-0.3c0.6-0.5,1.2-1,1.8-1.6c-1.9-2.3-3.2-4.1-3.8-5.5c-0.7-1.7,0.1-3.6,1.8-4.3c0.8-0.3,1.7-0.3,2.5,0
			c0.8,0.3,1.4,1,1.8,1.8c0.2,0.5,0.7,1.4,2,3c1.8-2.5,3.1-4.9,4-6.8l-18,0l-0.3-1.2c-0.4-1.3-0.7-2.3-1.1-3.3l-0.9-2.2l13.1,0
			c0-1.8,1.5-3.3,3.3-3.3c1.8,0,3.3,1.5,3.3,3.3v0.1l10.1,0c1.8,0,3.3,1.5,3.3,3.3c0,1.8-1.5,3.3-3.3,3.3h-2.4
			c-1.1,3.4-3.5,7.9-6.5,11.8c2.3,2.4,4.6,4.6,6.1,5.9c1.3,1.2,1.4,3.3,0.2,4.6C74.3,66.3,73.4,66.6,72.5,66.6z M64.9,56.2l1,1.1
			c3.1,3.4,4.9,4.8,5.8,5.5c0.3,0.2,0.5,0.4,0.7,0.6c-1.6-1.6-4.5-4.4-7.1-7.2l-1-1l0.9-1.1c4-4.9,6.4-10,7.1-12.8l0.2-0.9L72,42.1
			c-1,3.2-3.5,7.8-6.5,11.5l-1.2,1.5L63,53.7c-2.1-2.4-3.4-4.2-3.9-5.4c0.3,0.9,1.3,2.6,4.1,5.8l1,1.1l-1,1.1c-1,1-2,1.9-3,2.8
			c-0.2,0.2-0.4,0.4-0.7,0.5c0,0.1,0,0.1,0.1,0.2c0.5-0.4,1.1-0.7,1.6-1c0.8-0.4,1.5-0.8,2.5-1.6L64.9,56.2z M52.5,39.9
			c0,0,0,0.1,0,0.1l1.4,0h23.6v-0.1l-13.3,0v-3.3l-0.1,1.7v1.6H52.5z"/>
	</g>
	<g>
		<path d="M42.2,62.3l-9.1-25.4c-0.5-1.4-2.9-1.4-3.4,0l-9.1,25.4c-0.3,0.9,0.2,2,1.1,2.3c0.9,0.3,2-0.2,2.3-1.1l2.2-6h10.4l2.2,6
			c0.3,0.7,1,1.2,1.7,1.2c0.2,0,0.4,0,0.6-0.1C42.1,64.3,42.6,63.3,42.2,62.3z M27.6,53.9l3.9-10.9l3.9,10.9H27.6z"/>
		<path d="M40.5,66.1c-1.3,0-2.6-0.9-3-2.1l-1.8-5.1h-8.5L25.4,64c-0.6,1.7-2.4,2.5-4.1,1.9c-1.7-0.6-2.5-2.4-1.9-4.1l9.1-25.4
			c0.4-1.2,1.6-2,3-2c0,0,0,0,0,0c1.4,0,2.6,0.8,3,2l9.1,25.4c0.6,1.7-0.3,3.5-1.9,4.1C41.3,66.1,40.9,66.1,40.5,66.1z M31.5,37.2
			c-0.2,0-0.4,0.1-0.4,0.2L22,62.8c-0.1,0.2,0,0.5,0.3,0.6c0.2,0.1,0.5,0,0.6-0.3l2.5-7h12.3l2.5,7c0.1,0.2,0.3,0.3,0.4,0.3
			c0.4-0.1,0.5-0.4,0.4-0.6l-9.1-25.4C31.8,37.3,31.6,37.2,31.5,37.2L31.5,37.2z M37.3,55.2H25.6l5.9-16.4L37.3,55.2z M29.5,52.5
			h3.9L31.5,47L29.5,52.5z"/>
	</g>
</g>
</svg>
