<?xml version="1.0" encoding="utf-8"?>
<!-- Generator: Adobe Illustrator 21.1.0, SVG Export Plug-In . SVG Version: 6.00 Build 0)  -->
<svg version="1.1" id="Layer_1" xmlns="http://www.w3.org/2000/svg" xmlns:xlink="http://www.w3.org/1999/xlink" x="0px" y="0px"
	 viewBox="0 0 100 100" style="enable-background:new 0 0 100 100;" xml:space="preserve">
<path d="M88.6,50L88.6,50h8.5c2.2,0,3.6-2.4,2.4-4.3L84,20.7c-1.2-1.8-3.7-1.8-4.8,0l-15.6,25C62.4,47.5,63.8,50,66,50h8.5
	c0,0.6,0,1.4-0.1,2.1c-0.9,15-13.2,27.1-28.1,28c-18.6,1.2-33.9-14.6-32-33.3c1.5-13.9,12.4-25.1,26.2-26.7
	c5.8-0.7,11.4,0.2,16.2,2.4c1.6,0.7,3.5,0.1,4.3-1.4l3.8-6.3c1.1-1.7,0.3-4-1.5-4.8C57.1,7,50.2,5.4,42.8,5.7
	C20,6.5,1.2,24.8,0.1,47.5C-1.3,73,19,94.3,44.3,94.3C68.7,94.4,88.6,74.5,88.6,50z"/>
</svg>
