<?xml version="1.0" encoding="utf-8"?>
<!-- Generator: Adobe Illustrator 22.0.1, SVG Export Plug-In . SVG Version: 6.00 Build 0)  -->
<svg version="1.1" id="katman_1" xmlns="http://www.w3.org/2000/svg" xmlns:xlink="http://www.w3.org/1999/xlink" x="0px" y="0px"
	 viewBox="0 0 100 100" style="enable-background:new 0 0 100 100;" xml:space="preserve">
<g>
	<path d="M3.1,20c-1.1,0.1-2,1.1-2,2.2v45.6c0,1.2,1,2.2,2.2,2.2h5.8c1,5.7,6,10,12,10s11-4.3,12-10h33.8c1,5.7,6,10,12,10
		s11-4.3,12-10h5.8c1.2,0,2.2-1,2.2-2.2V45.6c0-0.4-0.1-0.8-0.3-1.1l-10-16.7c-0.4-0.7-1.1-1.1-1.9-1.1H70v-4.4c0-1.2-1-2.2-2.2-2.2
		H3.3C3.2,20,3.2,20,3.1,20L3.1,20z M5.6,24.4h60v41.1H33.1c-1-5.7-6-10-12-10s-11,4.3-12,10H5.6C5.6,65.6,5.6,24.4,5.6,24.4z
		 M70,31.1h15.4l2,3.3c2.3,4.4,4.7,8.9,7,13.3l0,0l0,0l0,0l0,0l0,0l0,0l0,0v3.3h-5.6c-0.1,0-0.1,0-0.2,0c-1.1,0.1-2,1.1-2,2.2v5
		c-2.1-1.7-4.9-2.8-7.8-2.8c-3.4,0-6.7,1.4-8.9,3.9L70,31.1L70,31.1z M91.1,55.6h3.3v2.2h-3.3V55.6z M20.3,60c5-0.6,9.1,3.6,8.6,8.6
		c-0.3,3.6-3.3,6.6-6.9,6.9c-5,0.6-9.1-3.6-8.6-8.6C13.8,63.3,16.7,60.4,20.3,60z M78.1,60c5-0.6,9.1,3.6,8.6,8.6
		c-0.3,3.6-3.3,6.6-6.9,6.9c-5,0.6-9.1-3.6-8.6-8.6C71.6,63.3,74.4,60.4,78.1,60z M89.8,62.2h4.7v3.3h-3.6
		C90.7,64.3,90.2,63.2,89.8,62.2z"/>
	<path d="M78.9,81.1c-6.1,0-11.4-4.1-12.9-10H34c-1.6,5.9-6.8,10-12.9,10S9.7,77,8.2,71.1H3.3c-1.9,0-3.3-1.4-3.3-3.3V22.2
		c0-1.8,1.3-3.1,3-3.3l0,0c0.2,0,0.3,0,0.3,0h64.4c1.9,0,3.3,1.4,3.3,3.3v3.3h15.6l0,0c1.1,0,2.2,0.7,2.9,1.7l10,16.7
		c0.3,0.6,0.4,1.1,0.4,1.8v22.2c0,1.9-1.4,3.3-3.3,3.3h-4.9C90.3,77,85,81.1,78.9,81.1L78.9,81.1z M32.2,68.9h35.6l0.2,0.9
		c1,5.2,5.6,9.1,10.9,9.1c5.3,0,10-3.8,10.9-9.1l0.2-0.9h6.7c0.7,0,1.1-0.4,1.1-1.1V45.6c0-0.2,0-0.4-0.1-0.6l-10-16.7
		c-0.2-0.3-0.6-0.6-1-0.6l0,0H68.9v-5.6c0-0.7-0.4-1.1-1.1-1.1H3.3L3.1,20l0.1,1.1c-0.6,0-1,0.6-1,1.1v45.6c0,0.7,0.4,1.1,1.1,1.1
		H10l0.2,0.9c1,5.2,5.6,9.1,10.9,9.1s10-3.8,10.9-9.1C32,69.8,32.2,68.9,32.2,68.9z M78.9,76.7c-2.3,0-4.7-0.9-6.3-2.6
		c-1.9-1.9-2.8-4.6-2.6-7.2c0.4-4.1,3.8-7.4,7.9-7.9l0,0c2.7-0.2,5.3,0.7,7.2,2.6c1.9,1.9,2.8,4.6,2.6,7.2c-0.4,4.1-3.8,7.4-7.9,7.9
		C79.6,76.7,79.2,76.7,78.9,76.7z M78.2,61.1c-3.1,0.3-5.6,2.9-5.9,5.9c-0.2,2,0.4,4,1.9,5.4s3.4,2.1,5.4,1.9
		c3.1-0.3,5.6-2.9,5.9-5.9c0.2-2-0.4-4-1.9-5.4C82.2,61.6,80.2,60.9,78.2,61.1L78.2,61.1z M21.1,76.7c-2.3,0-4.7-0.9-6.3-2.6
		c-1.9-1.9-2.8-4.6-2.6-7.2c0.4-4.1,3.8-7.4,7.9-7.9l0,0c2.7-0.2,5.3,0.7,7.2,2.6c1.9,1.9,2.8,4.6,2.6,7.2c-0.4,4.1-3.8,7.4-7.9,7.9
		C21.8,76.7,21.4,76.7,21.1,76.7z M20.4,61.1c-3.1,0.3-5.6,2.9-5.9,5.9c-0.2,2,0.4,4,1.9,5.4s3.4,2.1,5.4,1.9
		c3.1-0.3,5.6-2.9,5.9-5.9c0.2-2-0.4-4-1.9-5.4S22.4,60.9,20.4,61.1L20.4,61.1z M95.6,66.7H90l-0.2-0.9c-0.2-1-0.6-2-1.1-3l-0.8-1.7
		h7.7L95.6,66.7L95.6,66.7z M91.8,64.4h1.6v-1.1h-1.9C91.6,63.7,91.7,64.1,91.8,64.4z M66.7,66.7H32.2L32,65.8
		c-0.9-5.3-5.6-9.1-10.9-9.1s-10,3.8-10.9,9.1L10,66.7H4.4V23.3h62.2L66.7,66.7L66.7,66.7z M34,64.4h30.4V25.6H6.7v38.9h1.6
		c1.6-5.9,6.8-10,12.9-10S32.6,58.6,34,64.4L34,64.4z M68.9,62.2V30H86l2.3,3.9l7.2,13.7v4.7h-6.7c-0.7,0-1.1,0.6-1.1,1.1v7.4
		L86,59.2c-2-1.7-4.6-2.6-7.1-2.6c-3.1,0-6,1.2-8.1,3.6L68.9,62.2L68.9,62.2z M71.1,32.2V57c2.2-1.7,5-2.6,7.8-2.6
		c2.3,0,4.7,0.7,6.7,1.8v-2.9c0-1.8,1.3-3.1,3-3.3c0.1,0,0.2,0,0.3,0h4.4v-2l-6.9-13.1l-1.7-2.7C84.8,32.2,71.1,32.2,71.1,32.2z
		 M95.6,58.9H90v-4.4h5.6V58.9z"/>
</g>
</svg>
