<?xml version="1.0" encoding="utf-8"?>
<!-- Generator: Adobe Illustrator 21.1.0, SVG Export Plug-In . SVG Version: 6.00 Build 0)  -->
<svg version="1.1" id="Layer_1" xmlns="http://www.w3.org/2000/svg" xmlns:xlink="http://www.w3.org/1999/xlink" x="0px" y="0px"
	 viewBox="0 0 100 100" style="enable-background:new 0 0 100 100;" xml:space="preserve">
<title>first_glyph_Set_random</title>
<path d="M86.2,47.3c1.5,0.7,2.1,2.5,1.3,4c-0.3,0.6-0.8,1-1.3,1.3l-70,46.6c-2.2,1.5-4,0.5-4-2.1V2.8c0-2.6,1.8-3.6,4-2.1L86.2,47.3
	z"/>
</svg>
