<?xml version="1.0" encoding="utf-8"?>
<!-- Generator: Adobe Illustrator 23.0.3, SVG Export Plug-In . SVG Version: 6.00 Build 0)  -->
<svg version="1.1" id="Layer_1" xmlns="http://www.w3.org/2000/svg" xmlns:xlink="http://www.w3.org/1999/xlink" x="0px" y="0px"
	 viewBox="0 0 50 50" style="enable-background:new 0 0 50 50;" xml:space="preserve">
<g>
	<path d="M25,17c-1.75,0-3.17,1.42-3.17,3.17c0,1.75,1.42,3.17,3.17,3.17s3.17-1.42,3.17-3.17C28.17,18.42,26.75,17,25,17z
		 M25,13.83c3.5,0,6.33,2.84,6.33,6.33S28.5,26.5,25,26.5s-6.33-2.84-6.33-6.33S21.5,13.83,25,13.83z M35.29,39.17
		c0,0.87-0.71,1.58-1.58,1.58c-0.87,0-1.58-0.71-1.58-1.58v-6.79c0-0.62-0.51-1.13-1.14-1.13H19.01c-0.63,0-1.14,0.51-1.14,1.13
		v6.79c0,0.87-0.71,1.58-1.58,1.58c-0.87,0-1.58-0.71-1.58-1.58v-6.79c0-2.37,1.93-4.3,4.3-4.3h11.97c2.38,0,4.3,1.92,4.3,4.3V39.17
		z"/>
</g>
<g>
	<path d="M39.35,21.75c3.5,0,6.33-2.84,6.33-6.33s-2.84-6.33-6.33-6.33s-6.33,2.84-6.33,6.33S35.85,21.75,39.35,21.75z M39.35,12.25
		c1.75,0,3.17,1.42,3.17,3.17s-1.42,3.17-3.17,3.17s-3.17-1.42-3.17-3.17S37.6,12.25,39.35,12.25z"/>
	<path d="M45.34,23.33H34.6c-0.87,0-1.58,0.71-1.58,1.58s0.71,1.58,1.58,1.58h10.74c0.63,0,1.14,0.51,1.14,1.13v6.79
		c0,0.87,0.71,1.58,1.58,1.58s1.58-0.71,1.58-1.58v-6.79C49.64,25.26,47.71,23.33,45.34,23.33z"/>
</g>
<g>
	<path d="M10.65,21.75c-3.5,0-6.33-2.84-6.33-6.33s2.84-6.33,6.33-6.33s6.33,2.84,6.33,6.33S14.15,21.75,10.65,21.75z M10.65,12.25
		c-1.75,0-3.17,1.42-3.17,3.17s1.42,3.17,3.17,3.17s3.17-1.42,3.17-3.17S12.4,12.25,10.65,12.25z"/>
	<path d="M4.66,23.33H15.4c0.87,0,1.58,0.71,1.58,1.58s-0.71,1.58-1.58,1.58H4.66c-0.63,0-1.14,0.51-1.14,1.13v6.79
		c0,0.87-0.71,1.58-1.58,1.58s-1.58-0.71-1.58-1.58v-6.79C0.36,25.26,2.29,23.33,4.66,23.33z"/>
</g>
</svg>
