<svg xmlns="http://www.w3.org/2000/svg" viewBox="0 0 100 100" id="icon-lock" width="100%" height="100%">
    <path d="M83.4 39.2H72.7V25.1c0-12.5-10.1-22.8-22.8-22.8S27.1 12.5 27.1 25.1v14.1H16.6c-1.6 0-3.1 1.3-3.1 3.1v46.1c0 5.1 4.2 9.4 9.4 9.4H77c5.1 0 9.4-4.3 9.4-9.4V42.1c.2-1.6-1.2-3-3-2.9zM33.1 25.1c0-9.2 7.6-16.8 16.8-16.8s16.8 7.6 16.8 16.8v14.1H33.1V25.1zm47.4 63c0 1.8-1.6 3.4-3.4 3.4H22.8c-1.8 0-3.4-1.6-3.4-3.4v-43H80.4l.1 43zM49.9 58.2c-3.1 0-5.8 2.5-5.8 5.8 0 2.2 1.3 4 3.1 5.1V76c0 1.6 1.1 2.7 2.7 2.7s2.7-1.1 2.7-2.7v-6.9c1.8-.9 3.1-2.9 3.1-5.1 0-3.4-2.7-5.8-5.8-5.8z"></path>
    <path d="M77 100H22.8c-6.5 0-11.6-5.4-11.6-11.6V42.1c0-2.9 2.5-5.4 5.4-5.4h8.5V24.8C24.8 11.2 36.2 0 49.9 0 63.8 0 75 11.2 75 25.1V37h8.5c1.3 0 2.7.4 3.8 1.6.9.9 1.6 2.2 1.6 3.8v46.1C88.8 94.6 83.4 100 77 100zM16.6 41.4c-.4 0-.9.4-.9.9v46.1c0 4 3.4 7.2 7.2 7.2H77c4 0 7.2-3.4 7.2-7.2V42.1c0-.2-.2-.4-.2-.7 0 0-.2-.2-.7-.2h-13V24.8c0-11.4-9.2-20.6-20.6-20.6s-20.6 9.2-20.6 20.6v16.3H16.6v.3zM77 93.7H22.8c-3.1 0-5.6-2.5-5.6-5.6V43h65.5v45.2c.1 3.1-2.6 5.5-5.7 5.5zM21.7 47.4v40.7c0 .7.4 1.1 1.1 1.1H77c.7 0 1.1-.4 1.1-1.1V47.4H30h-8.3zm28.2 33.4c-2.7 0-4.9-2.2-4.9-4.9V70c-2-1.6-3.1-3.8-3.1-6.3 0-4.5 3.6-8.1 8.1-8.1s8.1 3.6 8.1 8.1c0 2.5-1.1 4.7-3.1 6.3v5.8c-.2 2.7-2.4 5-5.1 5zm0-20.4c-2 0-3.6 1.6-3.6 3.6 0 1.3.7 2.5 1.8 3.1l1.1.7v8.3c0 .4.9.4.9 0v-8.3l1.1-.7c1.1-.7 1.8-1.8 1.8-3.1.5-2-1.1-3.6-3.1-3.6zm19-19h-38V25.1c0-10.5 8.5-19 19-19s19 8.5 19 19v16.3zm-33.6-4.5h29.1V25.1c0-8.1-6.5-14.5-14.5-14.5S35.3 17 35.3 25.1v11.8z"></path>
</svg>