<?xml version="1.0" encoding="utf-8"?>
<!-- Generator: Adobe Illustrator 23.0.3, SVG Export Plug-In . SVG Version: 6.00 Build 0)  -->
<svg version="1.1" id="Layer_1" xmlns="http://www.w3.org/2000/svg" xmlns:xlink="http://www.w3.org/1999/xlink" x="0px" y="0px"
	 viewBox="0 0 100 100" style="enable-background:new 0 0 100 100;" xml:space="preserve">
<style type="text/css">
	.st0{opacity:0.4;}
</style>
<g>
	<path d="M67.98,63.02H31.02c-1.99,0-3.61,1.62-3.61,3.61s1.62,3.61,3.61,3.61h36.96c1.99,0,3.61-1.62,3.61-3.61
		S69.97,63.02,67.98,63.02z"/>
	<path d="M77.28,8.64c-1.02-1.91-2.57-4.8-6.43-4.8L28,3.85c-2.71,0.22-5.09,1.99-6.07,4.52L21.87,8.5l-0.33,0.57L2.98,43.09
		l-0.05,0.46c-0.06,0.18-0.11,0.37-0.14,0.57l-0.02,0.15v44.77c0,3.93,3.2,7.13,7.13,7.13h79.2c3.93,0,7.13-3.2,7.13-7.13V44.41
		l1-0.06l-1,0.02c0-0.23-0.03-0.46-0.08-0.69l-0.02-0.21v-0.34L77.28,8.64z M53.11,11.06H70.3L86.53,40.8H53.11V11.06z M27.83,12.7
		c0.17-0.29,0.33-0.59,0.49-0.89l0.44-0.79h17.13V40.8H12.47L27.83,12.7z M89.01,88.94H9.99V48.02h79.02V88.94z"/>
</g>
<polygon class="st0" points="27.13,8.39 7.29,43.56 91.63,43.56 72.29,7.39 "/>
</svg>
