<?xml version="1.0" encoding="utf-8"?>
<!-- Generator: Adobe Illustrator 21.1.0, SVG Export Plug-In . SVG Version: 6.00 Build 0)  -->
<svg version="1.1" id="Layer_1" xmlns="http://www.w3.org/2000/svg" xmlns:xlink="http://www.w3.org/1999/xlink" x="0px" y="0px"
	 viewBox="0 0 100 100" style="enable-background:new 0 0 100 100;" xml:space="preserve">
<g>
	<g>
		<g>
			<g>
				<path d="M8.2,98.1l12.5-16.8l8,5.7l-7,9.9c-1.9,2.6-5.2,3.8-8.3,2.8L8.2,98.1z"/>
				<path d="M15.5,100.3c-0.7,0-1.5-0.1-2.2-0.3l-5.5-1.7l12.8-17.3l0.2,0.1l8.2,5.8L21.8,97C20.4,99.1,18,100.3,15.5,100.3z
					 M8.6,98l4.8,1.5c3,0.9,6.2-0.2,8-2.8l6.8-9.7l-7.6-5.4L8.6,98z"/>
			</g>
		</g>
	</g>
	<g>
		<g>
			<g>
				<path d="M58.9,2.4L14,65.3c-0.9,1.2-1.2,2.7-1,4.2l3,18.1l7.8,5.8l18.4-3.1c1.5-0.2,2.8-1.1,3.6-2.3l44.8-62.9
					c1.8-2.6,1.2-6.2-1.3-8l-22.5-16C64.3-0.8,60.7-0.2,58.9,2.4z M38.9,80.9L26.4,83l-1.3-1.1L23,69.5l41.5-58.2l15.9,11.4
					L38.9,80.9z"/>
				<path d="M23.8,93.6l-7.9-6l-3-18.2c-0.3-1.5,0.1-3.1,1-4.3L58.7,2.3C59.6,1,61,0.1,62.6-0.2c1.6-0.3,3.2,0.1,4.5,1l22.5,16
					c1.3,0.9,2.2,2.3,2.4,3.9c0.3,1.6-0.1,3.2-1,4.5L46.1,88.1c-0.9,1.3-2.2,2.1-3.8,2.4L23.8,93.6z M16.3,87.4l7.6,5.7L42.2,90
					c1.4-0.2,2.6-1,3.5-2.2L90.5,25c0.9-1.2,1.2-2.6,0.9-4.1c-0.2-1.4-1-2.7-2.2-3.6l-22.5-16c-1.2-0.9-2.6-1.2-4.1-0.9
					c-1.4,0.2-2.7,1-3.6,2.2L14.3,65.4c-0.8,1.2-1.2,2.6-0.9,4L16.3,87.4z M26.3,83.3l-1.5-1.2l-2.1-12.6l0.1-0.1L64.4,11l0.2,0.1
					l16.1,11.5l-0.1,0.2L39.1,81.1l-0.1,0L26.3,83.3z M25.3,81.8l1.2,0.9l12.3-2.1l41.3-57.9L64.6,11.7L23.3,69.6L25.3,81.8z"/>
			</g>
		</g>
	</g>
	<g>
		<g>
			<g>
				<rect x="55.6" y="17.2" transform="matrix(0.5807 -0.8141 0.8141 0.5807 -0.5833 62.5772)" width="9.8" height="29.3"/>
				<path d="M69.6,44.7l-0.2-0.1L45.3,27.4l6-8.4l0.2,0.1l24.1,17.2L69.6,44.7z M46,27.3L69.5,44l5.4-7.5L51.4,19.7L46,27.3z"/>
			</g>
		</g>
	</g>
</g>
</svg>
