<?xml version="1.0" encoding="utf-8"?>
<!-- Generator: Adobe Illustrator 23.0.2, SVG Export Plug-In . SVG Version: 6.00 Build 0)  -->
<svg version="1.1" id="Layer_1" xmlns="http://www.w3.org/2000/svg" xmlns:xlink="http://www.w3.org/1999/xlink" x="0px" y="0px"
	 viewBox="0 0 100 100" style="enable-background:new 0 0 100 100;" xml:space="preserve">
<g>
	<path d="M83.61,14.53h-4.34v-4.34C79.27,4.57,74.7,0,69.08,0H16.16C10.54,0,5.97,4.57,5.97,10.19v64.97
		c0,5.62,4.57,10.19,10.19,10.19h4.34v4.34c0,5.69,4.63,10.31,10.31,10.31h52.92c5.68,0,10.31-4.63,10.31-10.31v-65
		C93.9,19.09,89.22,14.53,83.61,14.53z M29.18,24.72c0-0.86,0.76-1.62,1.62-1.62h52.92c0.86,0,1.62,0.76,1.62,1.62v63.75h-0.12v1.21
		c0,0.86-0.76,1.62-1.62,1.62H30.8c-0.86,0-1.62-0.76-1.62-1.62V24.72z M70.58,10.19v4.34H30.8c-5.69,0-10.31,4.63-10.31,10.31
		v51.82h-4.34c-0.89,0-1.5-0.79-1.5-1.5V10.19c0-0.89,0.79-1.5,1.5-1.5h52.92C69.96,8.69,70.58,9.48,70.58,10.19z"/>
	<path d="M41.23,53.63h8.52c2.4,0,4.28-1.88,4.28-4.2c0.08-1.14-0.3-2.22-1.07-3.04c-0.79-0.84-1.91-1.32-3.09-1.32h-8.64
		c-2.4,0-4.29,1.88-4.29,4.29C36.95,51.74,38.83,53.63,41.23,53.63z"/>
	<path d="M41.23,68.87h31.59c2.4,0,4.28-1.88,4.28-4.2c0.08-1.11-0.31-2.18-1.09-3.02c-0.8-0.86-1.92-1.35-3.08-1.35H41.23
		c-2.4,0-4.29,1.88-4.29,4.28C36.95,66.98,38.83,68.87,41.23,68.87z"/>
	<path d="M41.23,84.1h31.59c2.4,0,4.28-1.88,4.28-4.2c0.08-1.11-0.31-2.18-1.09-3.02c-0.8-0.86-1.92-1.35-3.08-1.35H41.23
		c-2.4,0-4.29,1.88-4.29,4.29C36.95,82.22,38.83,84.1,41.23,84.1z"/>
</g>
</svg>
