<?xml version="1.0" encoding="utf-8"?>
<!-- Generator: Adobe Illustrator 21.1.0, SVG Export Plug-In . SVG Version: 6.00 Build 0)  -->
<svg version="1.1" id="Layer_1" xmlns="http://www.w3.org/2000/svg" xmlns:xlink="http://www.w3.org/1999/xlink" x="0px" y="0px"
	 viewBox="0 0 100 100" style="enable-background:new 0 0 100 100;" xml:space="preserve">
<style type="text/css">
	.st0{clip-path:url(#SVGID_2_);}
</style>
<g>
	<defs>
		<rect id="SVGID_1_" y="0" width="100" height="100"/>
	</defs>
	<clipPath id="SVGID_2_">
		<use xlink:href="#SVGID_1_"  style="overflow:visible;"/>
	</clipPath>
	<path class="st0" d="M42.5,0C19.1,0,0,19.1,0,42.5S19.1,85,42.5,85c9,0,17.4-2.8,24.3-7.6l20.4,20.4c2.9,2.9,7.7,2.9,10.6,0
		c2.9-2.9,2.9-7.7,0-10.6L77.3,66.8c4.8-6.9,7.7-15.3,7.7-24.3C85,19.1,65.9,0,42.5,0 M42.5,15C57.8,15,70,27.2,70,42.5
		S57.8,70,42.5,70S15,57.8,15,42.5S27.2,15,42.5,15"/>
</g>
</svg>
