<?xml version="1.0" encoding="utf-8"?>
<!-- Generator: Adobe Illustrator 21.1.0, SVG Export Plug-In . SVG Version: 6.00 Build 0)  -->
<svg version="1.1" id="Layer_1" xmlns="http://www.w3.org/2000/svg" xmlns:xlink="http://www.w3.org/1999/xlink" x="0px" y="0px"
	 viewBox="0 0 100 100" style="enable-background:new 0 0 100 100;" xml:space="preserve">
<g>
	<path d="M50,100c27.6,0,50-22.4,50-50S77.6,0,50,0C22.4,0,0,22.4,0,50S22.4,100,50,100 M50,8.9c22.6,0,41.1,18.5,41.1,41.1
		S72.6,91.1,50,91.1C27.4,91.1,8.9,72.6,8.9,50S27.4,8.9,50,8.9 M43.3,32.5c0-3.3,2.6-5.9,5.9-5.9c3.3,0,5.9,2.6,5.9,5.9
		s-2.6,5.9-5.9,5.9C45.9,38.4,43.3,35.8,43.3,32.5 M44.8,73.5h-2.9v-8h2.9V52h-2.9v-8h2.9h8.8h1.5v21.4l3.1,0v8h-2.9H44.8V73.5z"/>
</g>
</svg>
