<svg id="Layer_1" data-name="Layer 1" xmlns="http://www.w3.org/2000/svg" viewBox="0 0 251.7 124.6">
<defs>
<style>
.cls-1{}
.cls-2{}
.cls-3{}
.cls-4{}
.cls-5{}
.cls-6{}
</style>
</defs>
<rect class="cls-1" style="fill:#eef2f7;" x="35.2" y="62.7" width="182.5" height="47.35" rx="9.5"/>
<path class="cls-2" style="fill:#8a94b4;" d="M208.5,112H44.5a11.2,11.2,0,0,1-11.2-11.2V72A11.2,11.2,0,0,1,44.5,60.8h164A11.2,11.2,0,0,1,219.7,72v28.8A11.2,11.2,0,0,1,208.5,112ZM44.5,64.7A7.2,7.2,0,0,0,37.2,72v28.8a7.2,7.2,0,0,0,7.3,7.3h164a7.3,7.3,0,0,0,7.3-7.3V72a7.3,7.3,0,0,0-7.3-7.3Z"/>
<rect class="cls-3" style="fill:#fff;" x="22.1" y="45.6" width="208.8" height="47.35" rx="9.5"/>
<path class="cls-2" style="fill:#8a94b4;" d="M221.6,94.9H31.3A11.2,11.2,0,0,1,20.1,83.7V54.8A11.3,11.3,0,0,1,31.3,43.6H221.6a11.2,11.2,0,0,1,11.2,11.2V83.7A11.2,11.2,0,0,1,221.6,94.9ZM31.3,47.5A7.3,7.3,0,0,0,24,54.8V83.7A7.3,7.3,0,0,0,31.3,91H221.6a7.3,7.3,0,0,0,7.3-7.3V54.8a7.3,7.3,0,0,0-7.3-7.3Z"/>
<rect class="cls-3" style="fill:#fff;" x="2" y="14.5" width="247.8" height="61.98" rx="9.5"/>
<path class="cls-4" style="fill:#546390;" d="M240.5,78.5H11.2A11.2,11.2,0,0,1,0,67.3V23.8A11.2,11.2,0,0,1,11.2,12.6H240.5a11.2,11.2,0,0,1,11.2,11.2V67.3A11.2,11.2,0,0,1,240.5,78.5ZM11.2,16.5a7.3,7.3,0,0,0-7.3,7.3V67.3a7.3,7.3,0,0,0,7.3,7.3H240.5a7.3,7.3,0,0,0,7.3-7.3V23.8a7.3,7.3,0,0,0-7.3-7.3Z"/>
<rect class="cls-5" style="fill:#4b5c8d;" x="118.4" y="34.2" width="97" height="3.39"/>
<rect class="cls-5" style="fill:#4b5c8d;" x="118.4" y="52.2" width="58.2" height="3.39"/>
<path class="cls-6" style="fill:#4eaae1;" d="M41.1,62.1H21.7a7.5,7.5,0,0,1-7.4-7.5V35.2a7.5,7.5,0,0,1,7.4-7.5H41.1a7.6,7.6,0,0,1,7.5,7.5V54.6A7.6,7.6,0,0,1,41.1,62.1ZM21.7,31.2a3.9,3.9,0,0,0-3.9,4V54.6a3.9,3.9,0,0,0,3.9,4H41.1a4,4,0,0,0,4-4V35.2a4,4,0,0,0-4-4Z"/>
<path class="cls-2" style="fill:#8a94b4;" d="M95.1,62.1H75.7a7.5,7.5,0,0,1-7.5-7.5V35.2a7.5,7.5,0,0,1,7.5-7.5H95.1a7.5,7.5,0,0,1,7.4,7.5V54.6A7.5,7.5,0,0,1,95.1,62.1ZM75.7,31.2a4,4,0,0,0-4,4V54.6a4,4,0,0,0,4,4H95.1a4,4,0,0,0,3.9-4V35.2a4,4,0,0,0-3.9-4Z"/>
<rect class="cls-2" style="fill:#8a94b4;" x="56.7" y="32.4" width="3.4" height="24.96"/></svg>