{
  "id": 377,
  "title": "Ücretsiz YDS Deneme Sınavı 3",
  "examRemainingTime": 75000,
  "examDuration": 10800000,
  "pointer": 65147,
  "questions": [
    {
      "id": 65147,
      "order": 1,
      "state": "unanswered",
      "isPinned": false,
      "instructions": [
        {
          "id": 182,
          "content": "1 - 2: For these questions, with Two Gap with no older answer.",
          "start_question_order": 0
        }
      ],
      "type": "filling",
      "questionContent": [
        {
          "type": "text",
          "text": "this First text before the  ",
          "_aciklama_": "normal yazı alanları type: text olarak gelir, bu kısım döküman amacıyladır, okuduktan sonra lütfen silin."
        },
        {
          "type": "gap",
          "flag": 1
        },
        {
          "type": "text",
          "text": " this second one text the "
        }
      ],
      "question": [
        {
          "type": "text",
          "text": "this First text before the  "
        },
        {
          "type": "gap",
          "flag": 2
        },
        {
          "type": "text",
          "text": " ."
        }
      ],
      "isAnswered": false,
      "duration": 1402000,
      "selectedAnswer": null,
      "options": [
        {
          "id": 330307,
          "letterOrder": "A",
          "texts": [
            {
              "text": "first",
              "flag": 1
            },
            {
              "text": "second",
              "flag": 2
            }
          ],
          "_aciklama_":"text parametresi texts olarak değiştirildi (sonuna s takısı geldi) string'den array'e çevrildi çünkü tek şıkta boşluk doldurmalarda iki kelime ayrı yerlere yerleşmesi gerekiyordu , bu kısım döküman amacıyladır, okuduktan sonra lütfen silin."
        },
        {
          "id": 330308,
          "letterOrder": "B",
          "texts": [
            {
              "text": "second",
              "flag": 1
            },
            {
              "text": "first",
              "flag": 2
            }
          ],
          "_aciklama_":"text parametresi texts olarak değiştirildi (sonuna s takısı geldi) string'den array'e çevrildi çünkü tek şıkta boşluk doldurmalarda iki kelime ayrı yerlere yerleşmesi gerekiyordu , bu kısım döküman amacıyladır, okuduktan sonra lütfen silin."
        },
        {
          "id": 330309,
          "letterOrder": "C",
          "texts": [
            {
              "text": "first",
              "flag": 1
            },
            {
              "text": "first",
              "flag": 2
            }
          ],
          "_aciklama_":"text parametresi texts olarak değiştirildi (sonuna s takısı geldi) string'den array'e çevrildi çünkü tek şıkta boşluk doldurmalarda iki kelime ayrı yerlere yerleşmesi gerekiyordu , bu kısım döküman amacıyladır, okuduktan sonra lütfen silin."
        },
        {
          "id": 330310,
          "letterOrder": "D",
          "texts": [
            {
              "text": "second",
              "flag": 1
            },
            {
              "text": "second",
              "flag": 2
            }
          ],
          "_aciklama_":"text parametresi texts olarak değiştirildi (sonuna s takısı geldi) string'den array'e çevrildi çünkü tek şıkta boşluk doldurmalarda iki kelime ayrı yerlere yerleşmesi gerekiyordu , bu kısım döküman amacıyladır, okuduktan sonra lütfen silin."
        },
        {
          "id": 330311,
          "letterOrder": "E",
          "texts": [
            {
              "text": "services",
              "flag": 1
            },
            {
              "text": "services",
              "flag": 2
            }
          ],
          "_aciklama_":"text parametresi texts olarak değiştirildi (sonuna s takısı geldi) string'den array'e çevrildi çünkü tek şıkta boşluk doldurmalarda iki kelime ayrı yerlere yerleşmesi gerekiyordu , bu kısım döküman amacıyladır, okuduktan sonra lütfen silin."
        }
      ]
    },
    {
      "id": 64147,
      "order": 2,
      "state": "unanswered",
      "isPinned": false,
      "instructions": [
        {
          "id": 182,
          "content": "second question: this question has one gap and two old Answers",
          "start_question_order": 0
        }
      ],
      "type": "filling",
      "questionContent": [
        {
          "type": "text",
          "text": "this First text before the before the older Answer form 1 Questions  ",
          "_aciklama_": "normal yazı alanları type: text olarak gelir, bu kısım döküman amacıyladır, okuduktan sonra lütfen silin."
        }
      ],
      "question": [
        {
          "type": "gap",
          "flag": 3
        },
        {
          "type": "text",
          "text": " this first one text the id old answer "
        },
        {
          "type": "olderanswer",
          "questionId": 65147,
          "flag": 1
        },
        {
          "type": "text",
          "text": " the secound Old answers.  "
        },
        {
          "type": "olderanswer",
          "questionId": 65147,
          "flag": 2
        },
        {
          "type": "text",
          "text": " ."
        }
      ],
      "isAnswered": false,
      "duration": 1402000,
      "selectedAnswer": null,
      "options": [
        {
          "id": 330307,
          "letterOrder": "A",
          "texts": [
            {
              "text": "one",
              "flag": 3
            }
          ],
          "_aciklama_":"text parametresi texts olarak değiştirildi (sonuna s takısı geldi) string'den array'e çevrildi çünkü tek şıkta boşluk doldurmalarda iki kelime ayrı yerlere yerleşmesi gerekiyordu , bu kısım döküman amacıyladır, okuduktan sonra lütfen silin."
        },
        {
          "id": 330308,
          "letterOrder": "B",
          "texts": [
            {
              "text": "two",
              "flag": 3
            }
          ],
          "_aciklama_":"text parametresi texts olarak değiştirildi (sonuna s takısı geldi) string'den array'e çevrildi çünkü tek şıkta boşluk doldurmalarda iki kelime ayrı yerlere yerleşmesi gerekiyordu , bu kısım döküman amacıyladır, okuduktan sonra lütfen silin."
        },
        {
          "id": 330309,
          "letterOrder": "C",
          "texts": [
            {
              "text": "theree",
              "flag": 3
            }
          ],
          "_aciklama_":"text parametresi texts olarak değiştirildi (sonuna s takısı geldi) string'den array'e çevrildi çünkü tek şıkta boşluk doldurmalarda iki kelime ayrı yerlere yerleşmesi gerekiyordu , bu kısım döküman amacıyladır, okuduktan sonra lütfen silin."
        },
        {
          "id": 330310,
          "letterOrder": "D",
          "texts": [
            {
              "text": "four",
              "flag": 3
            }
          ],
          "_aciklama_":"text parametresi texts olarak değiştirildi (sonuna s takısı geldi) string'den array'e çevrildi çünkü tek şıkta boşluk doldurmalarda iki kelime ayrı yerlere yerleşmesi gerekiyordu , bu kısım döküman amacıyladır, okuduktan sonra lütfen silin."
        },
        {
          "id": 330311,
          "letterOrder": "E",
          "texts": [
            {
              "text": "five",
              "flag": 3
            }
          ],
          "_aciklama_":"text parametresi texts olarak değiştirildi (sonuna s takısı geldi) string'den array'e çevrildi çünkü tek şıkta boşluk doldurmalarda iki kelime ayrı yerlere yerleşmesi gerekiyordu , bu kısım döküman amacıyladır, okuduktan sonra lütfen silin."
        }
      ]
    },
    {
      "id": 63147,
      "order": 3,
      "state": "unanswered",
      "isPinned": false,
      "instructions": [
        {
          "id": 182,
          "content": "thrid question: For these questions with questions with Two Gap. ",
          "start_question_order": 0
        }
      ],
      "type": "filling",
      "questionContent": [
        {
          "type": "text",
          "text": "this First text before the before the older Answer form 1 Questions :  "
        },
        {
          "type": "gap",
          "flag": 4
        },
        {
          "type": "text",
          "text": " this second one Gap:  "
        },
        {
          "type": "gap",
          "flag": 5
        }
      ],
      "question": [
        {
          "type": "text",
          "text": "."
        }
      ],
      "isAnswered": false,
      "duration": 1402000,
      "selectedAnswer": null,
      "options": [
        {
          "id": 330307,
          "letterOrder": "A",
          "texts": [
            {
              "text": "one",
              "flag": 4
            }, {
              "text": "two",
              "flag": 5
            }
          ],
          "_aciklama_":"text parametresi texts olarak değiştirildi (sonuna s takısı geldi) string'den array'e çevrildi çünkü tek şıkta boşluk doldurmalarda iki kelime ayrı yerlere yerleşmesi gerekiyordu , bu kısım döküman amacıyladır, okuduktan sonra lütfen silin."
        },
        {
          "id": 330308,
          "letterOrder": "B",
          "texts": [
            {
              "text": "two",
              "flag": 4
            }, {
              "text": "one",
              "flag": 5
            }
          ],
          "_aciklama_":"text parametresi texts olarak değiştirildi (sonuna s takısı geldi) string'den array'e çevrildi çünkü tek şıkta boşluk doldurmalarda iki kelime ayrı yerlere yerleşmesi gerekiyordu , bu kısım döküman amacıyladır, okuduktan sonra lütfen silin."
        },
        {
          "id": 330309,
          "letterOrder": "C",
          "texts": [
            {
              "text": "three",
              "flag": 4
            }, {
              "text": "four",
              "flag": 5
            }
          ],
          "_aciklama_":"text parametresi texts olarak değiştirildi (sonuna s takısı geldi) string'den array'e çevrildi çünkü tek şıkta boşluk doldurmalarda iki kelime ayrı yerlere yerleşmesi gerekiyordu , bu kısım döküman amacıyladır, okuduktan sonra lütfen silin."
        },
        {
          "id": 330310,
          "letterOrder": "D",
          "texts": [
            {
              "text": "four",
              "flag": 4
            }, {
              "text": "three",
              "flag": 5
            }
          ],
          "_aciklama_":"text parametresi texts olarak değiştirildi (sonuna s takısı geldi) string'den array'e çevrildi çünkü tek şıkta boşluk doldurmalarda iki kelime ayrı yerlere yerleşmesi gerekiyordu , bu kısım döküman amacıyladır, okuduktan sonra lütfen silin."
        },
        {
          "id": 330311,
          "letterOrder": "E",
          "texts": [
            {
              "text": "four",
              "flag": 4
            },
            {
              "text": "five",
              "flag": 5
            }
          ],
          "_aciklama_":"text parametresi texts olarak değiştirildi (sonuna s takısı geldi) string'den array'e çevrildi çünkü tek şıkta boşluk doldurmalarda iki kelime ayrı yerlere yerleşmesi gerekiyordu , bu kısım döküman amacıyladır, okuduktan sonra lütfen silin."
        }
      ]
    },
    {
      "id": 62147,
      "order": 4,
      "state": "unanswered",
      "isPinned": false,
      "instructions": [
        {
          "id": 182,
          "content": "Four question: For these questions with questions with Two Gap. and tow old answers",
          "start_question_order": 0
        }
      ],
      "type": "filling",
      "questionContent": [
        {
          "type": "text",
          "text": "here the first gap:   "
        },
        {
          "type": "gap",
          "flag": 6
        },
        {
          "type": "text",
          "text": "here  first old Answer:   "
        },
        {
          "type": "olderanswer",
          "questionId": 63147,
          "flag": 4
        },
        {
          "type": "text",
          "text": " this second gap : "
        }
      ],
      "question": [
        {
          "type": "gap",
          "flag": 7
        },
        {
          "type": "text",
          "text": " this second old Answer: "
        },
        {
          "type": "olderanswer",
          "questionId": 63147,
          "flag": 5
        },
        {
          "type": "text",
          "text": "."
        }
      ],
      "isAnswered": false,
      "duration": 1402000,
      "selectedAnswer": null,
      "options": [
        {
          "id": 330307,
          "letterOrder": "A",
          "texts": [
            {
              "text": "one",
              "flag": 6
            }, {
              "text": "two",
              "flag": 7
            } 
          ],
          "_aciklama_":"text parametresi texts olarak değiştirildi (sonuna s takısı geldi) string'den array'e çevrildi çünkü tek şıkta boşluk doldurmalarda iki kelime ayrı yerlere yerleşmesi gerekiyordu , bu kısım döküman amacıyladır, okuduktan sonra lütfen silin."
        },
        {
          "id": 330308,
          "letterOrder": "B",
          "texts": [
            {
              "text": "two",
              "flag": 6
            }, {
              "text": "one",
              "flag": 7
            }
          ],
          "_aciklama_":"text parametresi texts olarak değiştirildi (sonuna s takısı geldi) string'den array'e çevrildi çünkü tek şıkta boşluk doldurmalarda iki kelime ayrı yerlere yerleşmesi gerekiyordu , bu kısım döküman amacıyladır, okuduktan sonra lütfen silin."
        },
        {
          "id": 330309,
          "letterOrder": "C",
          "texts": [
            {
              "text": "three",
              "flag": 6
            }, {
              "text": "four",
              "flag": 7
            }
          ],
          "_aciklama_":"text parametresi texts olarak değiştirildi (sonuna s takısı geldi) string'den array'e çevrildi çünkü tek şıkta boşluk doldurmalarda iki kelime ayrı yerlere yerleşmesi gerekiyordu , bu kısım döküman amacıyladır, okuduktan sonra lütfen silin."
        },
        {
          "id": 330310,
          "letterOrder": "D",
          "texts": [
            {
              "text": "four",
              "flag": 6
            }, {
              "text": "three",
              "flag": 7
            }
          ],
          "_aciklama_":"text parametresi texts olarak değiştirildi (sonuna s takısı geldi) string'den array'e çevrildi çünkü tek şıkta boşluk doldurmalarda iki kelime ayrı yerlere yerleşmesi gerekiyordu , bu kısım döküman amacıyladır, okuduktan sonra lütfen silin."
        },
        {
          "id": 330311,
          "letterOrder": "E",
          "texts": [
            {
              "text": "four",
              "flag": 6
            },
            {
              "text": "five",
              "flag": 7
            }
          ],
          "_aciklama_":"text parametresi texts olarak değiştirildi (sonuna s takısı geldi) string'den array'e çevrildi çünkü tek şıkta boşluk doldurmalarda iki kelime ayrı yerlere yerleşmesi gerekiyordu , bu kısım döküman amacıyladır, okuduktan sonra lütfen silin."
        }
      ]
    },
    {
      "id": 65484,
      "order": 5,
      "state": "unanswered",
      "isPinned": false,
      "instructions": [
        {
          "id": 1807,
          "content": "76 – 80: For these questions, choose the irrelevant sentence in the passage.",
          "start_question_order": 75
        }
      ],
      "type": "choose",
      "_aciklama_": "şık seçmeli sorular tpye: choose olarak gelir, bu kısım döküman amacıyladır, okuduktan sonra lütfen silin",
      "question": [
        {
          "type": "text",
          "text": "<b>(I)</b> While urbanisation has been a notable characteristic of European society for centuries, the trend toward industralisation and urbanisation has accelerated phenomenally since World War II. <b>(II)</b> London and Paris, for example, have been major urban centres for centuries, but many other European cities have experienced rapid expansion of their populations only since the late 1940s. <b>(III)</b> The clustering of substantial populations into metropolitan regions is a distinctive demographic feature of Europe. <b>(IV)</b> In countries such as Italy and Spain, which were largely agricultural and rural before World War II, we find that many of their cities have now become home to large numbers of people. <b>(V)</b> For example, Madrid and Rome experienced remarkable increases between 1960 and 1990, in comparison with more moderate increases for most cities in the former West Germany, France, and the United Kingdom."
        }
      ],
      "questionContent": [
        {
          "type": "text",
          "text": "sample question content"
        }
      ],
      "isAnswered": false,
      "duration": 2000,
      "selectedAnswer": null,
      "options": [
        {
          "id": 327033,
          "letterOrder": "A",
          "texts": [
            {
              "text": "I"
            }
          ],
          "_aciklama_":"text parametresi texts olarak değiştirildi (sonuna s takısı geldi) string'den array'e çevrildi çünkü tek şıkta boşluk doldurmalarda iki kelime ayrı yerlere yerleşmesi gerekiyordu , bu kısım döküman amacıyladır, okuduktan sonra lütfen silin."
        },
        {
          "id": 327034,
          "letterOrder": "B",
          "texts": [
            {
              "text": "II"
            }
          ],
          "_aciklama_":"text parametresi texts olarak değiştirildi (sonuna s takısı geldi) string'den array'e çevrildi çünkü tek şıkta boşluk doldurmalarda iki kelime ayrı yerlere yerleşmesi gerekiyordu , bu kısım döküman amacıyladır, okuduktan sonra lütfen silin."
        },
        {
          "id": 327035,
          "letterOrder": "C",
          "texts": [
            {
              "text": "III"
            }
          ],
          "_aciklama_":"text parametresi texts olarak değiştirildi (sonuna s takısı geldi) string'den array'e çevrildi çünkü tek şıkta boşluk doldurmalarda iki kelime ayrı yerlere yerleşmesi gerekiyordu , bu kısım döküman amacıyladır, okuduktan sonra lütfen silin."
        },
        {
          "id": 327036,
          "letterOrder": "D",
          "texts": [
            {
              "text": "IV"
            }
          ],
          "_aciklama_":"text parametresi texts olarak değiştirildi (sonuna s takısı geldi) string'den array'e çevrildi çünkü tek şıkta boşluk doldurmalarda iki kelime ayrı yerlere yerleşmesi gerekiyordu , bu kısım döküman amacıyladır, okuduktan sonra lütfen silin."
        },
        {
          "id": 327037,
          "letterOrder": "E",
          "texts": [
            {
              "text": "V"
            }
          ],
          "_aciklama_":"text parametresi texts olarak değiştirildi (sonuna s takısı geldi) string'den array'e çevrildi çünkü tek şıkta boşluk doldurmalarda iki kelime ayrı yerlere yerleşmesi gerekiyordu , bu kısım döküman amacıyladır, okuduktan sonra lütfen silin."
        }
      ]
    },
    {
      "id": 65485,
      "order": 6,
      "state": "unanswered",
      "isPinned": false,
      "instructions": [
        {
          "id": 1807,
          "content": "76 – 80: For these questions, choose the irrelevant sentence in the passage.",
          "start_question_order": 75
        }
      ],
      "type": "choose",
      "_aciklama_": "şık seçmeli sorular tpye: choose olarak gelir, bu kısım döküman amacıyladır, okuduktan sonra lütfen silin",
      "question": [
        {
          "type": "text",
          "text": "<b>(I)</b> Although iron is the most common metal, it was the last to be used by people. <b>(II)</b> Humanity made a huge advance when people learned how to use metals. <b>(III)</b> Metal tools were easier to shape than stone ones, and could be mass-produced using molds. <b>(IV)</b> Unlike a stone axe, which was useless when broken, a copper or bronze one could be melted down and recycled. <b>(V)</b> Shiny metals, such as gold and silver, were also perfect materials for jewellery and coins."
        }
      ],
      "isAnswered": false,
      "duration": 100000,
      "selectedAnswer": null,
      "options": [
        {
          "id": 327038,
          "letterOrder": "A",
          "texts": [
            {
              "text": "I"
            }
          ],
          "_aciklama_":"text parametresi texts olarak değiştirildi (sonuna s takısı geldi) string'den array'e çevrildi çünkü tek şıkta boşluk doldurmalarda iki kelime ayrı yerlere yerleşmesi gerekiyordu , bu kısım döküman amacıyladır, okuduktan sonra lütfen silin."
        },
        {
          "id": 327039,
          "letterOrder": "B",
          "texts": [
            {
              "text": "II"
            }
          ],
          "_aciklama_":"text parametresi texts olarak değiştirildi (sonuna s takısı geldi) string'den array'e çevrildi çünkü tek şıkta boşluk doldurmalarda iki kelime ayrı yerlere yerleşmesi gerekiyordu , bu kısım döküman amacıyladır, okuduktan sonra lütfen silin."
        },
        {
          "id": 327040,
          "letterOrder": "C",
          "texts": [
            {
              "text": "III"
            }
          ],
          "_aciklama_":"text parametresi texts olarak değiştirildi (sonuna s takısı geldi) string'den array'e çevrildi çünkü tek şıkta boşluk doldurmalarda iki kelime ayrı yerlere yerleşmesi gerekiyordu , bu kısım döküman amacıyladır, okuduktan sonra lütfen silin."
        },
        {
          "id": 327041,
          "letterOrder": "D",
          "texts": [
            {
              "text": "IV"
            }
          ],
          "_aciklama_":"text parametresi texts olarak değiştirildi (sonuna s takısı geldi) string'den array'e çevrildi çünkü tek şıkta boşluk doldurmalarda iki kelime ayrı yerlere yerleşmesi gerekiyordu , bu kısım döküman amacıyladır, okuduktan sonra lütfen silin."
        },
        {
          "id": 327042,
          "letterOrder": "E",
          "texts": [
            {
              "text": "V"
            }
          ],
          "_aciklama_":"text parametresi texts olarak değiştirildi (sonuna s takısı geldi) string'den array'e çevrildi çünkü tek şıkta boşluk doldurmalarda iki kelime ayrı yerlere yerleşmesi gerekiyordu , bu kısım döküman amacıyladır, okuduktan sonra lütfen silin."
        }
      ]
    }
  ],
  "targets": [
    {
      "id": 1,
      "title": "100",
      "value": 100,
      "crypt_id": "eyJpdiI6IkhCOUdOVmVEbzBDWThCRVwvU3BwdzVRPT0iLCJ2YWx1ZSI6IjZzWFI2VFZ4aXJNR3hsc2tEdXlGZmc9PSIsIm1hYyI6IjBmMGVmNTk3MTc5ZWQyOWIwNzY5N2ZlYmJmOGEwOWY0NDFmNjI3MzNmNGRhMTdhMjJiZjVlYmFmODE2YzVkN2EifQ=="
    },
    {
      "id": 2,
      "title": "90",
      "value": 90,
      "crypt_id": "eyJpdiI6ImJlb1wvRkVrSlE4ZW5tK1laa0JadmF3PT0iLCJ2YWx1ZSI6InpkaFdaQ0RQQm5tZTRZd0tqeTRQQ0E9PSIsIm1hYyI6IjVlOTQyYjQ1ZTRmNGU3ODk3MGI0ZDRhZjJkM2ZmNTczNzgwNWM2Y2M1YjJkZWQ1YzM5YTg4NTk1MGExZWMxNjEifQ=="
    },
    {
      "id": 3,
      "title": "80",
      "value": 80,
      "crypt_id": "eyJpdiI6IkhJMmEybkVlelRtaGsrTEo1UDViclE9PSIsInZhbHVlIjoidU8zUVBlT216RFN3N2ZBRzVBYTlzQT09IiwibWFjIjoiZTM4YTU0NmRmOGI1MGZmOGY3ODZkZDZjNjRhNjJmNDg2ODcxMzIzNDRkZDZjZjcyZWNkOTNiNjlkYjRmODliMCJ9"
    },
    {
      "id": 4,
      "title": "70",
      "value": 70,
      "crypt_id": "eyJpdiI6Im9Fek5DK2VMYVBoWFRaYzJiNGo2SEE9PSIsInZhbHVlIjoiU2VUUU1jRGNTOXRReVI1U082XC83OFE9PSIsIm1hYyI6ImI4ZGVhNmU4MWU4ZWFjMDIzOWNkZGJkYzgzZDY1MDNlYTI3OTdjOTkzYjc2MjI5MDBjMTE1ODUwYTM3NjdhOWEifQ=="
    },
    {
      "id": 5,
      "title": "65",
      "value": 65,
      "crypt_id": "eyJpdiI6IlJNWmVvazRBcUFjQ0VwcHBrZUJtM0E9PSIsInZhbHVlIjoic3BySkNSelF6cFo4RExJQ1wvRWNRTXc9PSIsIm1hYyI6IjFkM2Q3ZWY5NGE3YWRlYjgzNWY1ZmRhYjc5NzBjNTY0ODhmYmZhMDE5YjcyNjI0MTM4OWQ0NDlhYzc3YTZjZjgifQ=="
    },
    {
      "id": 6,
      "title": "60",
      "value": 60,
      "crypt_id": "eyJpdiI6IkxITElxQXRZeUJYWTdaSWZZTmlUeGc9PSIsInZhbHVlIjoidmoyRWpMZW1mcHRKUlVSaGx5YVV5Zz09IiwibWFjIjoiODY0NTFiMDI1NGJjMTdhYzlhYzFiNmNhMmE5Y2E5MDdhYmIwNjI5YzI4YmViYzZhMjc5Nzk1MDVkYzE0YmMyNiJ9"
    },
    {
      "id": 8,
      "title": "55",
      "value": 55,
      "crypt_id": "eyJpdiI6InVER05FM2gzYlUyNmRaaVoxSDBMU3c9PSIsInZhbHVlIjoiZGtXcUxrRUlCKzlORWtkM3NEbGNZUT09IiwibWFjIjoiMzEyOTRmMzdjMjNhZTA3NTE5ZjNlMzBjZjQ4MmVlOGUyNzkwYThiNzMwMjcxMTgzMTRiYzNmMjhiNmQ2MThhZiJ9"
    },
    {
      "id": 7,
      "title": "50",
      "value": 50,
      "crypt_id": "eyJpdiI6ImJNWnlVWUJxN1R1V1NMdHA5SW92XC9nPT0iLCJ2YWx1ZSI6Ild3ZDQ1NnFkQ01yRVZMK2VkcjJtb0E9PSIsIm1hYyI6IjgwNjgzYTk5ZjIwMzQ2MjlhODEzOWE5NTIyNmUxYjdhMDExZjNlZWM0OTliYTg4OTkzMmE2MjEwMTg2NjVmMzIifQ=="
    },
    {
      "id": 9,
      "title": "45",
      "value": 45,
      "crypt_id": "eyJpdiI6IklzZGFOUVBpbnJaNG8xWGVnWmFDMXc9PSIsInZhbHVlIjoieWVJVmtBVWJ6QXR0UWR0XC9OaXA5UGc9PSIsIm1hYyI6IjA2ZGJjMmZmMGQ1NjlmY2Q0Yzg2YzZhNmRjMGNmNzhhZjE0ZDU5NWY5NzY3YzVkNmIyYzFlNjY5YmMyNTA0NmQifQ=="
    },
    {
      "id": 10,
      "title": "40",
      "value": 40,
      "crypt_id": "eyJpdiI6IkVhQzhPRzRwaXVJc3c1ZFphUnBGMnc9PSIsInZhbHVlIjoiR0lnSWRQZGloZEdYMk1VeEhFZW8xQT09IiwibWFjIjoiYmUzNjllNDE5NjllMGU1NTM3OTZjZTY3MzE1M2JkYzdiYTJkMGMxMTJkZjc2M2YxMzI0YjA1MjUwNTBkZTYxZSJ9"
    }
  ],
  "solved": true,
  "elapsedTime": 10725,
  "correctCount": 0,
  "wrongCount": 2,
  "emptyCount": 78,
  "status": "completed",
  "progress": 100
}
