<?xml version="1.0" encoding="utf-8"?>
<!-- Generator: Adobe Illustrator 21.1.0, SVG Export Plug-In . SVG Version: 6.00 Build 0)  -->
<svg version="1.1" id="Layer_1" xmlns="http://www.w3.org/2000/svg" xmlns:xlink="http://www.w3.org/1999/xlink" x="0px" y="0px"
	 viewBox="0 0 100 100" style="enable-background:new 0 0 100 100;" xml:space="preserve">
<style type="text/css">
	.st0{clip-path:url(#SVGID_2_);fill:#216D54;}
	.st1{clip-path:url(#SVGID_2_);fill:#2C8A6E;}
	.st2{clip-path:url(#SVGID_2_);fill:#DFF1FF;}
</style>
<g>
	<defs>
		<rect id="SVGID_1_" x="0" y="0" width="100" height="99.9"/>
	</defs>
	<clipPath id="SVGID_2_">
		<use xlink:href="#SVGID_1_"  style="overflow:visible;"/>
	</clipPath>
	<path class="st0" d="M0,45.9V16.2C0,7.3,7.3,0,16.2,0h62.1C87.1,0,94.3,7.2,94.3,16v51c0,8.9-7.2,16-16,16H28.7c-1,0-1.8,0-2.5,0
		c-0.7,0-1.5,0-1.9,0c-0.3,0.2-1.1,1-1.9,1.7c-0.3,0.3-0.7,0.6-1,0.9L6.8,98.9c-1.2,1.1-2.9,1.3-4.3,0.7C1,99,0,97.6,0,96V53.9V45.9
		z"/>
	<path class="st0" d="M3.6,99.6c0,0.2,0.2,0.4,0.4,0.4l6,0l0.9-8"/>
	<path class="st1" d="M5.7,45.9V16.2C5.7,7.3,13,0,21.9,0h62.1C92.9,0,100,7.2,100,16v51.1c0,8.8-7.1,15.9-15.9,15.9H34.4
		c-1,0-1.8,0-2.5,0c-0.7,0-1.5,0-1.9,0c-0.3,0.2-1.1,1-1.9,1.7c-0.3,0.3-0.7,0.6-1,0.9L12.5,98.9c-1.2,1.1-2.9,1.3-4.3,0.7
		C6.7,99,5.7,97.6,5.7,96V53.9V45.9z"/>
	<path class="st2" d="M21.5,27.7C20.9,25.5,22,24,24.3,24H28c1.9,0,3.1,0.9,3.5,2.9L37.8,50c0.5,2.1,0.8,4.2,0.8,4.2h0.2
		c0,0,0.3-2.1,0.9-4.2l6.7-23.1c0.4-1.9,1.6-2.8,3.6-2.8h2.9c1.9,0,3.1,0.9,3.6,2.8L62.9,50c0.6,2.1,0.9,4.2,0.9,4.2h0.2
		c0,0,0.3-2.1,0.9-4.2L71,26.9c0.5-1.9,1.6-2.9,3.6-2.9h3.6c2.3,0,3.3,1.5,2.7,3.6L70.7,60.8c-0.5,1.9-1.8,2.7-3.6,2.7h-5.2
		c-1.9,0-3.2-0.9-3.6-2.8l-6-19.7c-0.6-2.1-0.9-4.3-0.9-4.3h-0.2c0,0-0.4,2.2-1,4.3l-6,19.7c-0.5,1.9-1.6,2.8-3.6,2.8h-5.3
		c-1.9,0-3-0.9-3.6-2.7L21.5,27.7z"/>
</g>
</svg>
