<?xml version="1.0" encoding="utf-8"?>
<!-- Generator: Adobe Illustrator 21.1.0, SVG Export Plug-In . SVG Version: 6.00 Build 0)  -->
<svg version="1.1" id="Isolation_Mode" xmlns="http://www.w3.org/2000/svg" xmlns:xlink="http://www.w3.org/1999/xlink" x="0px"
	 y="0px" viewBox="0 0 114.9 100" style="enable-background:new 0 0 114.9 100;" xml:space="preserve">
<style type="text/css">
	.st0{opacity:0.55;fill:#3A95E2;}
	.st1{fill:#296D5B;}
	.st2{fill:#399982;}
	.st3{fill:#5FC4AB;}
	.st4{opacity:0.8;fill:#FFFFFF;}
</style>
<path class="st0" d="M92.4,99.9H78.2h-3.1h-6.2H29.4h-2.7v0.1l-10,0c-0.3,0-0.5-0.1-0.8-0.1h-5.4c-5.8,0-10.5-4.7-10.5-10.5V20.6H0
	V90c0,5.5,4.5,10,10,10h84.3v-0.1H92.4z"/>
<path class="st0" d="M104.4,100h0.5c5.5,0,10-4.5,10-10v-0.6c0,1.5-0.3,2.8-0.8,4.1C112.5,97.3,108.8,100,104.4,100z"/>
<path class="st0" d="M104.9,0h-0.4c5.8,0,10.5,4.7,10.5,10.5v8l0,0V10C114.9,4.5,110.4,0,104.9,0z"/>
<path class="st0" d="M0.1,10.5C0.1,4.7,4.8,0,10.5,0H10C4.5,0,0,4.5,0,10v5.7h0.1V10.5z"/>
<path class="st1" d="M0.1,89.4c0,5.8,4.7,10.5,10.5,10.5h5.4c-5.4-0.4-9.7-4.9-9.7-10.4l0-66.4h0v-4.8h0v-7.7c0-2.9,1.2-5.5,3.1-7.4
	C11.1,1.2,13.8,0,16.7,0h-6.2C4.8,0,0.1,4.7,0.1,10.5v5.3H0v4.8h0.1V89.4z"/>
<path class="st0" d="M0.1,89.4c0,5.8,4.7,10.5,10.5,10.5h5.4c-5.4-0.4-9.7-4.9-9.7-10.4l0-66.4h0v-4.8h0v-7.7c0-2.9,1.2-5.5,3.1-7.4
	C11.1,1.2,13.8,0,16.7,0h-6.2C4.8,0,0.1,4.7,0.1,10.5v5.3H0v4.8h0.1V89.4z"/>
<path class="st2" d="M114.9,10.5c0-5.8-4.7-10.5-10.5-10.5h-6.2h-7.2H29.4H16.7c-2.9,0-5.6,1.2-7.5,3.1C7.3,5,6.2,7.6,6.2,10.5v7.7
	h0v4.8h0l0,66.4c0,5.5,4.3,10,9.7,10.4c0.3,0,0.5,0.1,0.8,0.1l10,0v-0.1h2.7h39.5h6.2h3.1h14.2h1.9v0.1h10c4.4,0,8.1-2.7,9.7-6.5
	c0.5-1.3,0.8-2.6,0.8-4.1V18.5l0,0V10.5z M109.4,69.4H95.6c-0.4,0-0.8-0.3-0.8-0.7v-8.8c0-0.4,0.3-0.7,0.8-0.7h13.9
	c0.4,0,0.8,0.3,0.8,0.7v8.8C110.2,69.1,109.9,69.4,109.4,69.4z M110.2,73.7v8.8c0,0.4-0.3,0.7-0.8,0.7H95.6c-0.4,0-0.8-0.3-0.8-0.7
	v-8.8c0-0.4,0.3-0.7,0.8-0.7h13.9C109.9,73,110.2,73.3,110.2,73.7z M109.4,55.6H95.6c-0.4,0-0.8-0.3-0.8-0.7V46
	c0-0.4,0.3-0.7,0.8-0.7h13.9c0.4,0,0.8,0.3,0.8,0.7v8.8C110.2,55.2,109.9,55.6,109.4,55.6z M109.4,41.7H95.6c-0.4,0-0.8-0.3-0.8-0.7
	v-8.8c0-0.4,0.3-0.7,0.8-0.7h13.9c0.4,0,0.8,0.3,0.8,0.7V41C110.2,41.4,109.9,41.7,109.4,41.7z M94.8,87.6c0-0.4,0.3-0.8,0.8-0.8
	h13.9c0.4,0,0.8,0.3,0.8,0.8v2.8c0,3.7-3,6.7-6.7,6.7h-8c-0.4,0-0.7-0.3-0.7-0.7V87.6z M109.4,27.9H95.6c-0.4,0-0.8-0.3-0.8-0.7
	v-8.8c0-0.4,0.3-0.7,0.8-0.7h13.9c0.4,0,0.8,0.3,0.8,0.7v8.8C110.2,27.5,109.9,27.9,109.4,27.9z M110.2,10.5v2.8
	c0,0.4-0.3,0.7-0.7,0.7H95.6c-0.4,0-0.8-0.3-0.8-0.8V4.5c0-0.4,0.3-0.7,0.7-0.7h7.9C107.2,3.7,110.2,6.8,110.2,10.5z M75.7,0
	c0,7.7-6.2,13.9-13.9,13.9h-2.3c-7.7,0-13.9-6.2-13.9-13.9H75.7z M10.5,90.4v-2.8c0-0.4,0.3-0.7,0.7-0.7h13.9c0.4,0,0.8,0.3,0.8,0.8
	v8.8c0,0.4-0.3,0.7-0.7,0.7h-7.9C13.6,97.1,10.5,94.1,10.5,90.4z M25.2,83.3H11.3c-0.4,0-0.8-0.3-0.8-0.7v-8.8
	c0-0.4,0.3-0.7,0.8-0.7h13.9c0.4,0,0.8,0.3,0.8,0.7v8.8C26,83,25.6,83.3,25.2,83.3z M25.2,69.4H11.3c-0.4,0-0.8-0.3-0.8-0.7v-8.8
	c0-0.4,0.3-0.7,0.8-0.7h13.9c0.4,0,0.8,0.3,0.8,0.7v8.8C26,69.1,25.6,69.4,25.2,69.4z M25.2,55.6H11.3c-0.4,0-0.8-0.3-0.8-0.7V46
	c0-0.4,0.3-0.7,0.8-0.7h13.9c0.4,0,0.8,0.3,0.8,0.7v8.8C26,55.2,25.6,55.6,25.2,55.6z M25.2,41.7H11.3c-0.4,0-0.8-0.3-0.8-0.7v-8.8
	c0-0.4,0.3-0.7,0.8-0.7h13.9c0.4,0,0.8,0.3,0.8,0.7V41C26,41.4,25.6,41.7,25.2,41.7z M25.2,27.9H11.3c-0.4,0-0.8-0.3-0.8-0.7v-8.8
	c0-0.4,0.3-0.7,0.8-0.7h13.9c0.4,0,0.8,0.3,0.8,0.7v8.8C26,27.5,25.6,27.9,25.2,27.9z M25.2,3.7c0.4,0,0.7,0.3,0.7,0.7v8.8
	c0,0.4-0.3,0.8-0.8,0.8H11.3c-0.4,0-0.8-0.3-0.8-0.8v-2.8c0-3.7,3-6.7,6.7-6.7H25.2z M45.7,99.7c0-7.7,6.2-13.9,13.9-13.9h2.3
	c7.7,0,13.9,6.2,13.9,13.9H45.7z M78.4,51.8L54.2,66.1c-0.5,0.3-1,0.4-1.5,0.4c-0.5,0-1-0.1-1.4-0.4l0,0c-1.8,1.1-4.1-0.2-4.1-2.3
	V36.1c0-2.1,2.2-3.4,4-2.4l0.1,0c0.4-0.2,0.9-0.4,1.4-0.4c0.5,0,1,0.1,1.4,0.3l24.2,13.3C80.2,48.1,80.2,50.7,78.4,51.8z"/>
<path class="st0" d="M114.9,10.5c0-5.8-4.7-10.5-10.5-10.5h-6.2h-7.2H29.4H16.7c-2.9,0-5.6,1.2-7.5,3.1C7.3,5,6.2,7.6,6.2,10.5v7.7
	h0v4.8h0l0,66.4c0,5.5,4.3,10,9.7,10.4c0.3,0,0.5,0.1,0.8,0.1l10,0v-0.1h2.7h39.5h6.2h3.1h14.2h1.9v0.1h10c4.4,0,8.1-2.7,9.7-6.5
	c0.5-1.3,0.8-2.6,0.8-4.1V18.5l0,0V10.5z M109.4,69.4H95.6c-0.4,0-0.8-0.3-0.8-0.7v-8.8c0-0.4,0.3-0.7,0.8-0.7h13.9
	c0.4,0,0.8,0.3,0.8,0.7v8.8C110.2,69.1,109.9,69.4,109.4,69.4z M110.2,73.7v8.8c0,0.4-0.3,0.7-0.8,0.7H95.6c-0.4,0-0.8-0.3-0.8-0.7
	v-8.8c0-0.4,0.3-0.7,0.8-0.7h13.9C109.9,73,110.2,73.3,110.2,73.7z M109.4,55.6H95.6c-0.4,0-0.8-0.3-0.8-0.7V46
	c0-0.4,0.3-0.7,0.8-0.7h13.9c0.4,0,0.8,0.3,0.8,0.7v8.8C110.2,55.2,109.9,55.6,109.4,55.6z M109.4,41.7H95.6c-0.4,0-0.8-0.3-0.8-0.7
	v-8.8c0-0.4,0.3-0.7,0.8-0.7h13.9c0.4,0,0.8,0.3,0.8,0.7V41C110.2,41.4,109.9,41.7,109.4,41.7z M94.8,87.6c0-0.4,0.3-0.8,0.8-0.8
	h13.9c0.4,0,0.8,0.3,0.8,0.8v2.8c0,3.7-3,6.7-6.7,6.7h-8c-0.4,0-0.7-0.3-0.7-0.7V87.6z M109.4,27.9H95.6c-0.4,0-0.8-0.3-0.8-0.7
	v-8.8c0-0.4,0.3-0.7,0.8-0.7h13.9c0.4,0,0.8,0.3,0.8,0.7v8.8C110.2,27.5,109.9,27.9,109.4,27.9z M110.2,10.5v2.8
	c0,0.4-0.3,0.7-0.7,0.7H95.6c-0.4,0-0.8-0.3-0.8-0.8V4.5c0-0.4,0.3-0.7,0.7-0.7h7.9C107.2,3.7,110.2,6.8,110.2,10.5z M75.7,0
	c0,7.7-6.2,13.9-13.9,13.9h-2.3c-7.7,0-13.9-6.2-13.9-13.9H75.7z M10.5,90.4v-2.8c0-0.4,0.3-0.7,0.7-0.7h13.9c0.4,0,0.8,0.3,0.8,0.8
	v8.8c0,0.4-0.3,0.7-0.7,0.7h-7.9C13.6,97.1,10.5,94.1,10.5,90.4z M25.2,83.3H11.3c-0.4,0-0.8-0.3-0.8-0.7v-8.8
	c0-0.4,0.3-0.7,0.8-0.7h13.9c0.4,0,0.8,0.3,0.8,0.7v8.8C26,83,25.6,83.3,25.2,83.3z M25.2,69.4H11.3c-0.4,0-0.8-0.3-0.8-0.7v-8.8
	c0-0.4,0.3-0.7,0.8-0.7h13.9c0.4,0,0.8,0.3,0.8,0.7v8.8C26,69.1,25.6,69.4,25.2,69.4z M25.2,55.6H11.3c-0.4,0-0.8-0.3-0.8-0.7V46
	c0-0.4,0.3-0.7,0.8-0.7h13.9c0.4,0,0.8,0.3,0.8,0.7v8.8C26,55.2,25.6,55.6,25.2,55.6z M25.2,41.7H11.3c-0.4,0-0.8-0.3-0.8-0.7v-8.8
	c0-0.4,0.3-0.7,0.8-0.7h13.9c0.4,0,0.8,0.3,0.8,0.7V41C26,41.4,25.6,41.7,25.2,41.7z M25.2,27.9H11.3c-0.4,0-0.8-0.3-0.8-0.7v-8.8
	c0-0.4,0.3-0.7,0.8-0.7h13.9c0.4,0,0.8,0.3,0.8,0.7v8.8C26,27.5,25.6,27.9,25.2,27.9z M25.2,3.7c0.4,0,0.7,0.3,0.7,0.7v8.8
	c0,0.4-0.3,0.8-0.8,0.8H11.3c-0.4,0-0.8-0.3-0.8-0.8v-2.8c0-3.7,3-6.7,6.7-6.7H25.2z M45.7,99.7c0-7.7,6.2-13.9,13.9-13.9h2.3
	c7.7,0,13.9,6.2,13.9,13.9H45.7z M78.4,51.8L54.2,66.1c-0.5,0.3-1,0.4-1.5,0.4c-0.5,0-1-0.1-1.4-0.4l0,0c-1.8,1.1-4.1-0.2-4.1-2.3
	V36.1c0-2.1,2.2-3.4,4-2.4l0.1,0c0.4-0.2,0.9-0.4,1.4-0.4c0.5,0,1,0.1,1.4,0.3l24.2,13.3C80.2,48.1,80.2,50.7,78.4,51.8z"/>
<path class="st1" d="M50,63.8V36.1c0-1,0.6-1.9,1.3-2.3l-0.1,0c-1.8-1-4,0.3-4,2.4v27.6c0,2.1,2.3,3.4,4.1,2.3l0,0
	C50.6,65.6,50,64.8,50,63.8z"/>
<path class="st0" d="M50,63.8V36.1c0-1,0.6-1.9,1.3-2.3l-0.1,0c-1.8-1-4,0.3-4,2.4v27.6c0,2.1,2.3,3.4,4.1,2.3l0,0
	C50.6,65.6,50,64.8,50,63.8z"/>
<path class="st3" d="M50.2,63.8V36.1c0-1.5,1.2-2.6,2.6-2.7c-0.5,0-1,0.1-1.4,0.4c-0.8,0.5-1.3,1.3-1.3,2.3v27.6
	c0,1,0.6,1.9,1.3,2.3c0.4,0.3,0.9,0.4,1.4,0.4C51.4,66.4,50.2,65.3,50.2,63.8z"/>
<path class="st0" d="M50.2,63.8V36.1c0-1.5,1.2-2.6,2.6-2.7c-0.5,0-1,0.1-1.4,0.4c-0.8,0.5-1.3,1.3-1.3,2.3v27.6
	c0,1,0.6,1.9,1.3,2.3c0.4,0.3,0.9,0.4,1.4,0.4C51.4,66.4,50.2,65.3,50.2,63.8z"/>
<path class="st2" d="M78.3,47.1L54.2,33.8c-0.5-0.3-1-0.4-1.4-0.3c0.4,0,0.9,0.1,1.3,0.3l24.2,13.3c1.8,1,1.9,3.6,0.1,4.7L54.1,66.1
	c-0.4,0.3-0.9,0.4-1.3,0.4c0.5,0,1-0.1,1.5-0.4l24.2-14.3C80.2,50.7,80.2,48.1,78.3,47.1z"/>
<path class="st4" d="M78.3,47.1L54.2,33.8c-0.5-0.3-1-0.4-1.4-0.3c0.4,0,0.9,0.1,1.3,0.3l24.2,13.3c1.8,1,1.9,3.6,0.1,4.7L54.1,66.1
	c-0.4,0.3-0.9,0.4-1.3,0.4c0.5,0,1-0.1,1.5-0.4l24.2-14.3C80.2,50.7,80.2,48.1,78.3,47.1z"/>
<path class="st0" d="M78.3,47.1L54.2,33.8c-0.5-0.3-1-0.4-1.4-0.3c0.4,0,0.9,0.1,1.3,0.3l24.2,13.3c1.8,1,1.9,3.6,0.1,4.7L54.1,66.1
	c-0.4,0.3-0.9,0.4-1.3,0.4c0.5,0,1-0.1,1.5-0.4l24.2-14.3C80.2,50.7,80.2,48.1,78.3,47.1z"/>
<path class="st3" d="M78.3,51.8c1.8-1.1,1.8-3.7-0.1-4.7L54,33.8c-0.4-0.2-0.9-0.3-1.3-0.3c-1.4,0.1-2.6,1.2-2.6,2.7v27.6
	c0,1.5,1.2,2.7,2.6,2.7c0.4,0,0.9-0.1,1.3-0.4L78.3,51.8z"/>
<path class="st4" d="M78.3,51.8c1.8-1.1,1.8-3.7-0.1-4.7L54,33.8c-0.4-0.2-0.9-0.3-1.3-0.3c-1.4,0.1-2.6,1.2-2.6,2.7v27.6
	c0,1.5,1.2,2.7,2.6,2.7c0.4,0,0.9-0.1,1.3-0.4L78.3,51.8z"/>
<path class="st0" d="M78.3,51.8c1.8-1.1,1.8-3.7-0.1-4.7L54,33.8c-0.4-0.2-0.9-0.3-1.3-0.3c-1.4,0.1-2.6,1.2-2.6,2.7v27.6
	c0,1.5,1.2,2.7,2.6,2.7c0.4,0,0.9-0.1,1.3-0.4L78.3,51.8z"/>
<path class="st3" d="M10.5,10.5v2.8c0,0.4,0.3,0.8,0.8,0.8h13.9c0.4,0,0.8-0.3,0.8-0.8V4.5c0-0.4-0.3-0.7-0.7-0.7h-8
	C13.6,3.7,10.5,6.8,10.5,10.5z"/>
<path class="st0" d="M10.5,10.5v2.8c0,0.4,0.3,0.8,0.8,0.8h13.9c0.4,0,0.8-0.3,0.8-0.8V4.5c0-0.4-0.3-0.7-0.7-0.7h-8
	C13.6,3.7,10.5,6.8,10.5,10.5z"/>
<path class="st3" d="M26,18.3c0-0.4-0.3-0.7-0.8-0.7H11.3c-0.4,0-0.8,0.3-0.8,0.7v8.8c0,0.4,0.3,0.7,0.8,0.7h13.9
	c0.4,0,0.8-0.3,0.8-0.7V18.3z"/>
<path class="st0" d="M26,18.3c0-0.4-0.3-0.7-0.8-0.7H11.3c-0.4,0-0.8,0.3-0.8,0.7v8.8c0,0.4,0.3,0.7,0.8,0.7h13.9
	c0.4,0,0.8-0.3,0.8-0.7V18.3z"/>
<path class="st3" d="M26,32.2c0-0.4-0.3-0.7-0.8-0.7H11.3c-0.4,0-0.8,0.3-0.8,0.7V41c0,0.4,0.3,0.7,0.8,0.7h13.9
	c0.4,0,0.8-0.3,0.8-0.7V32.2z"/>
<path class="st0" d="M26,32.2c0-0.4-0.3-0.7-0.8-0.7H11.3c-0.4,0-0.8,0.3-0.8,0.7V41c0,0.4,0.3,0.7,0.8,0.7h13.9
	c0.4,0,0.8-0.3,0.8-0.7V32.2z"/>
<path class="st3" d="M26,46c0-0.4-0.3-0.7-0.8-0.7H11.3c-0.4,0-0.8,0.3-0.8,0.7v8.8c0,0.4,0.3,0.7,0.8,0.7h13.9
	c0.4,0,0.8-0.3,0.8-0.7V46z"/>
<path class="st0" d="M26,46c0-0.4-0.3-0.7-0.8-0.7H11.3c-0.4,0-0.8,0.3-0.8,0.7v8.8c0,0.4,0.3,0.7,0.8,0.7h13.9
	c0.4,0,0.8-0.3,0.8-0.7V46z"/>
<path class="st3" d="M26,59.9c0-0.4-0.3-0.7-0.8-0.7H11.3c-0.4,0-0.8,0.3-0.8,0.7v8.8c0,0.4,0.3,0.7,0.8,0.7h13.9
	c0.4,0,0.8-0.3,0.8-0.7V59.9z"/>
<path class="st0" d="M26,59.9c0-0.4-0.3-0.7-0.8-0.7H11.3c-0.4,0-0.8,0.3-0.8,0.7v8.8c0,0.4,0.3,0.7,0.8,0.7h13.9
	c0.4,0,0.8-0.3,0.8-0.7V59.9z"/>
<path class="st3" d="M26,73.7c0-0.4-0.3-0.7-0.8-0.7H11.3c-0.4,0-0.8,0.3-0.8,0.7v8.8c0,0.4,0.3,0.7,0.8,0.7h13.9
	c0.4,0,0.8-0.3,0.8-0.7V73.7z"/>
<path class="st0" d="M26,73.7c0-0.4-0.3-0.7-0.8-0.7H11.3c-0.4,0-0.8,0.3-0.8,0.7v8.8c0,0.4,0.3,0.7,0.8,0.7h13.9
	c0.4,0,0.8-0.3,0.8-0.7V73.7z"/>
<path class="st3" d="M25.2,97.1c0.4,0,0.7-0.3,0.7-0.7v-8.8c0-0.4-0.3-0.8-0.8-0.8H11.3c-0.4,0-0.7,0.3-0.7,0.7v2.8
	c0,3.7,3,6.8,6.8,6.8H25.2z"/>
<path class="st0" d="M25.2,97.1c0.4,0,0.7-0.3,0.7-0.7v-8.8c0-0.4-0.3-0.8-0.8-0.8H11.3c-0.4,0-0.7,0.3-0.7,0.7v2.8
	c0,3.7,3,6.8,6.8,6.8H25.2z"/>
<path class="st3" d="M95.5,97.1h8c3.7,0,6.7-3,6.7-6.7v-2.8c0-0.4-0.3-0.8-0.8-0.8H95.6c-0.4,0-0.8,0.3-0.8,0.8v8.8
	C94.8,96.8,95.1,97.1,95.5,97.1z"/>
<path class="st0" d="M95.5,97.1h8c3.7,0,6.7-3,6.7-6.7v-2.8c0-0.4-0.3-0.8-0.8-0.8H95.6c-0.4,0-0.8,0.3-0.8,0.8v8.8
	C94.8,96.8,95.1,97.1,95.5,97.1z"/>
<path class="st3" d="M109.4,73H95.6c-0.4,0-0.8,0.3-0.8,0.7v8.8c0,0.4,0.3,0.7,0.8,0.7h13.9c0.4,0,0.8-0.3,0.8-0.7v-8.8
	C110.2,73.3,109.9,73,109.4,73z"/>
<path class="st0" d="M109.4,73H95.6c-0.4,0-0.8,0.3-0.8,0.7v8.8c0,0.4,0.3,0.7,0.8,0.7h13.9c0.4,0,0.8-0.3,0.8-0.7v-8.8
	C110.2,73.3,109.9,73,109.4,73z"/>
<path class="st3" d="M110.2,59.9c0-0.4-0.3-0.7-0.8-0.7H95.6c-0.4,0-0.8,0.3-0.8,0.7v8.8c0,0.4,0.3,0.7,0.8,0.7h13.9
	c0.4,0,0.8-0.3,0.8-0.7V59.9z"/>
<path class="st0" d="M110.2,59.9c0-0.4-0.3-0.7-0.8-0.7H95.6c-0.4,0-0.8,0.3-0.8,0.7v8.8c0,0.4,0.3,0.7,0.8,0.7h13.9
	c0.4,0,0.8-0.3,0.8-0.7V59.9z"/>
<path class="st3" d="M110.2,46c0-0.4-0.3-0.7-0.8-0.7H95.6c-0.4,0-0.8,0.3-0.8,0.7v8.8c0,0.4,0.3,0.7,0.8,0.7h13.9
	c0.4,0,0.8-0.3,0.8-0.7V46z"/>
<path class="st0" d="M110.2,46c0-0.4-0.3-0.7-0.8-0.7H95.6c-0.4,0-0.8,0.3-0.8,0.7v8.8c0,0.4,0.3,0.7,0.8,0.7h13.9
	c0.4,0,0.8-0.3,0.8-0.7V46z"/>
<path class="st3" d="M110.2,32.2c0-0.4-0.3-0.7-0.8-0.7H95.6c-0.4,0-0.8,0.3-0.8,0.7V41c0,0.4,0.3,0.7,0.8,0.7h13.9
	c0.4,0,0.8-0.3,0.8-0.7V32.2z"/>
<path class="st0" d="M110.2,32.2c0-0.4-0.3-0.7-0.8-0.7H95.6c-0.4,0-0.8,0.3-0.8,0.7V41c0,0.4,0.3,0.7,0.8,0.7h13.9
	c0.4,0,0.8-0.3,0.8-0.7V32.2z"/>
<path class="st3" d="M110.2,18.3c0-0.4-0.3-0.7-0.8-0.7H95.6c-0.4,0-0.8,0.3-0.8,0.7v8.8c0,0.4,0.3,0.7,0.8,0.7h13.9
	c0.4,0,0.8-0.3,0.8-0.7V18.3z"/>
<path class="st0" d="M110.2,18.3c0-0.4-0.3-0.7-0.8-0.7H95.6c-0.4,0-0.8,0.3-0.8,0.7v8.8c0,0.4,0.3,0.7,0.8,0.7h13.9
	c0.4,0,0.8-0.3,0.8-0.7V18.3z"/>
<path class="st3" d="M94.8,4.5v8.8c0,0.4,0.3,0.8,0.8,0.8h13.9c0.4,0,0.7-0.3,0.7-0.7v-2.8c0-3.7-3-6.8-6.8-6.8h-7.9
	C95.1,3.7,94.8,4.1,94.8,4.5z"/>
<path class="st0" d="M94.8,4.5v8.8c0,0.4,0.3,0.8,0.8,0.8h13.9c0.4,0,0.7-0.3,0.7-0.7v-2.8c0-3.7-3-6.8-6.8-6.8h-7.9
	C95.1,3.7,94.8,4.1,94.8,4.5z"/>
<path class="st1" d="M61.8,85.8h-2.3c-7.7,0-13.9,6.2-13.9,13.9h30.1C75.7,92,69.5,85.8,61.8,85.8z"/>
<path class="st0" d="M61.8,85.8h-2.3c-7.7,0-13.9,6.2-13.9,13.9h30.1C75.7,92,69.5,85.8,61.8,85.8z"/>
<path class="st1" d="M59.6,13.9h2.3c7.7,0,13.9-6.2,13.9-13.9H45.7C45.7,7.7,51.9,13.9,59.6,13.9z"/>
<path class="st0" d="M59.6,13.9h2.3c7.7,0,13.9-6.2,13.9-13.9H45.7C45.7,7.7,51.9,13.9,59.6,13.9z"/>
</svg>
